%!PS-Adobe-3.0 EPSF-3.0
%%Creator: (MATLAB, The Mathworks, Inc. Version 8.6.0.267246 \(R2015b\). Operating System: Linux)
%%Title: /afs/kth.se/home/s/a/samiula/Documents/PatternRecognition/Assignment2_updated/Assignment2/DrawCharacter/X/X.eps
%%CreationDate: 2016-09-28T15:31:04
%%Pages: (atend)
%%BoundingBox: 0 0 323 338
%%LanguageLevel: 2
%%EndComments
%%BeginProlog
%%BeginResource: procset (Apache XML Graphics Std ProcSet) 1.2 0
%%Version: 1.2 0
%%Copyright: (Copyright 2001-2003,2010 The Apache Software Foundation. License terms: http://www.apache.org/licenses/LICENSE-2.0)
/bd{bind def}bind def
/ld{load def}bd
/GR/grestore ld
/M/moveto ld
/LJ/setlinejoin ld
/C/curveto ld
/f/fill ld
/LW/setlinewidth ld
/GC/setgray ld
/t/show ld
/N/newpath ld
/CT/concat ld
/cp/closepath ld
/S/stroke ld
/L/lineto ld
/CC/setcmykcolor ld
/A/ashow ld
/GS/gsave ld
/RC/setrgbcolor ld
/RM/rmoveto ld
/ML/setmiterlimit ld
/re {4 2 roll M
1 index 0 rlineto
0 exch rlineto
neg 0 rlineto
cp } bd
/_ctm matrix def
/_tm matrix def
/BT { _ctm currentmatrix pop matrix _tm copy pop 0 0 moveto } bd
/ET { _ctm setmatrix } bd
/iTm { _ctm setmatrix _tm concat } bd
/Tm { _tm astore pop iTm 0 0 moveto } bd
/ux 0.0 def
/uy 0.0 def
/F {
  /Tp exch def
  /Tf exch def
  Tf findfont Tp scalefont setfont
  /cf Tf def  /cs Tp def
} bd
/ULS {currentpoint /uy exch def /ux exch def} bd
/ULE {
  /Tcx currentpoint pop def
  gsave
  newpath
  cf findfont cs scalefont dup
  /FontMatrix get 0 get /Ts exch def /FontInfo get dup
  /UnderlinePosition get Ts mul /To exch def
  /UnderlineThickness get Ts mul /Tt exch def
  ux uy To add moveto  Tcx uy To add lineto
  Tt setlinewidth stroke
  grestore
} bd
/OLE {
  /Tcx currentpoint pop def
  gsave
  newpath
  cf findfont cs scalefont dup
  /FontMatrix get 0 get /Ts exch def /FontInfo get dup
  /UnderlinePosition get Ts mul /To exch def
  /UnderlineThickness get Ts mul /Tt exch def
  ux uy To add cs add moveto Tcx uy To add cs add lineto
  Tt setlinewidth stroke
  grestore
} bd
/SOE {
  /Tcx currentpoint pop def
  gsave
  newpath
  cf findfont cs scalefont dup
  /FontMatrix get 0 get /Ts exch def /FontInfo get dup
  /UnderlinePosition get Ts mul /To exch def
  /UnderlineThickness get Ts mul /Tt exch def
  ux uy To add cs 10 mul 26 idiv add moveto Tcx uy To add cs 10 mul 26 idiv add lineto
  Tt setlinewidth stroke
  grestore
} bd
/QT {
/Y22 exch store
/X22 exch store
/Y21 exch store
/X21 exch store
currentpoint
/Y21 load 2 mul add 3 div exch
/X21 load 2 mul add 3 div exch
/X21 load 2 mul /X22 load add 3 div
/Y21 load 2 mul /Y22 load add 3 div
/X22 load /Y22 load curveto
} bd
/SSPD {
dup length /d exch dict def
{
/v exch def
/k exch def
currentpagedevice k known {
/cpdv currentpagedevice k get def
v cpdv ne {
/upd false def
/nullv v type /nulltype eq def
/nullcpdv cpdv type /nulltype eq def
nullv nullcpdv or
{
/upd true def
} {
/sametype v type cpdv type eq def
sametype {
v type /arraytype eq {
/vlen v length def
/cpdvlen cpdv length def
vlen cpdvlen eq {
0 1 vlen 1 sub {
/i exch def
/obj v i get def
/cpdobj cpdv i get def
obj cpdobj ne {
/upd true def
exit
} if
} for
} {
/upd true def
} ifelse
} {
v type /dicttype eq {
v {
/dv exch def
/dk exch def
/cpddv cpdv dk get def
dv cpddv ne {
/upd true def
exit
} if
} forall
} {
/upd true def
} ifelse
} ifelse
} if
} ifelse
upd true eq {
d k v put
} if
} if
} if
} forall
d length 0 gt {
d setpagedevice
} if
} bd
%%EndResource
%%BeginResource: procset (Apache XML Graphics EPS ProcSet) 1.0 0
%%Version: 1.0 0
%%Copyright: (Copyright 2002-2003 The Apache Software Foundation. License terms: http://www.apache.org/licenses/LICENSE-2.0)
/BeginEPSF { %def
/b4_Inc_state save def         % Save state for cleanup
/dict_count countdictstack def % Count objects on dict stack
/op_count count 1 sub def      % Count objects on operand stack
userdict begin                 % Push userdict on dict stack
/showpage { } def              % Redefine showpage, { } = null proc
0 setgray 0 setlinecap         % Prepare graphics state
1 setlinewidth 0 setlinejoin
10 setmiterlimit [ ] 0 setdash newpath
/languagelevel where           % If level not equal to 1 then
{pop languagelevel             % set strokeadjust and
1 ne                           % overprint to their defaults.
{false setstrokeadjust false setoverprint
} if
} if
} bd
/EndEPSF { %def
count op_count sub {pop} repeat            % Clean up stacks
countdictstack dict_count sub {end} repeat
b4_Inc_state restore
} bd
%%EndResource
%FOPBeginFontDict
%%IncludeResource: font Courier-Bold
%%IncludeResource: font Helvetica
%%IncludeResource: font Courier-BoldOblique
%%IncludeResource: font Courier-Oblique
%%IncludeResource: font Times-Roman
%%IncludeResource: font Helvetica-BoldOblique
%%IncludeResource: font Helvetica-Bold
%%IncludeResource: font Helvetica-Oblique
%%IncludeResource: font Times-BoldItalic
%%IncludeResource: font Courier
%%IncludeResource: font Times-Italic
%%IncludeResource: font Times-Bold
%%IncludeResource: font Symbol
%%IncludeResource: font ZapfDingbats
%FOPEndFontDict
%%BeginResource: encoding WinAnsiEncoding
/WinAnsiEncoding [
/.notdef /.notdef /.notdef /.notdef /.notdef
/.notdef /.notdef /.notdef /.notdef /.notdef
/.notdef /.notdef /.notdef /.notdef /.notdef
/.notdef /.notdef /.notdef /.notdef /.notdef
/.notdef /.notdef /.notdef /.notdef /.notdef
/.notdef /.notdef /.notdef /.notdef /.notdef
/.notdef /.notdef /space /exclam /quotedbl
/numbersign /dollar /percent /ampersand /quotesingle
/parenleft /parenright /asterisk /plus /comma
/hyphen /period /slash /zero /one
/two /three /four /five /six
/seven /eight /nine /colon /semicolon
/less /equal /greater /question /at
/A /B /C /D /E
/F /G /H /I /J
/K /L /M /N /O
/P /Q /R /S /T
/U /V /W /X /Y
/Z /bracketleft /backslash /bracketright /asciicircum
/underscore /quoteleft /a /b /c
/d /e /f /g /h
/i /j /k /l /m
/n /o /p /q /r
/s /t /u /v /w
/x /y /z /braceleft /bar
/braceright /asciitilde /bullet /Euro /bullet
/quotesinglbase /florin /quotedblbase /ellipsis /dagger
/daggerdbl /circumflex /perthousand /Scaron /guilsinglleft
/OE /bullet /Zcaron /bullet /bullet
/quoteleft /quoteright /quotedblleft /quotedblright /bullet
/endash /emdash /asciitilde /trademark /scaron
/guilsinglright /oe /bullet /zcaron /Ydieresis
/space /exclamdown /cent /sterling /currency
/yen /brokenbar /section /dieresis /copyright
/ordfeminine /guillemotleft /logicalnot /sfthyphen /registered
/macron /degree /plusminus /twosuperior /threesuperior
/acute /mu /paragraph /middot /cedilla
/onesuperior /ordmasculine /guillemotright /onequarter /onehalf
/threequarters /questiondown /Agrave /Aacute /Acircumflex
/Atilde /Adieresis /Aring /AE /Ccedilla
/Egrave /Eacute /Ecircumflex /Edieresis /Igrave
/Iacute /Icircumflex /Idieresis /Eth /Ntilde
/Ograve /Oacute /Ocircumflex /Otilde /Odieresis
/multiply /Oslash /Ugrave /Uacute /Ucircumflex
/Udieresis /Yacute /Thorn /germandbls /agrave
/aacute /acircumflex /atilde /adieresis /aring
/ae /ccedilla /egrave /eacute /ecircumflex
/edieresis /igrave /iacute /icircumflex /idieresis
/eth /ntilde /ograve /oacute /ocircumflex
/otilde /odieresis /divide /oslash /ugrave
/uacute /ucircumflex /udieresis /yacute /thorn
/ydieresis
] def
%%EndResource
%FOPBeginFontReencode
/Courier-Bold findfont
dup length dict begin
  {1 index /FID ne {def} {pop pop} ifelse} forall
  /Encoding WinAnsiEncoding def
  currentdict
end
/Courier-Bold exch definefont pop
/Helvetica findfont
dup length dict begin
  {1 index /FID ne {def} {pop pop} ifelse} forall
  /Encoding WinAnsiEncoding def
  currentdict
end
/Helvetica exch definefont pop
/Courier-BoldOblique findfont
dup length dict begin
  {1 index /FID ne {def} {pop pop} ifelse} forall
  /Encoding WinAnsiEncoding def
  currentdict
end
/Courier-BoldOblique exch definefont pop
/Courier-Oblique findfont
dup length dict begin
  {1 index /FID ne {def} {pop pop} ifelse} forall
  /Encoding WinAnsiEncoding def
  currentdict
end
/Courier-Oblique exch definefont pop
/Times-Roman findfont
dup length dict begin
  {1 index /FID ne {def} {pop pop} ifelse} forall
  /Encoding WinAnsiEncoding def
  currentdict
end
/Times-Roman exch definefont pop
/Helvetica-BoldOblique findfont
dup length dict begin
  {1 index /FID ne {def} {pop pop} ifelse} forall
  /Encoding WinAnsiEncoding def
  currentdict
end
/Helvetica-BoldOblique exch definefont pop
/Helvetica-Bold findfont
dup length dict begin
  {1 index /FID ne {def} {pop pop} ifelse} forall
  /Encoding WinAnsiEncoding def
  currentdict
end
/Helvetica-Bold exch definefont pop
/Helvetica-Oblique findfont
dup length dict begin
  {1 index /FID ne {def} {pop pop} ifelse} forall
  /Encoding WinAnsiEncoding def
  currentdict
end
/Helvetica-Oblique exch definefont pop
/Times-BoldItalic findfont
dup length dict begin
  {1 index /FID ne {def} {pop pop} ifelse} forall
  /Encoding WinAnsiEncoding def
  currentdict
end
/Times-BoldItalic exch definefont pop
/Courier findfont
dup length dict begin
  {1 index /FID ne {def} {pop pop} ifelse} forall
  /Encoding WinAnsiEncoding def
  currentdict
end
/Courier exch definefont pop
/Times-Italic findfont
dup length dict begin
  {1 index /FID ne {def} {pop pop} ifelse} forall
  /Encoding WinAnsiEncoding def
  currentdict
end
/Times-Italic exch definefont pop
/Times-Bold findfont
dup length dict begin
  {1 index /FID ne {def} {pop pop} ifelse} forall
  /Encoding WinAnsiEncoding def
  currentdict
end
/Times-Bold exch definefont pop
%FOPEndFontReencode
%%EndProlog
%%Page: 1 1
%%PageBoundingBox: 0 0 323 338
%%BeginPageSetup
[1 0 0 -1 0 338] CT
%%EndPageSetup
GS
[0.75 0 0 0.75 0 0.5] CT
N
0 0 M
430 0 L
430 450 L
0 450 L
0 0 L
cp
clip
1 GC
N
0 0 430 450 re
f
GR
GS
[0.75 0 0 0.75 0 0.5] CT
1 GC
N
0 0 430 450 re
f
GR
GS
[0.75 0 0 0.75 0 0.5] CT
1 GC
N
56 392.094 M
389 392.094 L
389 41.906 L
56 41.906 L
cp
f
GR
GS
[0.75 0 0 0.75 0 0.5] CT
0.149 GC
2 setlinecap
1 LJ
0.667 LW
N
56 392.094 M
389 392.094 L
S
GR
GS
[0.75 0 0 0.75 0 0.5] CT
0.149 GC
2 setlinecap
1 LJ
0.667 LW
N
56 41.906 M
389 41.906 L
S
GR
GS
[0.75 0 0 0.75 0 0.5] CT
0.149 GC
2 setlinecap
1 LJ
0.667 LW
N
56 392.094 M
56 41.906 L
S
GR
GS
[0.75 0 0 0.75 0 0.5] CT
0.149 GC
2 setlinecap
1 LJ
0.667 LW
N
389 392.094 M
389 41.906 L
S
GR
GS
[0.75 0 0 0.75 0 0.5] CT
0 0.447 0.741 RC
1 LJ
0.667 LW
N
332.892 81.294 M
332.892 81.294 L
S
GR
GS
[0.75 0 0 0.75 0 0.5] CT
0.851 0.325 0.098 RC
1 LJ
0.667 LW
N
332.892 81.294 M
332.892 81.294 L
S
GR
GS
[0.75 0 0 0.75 0 0.5] CT
0.929 0.694 0.125 RC
1 LJ
0.667 LW
N
332.892 81.294 M
332.892 81.294 L
S
GR
GS
[0.75 0 0 0.75 0 0.5] CT
0.494 0.184 0.557 RC
1 LJ
0.667 LW
N
332.892 81.294 M
332.892 81.294 L
S
GR
GS
[0.75 0 0 0.75 0 0.5] CT
0.467 0.675 0.188 RC
1 LJ
0.667 LW
N
332.892 81.294 M
332.892 81.294 L
S
GR
GS
[0.75 0 0 0.75 0 0.5] CT
0.302 0.745 0.933 RC
1 LJ
0.667 LW
N
332.892 81.294 M
332.892 81.294 L
S
GR
GS
[0.75 0 0 0.75 0 0.5] CT
0.635 0.078 0.184 RC
1 LJ
0.667 LW
N
332.892 81.294 M
331.893 81.294 L
S
GR
GS
[0.75 0 0 0.75 0 0.5] CT
0 0.447 0.741 RC
1 LJ
0.667 LW
N
331.893 81.294 M
329.894 81.294 L
S
GR
GS
[0.75 0 0 0.75 0 0.5] CT
0.851 0.325 0.098 RC
1 LJ
0.667 LW
N
329.894 81.294 M
327.896 83.203 L
S
GR
GS
[0.75 0 0 0.75 0 0.5] CT
0.929 0.694 0.125 RC
1 LJ
0.667 LW
N
327.896 83.203 M
324.898 85.113 L
S
GR
GS
[0.75 0 0 0.75 0 0.5] CT
0.494 0.184 0.557 RC
1 LJ
0.667 LW
N
324.898 85.113 M
322.9 87.023 L
S
GR
GS
[0.75 0 0 0.75 0 0.5] CT
0.467 0.675 0.188 RC
1 LJ
0.667 LW
N
322.9 87.023 M
318.903 90.842 L
S
GR
GS
[0.75 0 0 0.75 0 0.5] CT
0.302 0.745 0.933 RC
1 LJ
0.667 LW
N
318.903 90.842 M
315.905 94.661 L
S
GR
GS
[0.75 0 0 0.75 0 0.5] CT
0.635 0.078 0.184 RC
1 LJ
0.667 LW
N
315.905 94.661 M
313.906 97.526 L
S
GR
GS
[0.75 0 0 0.75 0 0.5] CT
0 0.447 0.741 RC
1 LJ
0.667 LW
N
313.906 97.526 M
312.907 98.481 L
S
GR
GS
[0.75 0 0 0.75 0 0.5] CT
0.851 0.325 0.098 RC
1 LJ
0.667 LW
N
312.907 98.481 M
312.907 98.481 L
S
GR
GS
[0.75 0 0 0.75 0 0.5] CT
0.929 0.694 0.125 RC
1 LJ
0.667 LW
N
312.907 98.481 M
308.91 104.21 L
S
GR
GS
[0.75 0 0 0.75 0 0.5] CT
0.494 0.184 0.557 RC
1 LJ
0.667 LW
N
308.91 104.21 M
307.911 105.165 L
S
GR
GS
[0.75 0 0 0.75 0 0.5] CT
0.467 0.675 0.188 RC
1 LJ
0.667 LW
N
307.911 105.165 M
304.913 108.984 L
S
GR
GS
[0.75 0 0 0.75 0 0.5] CT
0.302 0.745 0.933 RC
1 LJ
0.667 LW
N
304.913 108.984 M
300.916 113.758 L
S
GR
GS
[0.75 0 0 0.75 0 0.5] CT
0.635 0.078 0.184 RC
1 LJ
0.667 LW
N
300.916 113.758 M
298.918 116.623 L
S
GR
GS
[0.75 0 0 0.75 0 0.5] CT
0 0.447 0.741 RC
1 LJ
0.667 LW
N
298.918 116.623 M
297.918 117.577 L
S
GR
GS
[0.75 0 0 0.75 0 0.5] CT
0.851 0.325 0.098 RC
1 LJ
0.667 LW
N
297.918 117.577 M
295.92 121.397 L
S
GR
GS
[0.75 0 0 0.75 0 0.5] CT
0.929 0.694 0.125 RC
1 LJ
0.667 LW
N
295.92 121.397 M
293.921 123.306 L
S
GR
GS
[0.75 0 0 0.75 0 0.5] CT
0.494 0.184 0.557 RC
1 LJ
0.667 LW
N
293.921 123.306 M
291.923 127.126 L
S
GR
GS
[0.75 0 0 0.75 0 0.5] CT
0.467 0.675 0.188 RC
1 LJ
0.667 LW
N
291.923 127.126 M
289.924 130.945 L
S
GR
GS
[0.75 0 0 0.75 0 0.5] CT
0.302 0.745 0.933 RC
1 LJ
0.667 LW
N
289.924 130.945 M
287.926 132.855 L
S
GR
GS
[0.75 0 0 0.75 0 0.5] CT
0.635 0.078 0.184 RC
1 LJ
0.667 LW
N
287.926 132.855 M
284.928 136.674 L
S
GR
GS
[0.75 0 0 0.75 0 0.5] CT
0 0.447 0.741 RC
1 LJ
0.667 LW
N
284.928 136.674 M
282.93 139.539 L
S
GR
GS
[0.75 0 0 0.75 0 0.5] CT
0.851 0.325 0.098 RC
1 LJ
0.667 LW
N
282.93 139.539 M
278.933 143.358 L
S
GR
GS
[0.75 0 0 0.75 0 0.5] CT
0.929 0.694 0.125 RC
1 LJ
0.667 LW
N
278.933 143.358 M
275.935 147.177 L
S
GR
GS
[0.75 0 0 0.75 0 0.5] CT
0.494 0.184 0.557 RC
1 LJ
0.667 LW
N
275.935 147.177 M
271.938 151.952 L
S
GR
GS
[0.75 0 0 0.75 0 0.5] CT
0.467 0.675 0.188 RC
1 LJ
0.667 LW
N
271.938 151.952 M
267.941 156.726 L
S
GR
GS
[0.75 0 0 0.75 0 0.5] CT
0.302 0.745 0.933 RC
1 LJ
0.667 LW
N
267.941 156.726 M
265.942 160.545 L
S
GR
GS
[0.75 0 0 0.75 0 0.5] CT
0.635 0.078 0.184 RC
1 LJ
0.667 LW
N
265.942 160.545 M
262.945 163.41 L
S
GR
GS
[0.75 0 0 0.75 0 0.5] CT
0 0.447 0.741 RC
1 LJ
0.667 LW
N
262.945 163.41 M
258.948 167.229 L
S
GR
GS
[0.75 0 0 0.75 0 0.5] CT
0.851 0.325 0.098 RC
1 LJ
0.667 LW
N
258.948 167.229 M
252.952 173.913 L
S
GR
GS
[0.75 0 0 0.75 0 0.5] CT
0.929 0.694 0.125 RC
1 LJ
0.667 LW
N
252.952 173.913 M
247.956 179.642 L
S
GR
GS
[0.75 0 0 0.75 0 0.5] CT
0.494 0.184 0.557 RC
1 LJ
0.667 LW
N
247.956 179.642 M
245.957 181.552 L
S
GR
GS
[0.75 0 0 0.75 0 0.5] CT
0.467 0.675 0.188 RC
1 LJ
0.667 LW
N
245.957 181.552 M
241.96 184.416 L
S
GR
GS
[0.75 0 0 0.75 0 0.5] CT
0.302 0.745 0.933 RC
1 LJ
0.667 LW
N
241.96 184.416 M
238.963 187.281 L
S
GR
GS
[0.75 0 0 0.75 0 0.5] CT
0.635 0.078 0.184 RC
1 LJ
0.667 LW
N
238.963 187.281 M
235.965 190.145 L
S
GR
GS
[0.75 0 0 0.75 0 0.5] CT
0 0.447 0.741 RC
1 LJ
0.667 LW
N
235.965 190.145 M
231.968 194.919 L
S
GR
GS
[0.75 0 0 0.75 0 0.5] CT
0.851 0.325 0.098 RC
1 LJ
0.667 LW
N
231.968 194.919 M
228.97 197.784 L
S
GR
GS
[0.75 0 0 0.75 0 0.5] CT
0.929 0.694 0.125 RC
1 LJ
0.667 LW
N
228.97 197.784 M
225.972 200.648 L
S
GR
GS
[0.75 0 0 0.75 0 0.5] CT
0.494 0.184 0.557 RC
1 LJ
0.667 LW
N
225.972 200.648 M
222.975 204.468 L
S
GR
GS
[0.75 0 0 0.75 0 0.5] CT
0.467 0.675 0.188 RC
1 LJ
0.667 LW
N
222.975 204.468 M
218.978 209.242 L
S
GR
GS
[0.75 0 0 0.75 0 0.5] CT
0.302 0.745 0.933 RC
1 LJ
0.667 LW
N
218.978 209.242 M
215.98 212.106 L
S
GR
GS
[0.75 0 0 0.75 0 0.5] CT
0.635 0.078 0.184 RC
1 LJ
0.667 LW
N
215.98 212.106 M
213.981 214.016 L
S
GR
GS
[0.75 0 0 0.75 0 0.5] CT
0 0.447 0.741 RC
1 LJ
0.667 LW
N
213.981 214.016 M
209.984 217.835 L
S
GR
GS
[0.75 0 0 0.75 0 0.5] CT
0.851 0.325 0.098 RC
1 LJ
0.667 LW
N
209.984 217.835 M
206.987 221.655 L
S
GR
GS
[0.75 0 0 0.75 0 0.5] CT
0.929 0.694 0.125 RC
1 LJ
0.667 LW
N
206.987 221.655 M
203.989 224.519 L
S
GR
GS
[0.75 0 0 0.75 0 0.5] CT
0.494 0.184 0.557 RC
1 LJ
0.667 LW
N
203.989 224.519 M
200.991 228.339 L
S
GR
GS
[0.75 0 0 0.75 0 0.5] CT
0.467 0.675 0.188 RC
1 LJ
0.667 LW
N
200.991 228.339 M
196.994 233.113 L
S
GR
GS
[0.75 0 0 0.75 0 0.5] CT
0.302 0.745 0.933 RC
1 LJ
0.667 LW
N
196.994 233.113 M
193.996 235.977 L
S
GR
GS
[0.75 0 0 0.75 0 0.5] CT
0.635 0.078 0.184 RC
1 LJ
0.667 LW
N
193.996 235.977 M
190.999 238.842 L
S
GR
GS
[0.75 0 0 0.75 0 0.5] CT
0 0.447 0.741 RC
1 LJ
0.667 LW
N
190.999 238.842 M
186.002 244.571 L
S
GR
GS
[0.75 0 0 0.75 0 0.5] CT
0.851 0.325 0.098 RC
1 LJ
0.667 LW
N
186.002 244.571 M
184.004 246.481 L
S
GR
GS
[0.75 0 0 0.75 0 0.5] CT
0.929 0.694 0.125 RC
1 LJ
0.667 LW
N
184.004 246.481 M
182.005 251.255 L
S
GR
GS
[0.75 0 0 0.75 0 0.5] CT
0.494 0.184 0.557 RC
1 LJ
0.667 LW
N
182.005 251.255 M
179.008 255.074 L
S
GR
GS
[0.75 0 0 0.75 0 0.5] CT
0.467 0.675 0.188 RC
1 LJ
0.667 LW
N
179.008 255.074 M
173.012 260.803 L
S
GR
GS
[0.75 0 0 0.75 0 0.5] CT
0.302 0.745 0.933 RC
1 LJ
0.667 LW
N
173.012 260.803 M
168.016 265.577 L
S
GR
GS
[0.75 0 0 0.75 0 0.5] CT
0.635 0.078 0.184 RC
1 LJ
0.667 LW
N
168.016 265.577 M
163.02 270.352 L
S
GR
GS
[0.75 0 0 0.75 0 0.5] CT
0 0.447 0.741 RC
1 LJ
0.667 LW
N
163.02 270.352 M
159.023 275.126 L
S
GR
GS
[0.75 0 0 0.75 0 0.5] CT
0.851 0.325 0.098 RC
1 LJ
0.667 LW
N
159.023 275.126 M
156.025 277.99 L
S
GR
GS
[0.75 0 0 0.75 0 0.5] CT
0.929 0.694 0.125 RC
1 LJ
0.667 LW
N
156.025 277.99 M
153.027 282.765 L
S
GR
GS
[0.75 0 0 0.75 0 0.5] CT
0.494 0.184 0.557 RC
1 LJ
0.667 LW
N
153.027 282.765 M
148.031 287.539 L
S
GR
GS
[0.75 0 0 0.75 0 0.5] CT
0.467 0.675 0.188 RC
1 LJ
0.667 LW
N
148.031 287.539 M
145.033 290.403 L
S
GR
GS
[0.75 0 0 0.75 0 0.5] CT
0.302 0.745 0.933 RC
1 LJ
0.667 LW
N
145.033 290.403 M
143.035 294.223 L
S
GR
GS
[0.75 0 0 0.75 0 0.5] CT
0.635 0.078 0.184 RC
1 LJ
0.667 LW
N
143.035 294.223 M
139.038 298.042 L
S
GR
GS
[0.75 0 0 0.75 0 0.5] CT
0 0.447 0.741 RC
1 LJ
0.667 LW
N
139.038 298.042 M
136.04 300.906 L
S
GR
GS
[0.75 0 0 0.75 0 0.5] CT
0.851 0.325 0.098 RC
1 LJ
0.667 LW
N
136.04 300.906 M
133.042 303.771 L
S
GR
GS
[0.75 0 0 0.75 0 0.5] CT
0.929 0.694 0.125 RC
1 LJ
0.667 LW
N
133.042 303.771 M
129.045 308.545 L
S
GR
GS
[0.75 0 0 0.75 0 0.5] CT
0.494 0.184 0.557 RC
1 LJ
0.667 LW
N
129.045 308.545 M
126.047 311.41 L
S
GR
GS
[0.75 0 0 0.75 0 0.5] CT
0.467 0.675 0.188 RC
1 LJ
0.667 LW
N
126.047 311.41 M
124.049 316.184 L
S
GR
GS
[0.75 0 0 0.75 0 0.5] CT
0.302 0.745 0.933 RC
1 LJ
0.667 LW
N
124.049 316.184 M
121.051 319.048 L
S
GR
GS
[0.75 0 0 0.75 0 0.5] CT
0.635 0.078 0.184 RC
1 LJ
0.667 LW
N
121.051 319.048 M
119.053 321.913 L
S
GR
GS
[0.75 0 0 0.75 0 0.5] CT
0 0.447 0.741 RC
1 LJ
0.667 LW
N
119.053 321.913 M
118.053 322.868 L
S
GR
GS
[0.75 0 0 0.75 0 0.5] CT
0.851 0.325 0.098 RC
1 LJ
0.667 LW
N
118.053 322.868 M
116.055 324.777 L
S
GR
GS
[0.75 0 0 0.75 0 0.5] CT
0.929 0.694 0.125 RC
1 LJ
0.667 LW
N
116.055 324.777 M
114.056 328.597 L
S
GR
GS
[0.75 0 0 0.75 0 0.5] CT
0.494 0.184 0.557 RC
1 LJ
0.667 LW
N
114.056 328.597 M
113.057 330.506 L
S
GR
GS
[0.75 0 0 0.75 0 0.5] CT
0.467 0.675 0.188 RC
1 LJ
0.667 LW
N
113.057 330.506 M
111.059 333.371 L
S
GR
GS
[0.75 0 0 0.75 0 0.5] CT
0.302 0.745 0.933 RC
1 LJ
0.667 LW
N
111.059 333.371 M
110.059 334.326 L
S
GR
GS
[0.75 0 0 0.75 0 0.5] CT
0.635 0.078 0.184 RC
1 LJ
0.667 LW
N
110.059 334.326 M
110.059 334.326 L
S
GR
GS
[0.75 0 0 0.75 0 0.5] CT
0 0.447 0.741 RC
1 LJ
0.667 LW
N
110.059 334.326 M
108.061 337.19 L
S
GR
GS
[0.75 0 0 0.75 0 0.5] CT
0.851 0.325 0.098 RC
1 LJ
0.667 LW
N
108.061 337.19 M
108.061 337.19 L
S
GR
GS
[0.75 0 0 0.75 0 0.5] CT
0.929 0.694 0.125 RC
1 LJ
0.667 LW
N
108.061 337.19 M
108.061 337.19 L
S
GR
GS
[0.75 0 0 0.75 0 0.5] CT
0.494 0.184 0.557 RC
1 LJ
0.667 LW
N
108.061 337.19 M
108.061 337.19 L
S
GR
GS
[0.75 0 0 0.75 0 0.5] CT
0.467 0.675 0.188 RC
1 LJ
0.667 LW
N
108.061 337.19 M
107.062 338.145 L
S
GR
GS
[0.75 0 0 0.75 0 0.5] CT
0.302 0.745 0.933 RC
1 LJ
0.667 LW
N
107.062 338.145 M
107.062 338.145 L
S
GR
GS
[0.75 0 0 0.75 0 0.5] CT
0.635 0.078 0.184 RC
1 LJ
0.667 LW
N
84.079 100.39 M
84.079 100.39 L
S
GR
GS
[0.75 0 0 0.75 0 0.5] CT
0 0.447 0.741 RC
1 LJ
0.667 LW
N
84.079 100.39 M
84.079 100.39 L
S
GR
GS
[0.75 0 0 0.75 0 0.5] CT
0.851 0.325 0.098 RC
1 LJ
0.667 LW
N
84.079 100.39 M
84.079 100.39 L
S
GR
GS
[0.75 0 0 0.75 0 0.5] CT
0.929 0.694 0.125 RC
1 LJ
0.667 LW
N
84.079 100.39 M
85.078 102.3 L
S
GR
GS
[0.75 0 0 0.75 0 0.5] CT
0.494 0.184 0.557 RC
1 LJ
0.667 LW
N
85.078 102.3 M
86.077 103.255 L
S
GR
GS
[0.75 0 0 0.75 0 0.5] CT
0.467 0.675 0.188 RC
1 LJ
0.667 LW
N
86.077 103.255 M
87.077 104.21 L
S
GR
GS
[0.75 0 0 0.75 0 0.5] CT
0.302 0.745 0.933 RC
1 LJ
0.667 LW
N
87.077 104.21 M
89.075 106.119 L
S
GR
GS
[0.75 0 0 0.75 0 0.5] CT
0.635 0.078 0.184 RC
1 LJ
0.667 LW
N
89.075 106.119 M
91.074 108.984 L
S
GR
GS
[0.75 0 0 0.75 0 0.5] CT
0 0.447 0.741 RC
1 LJ
0.667 LW
N
91.074 108.984 M
92.073 111.848 L
S
GR
GS
[0.75 0 0 0.75 0 0.5] CT
0.851 0.325 0.098 RC
1 LJ
0.667 LW
N
92.073 111.848 M
95.071 114.713 L
S
GR
GS
[0.75 0 0 0.75 0 0.5] CT
0.929 0.694 0.125 RC
1 LJ
0.667 LW
N
95.071 114.713 M
96.07 117.577 L
S
GR
GS
[0.75 0 0 0.75 0 0.5] CT
0.494 0.184 0.557 RC
1 LJ
0.667 LW
N
96.07 117.577 M
99.068 120.442 L
S
GR
GS
[0.75 0 0 0.75 0 0.5] CT
0.467 0.675 0.188 RC
1 LJ
0.667 LW
N
99.068 120.442 M
100.067 122.352 L
S
GR
GS
[0.75 0 0 0.75 0 0.5] CT
0.302 0.745 0.933 RC
1 LJ
0.667 LW
N
100.067 122.352 M
103.065 127.126 L
S
GR
GS
[0.75 0 0 0.75 0 0.5] CT
0.635 0.078 0.184 RC
1 LJ
0.667 LW
N
103.065 127.126 M
107.062 130.945 L
S
GR
GS
[0.75 0 0 0.75 0 0.5] CT
0 0.447 0.741 RC
1 LJ
0.667 LW
N
107.062 130.945 M
108.061 131.9 L
S
GR
GS
[0.75 0 0 0.75 0 0.5] CT
0.851 0.325 0.098 RC
1 LJ
0.667 LW
N
108.061 131.9 M
114.056 136.674 L
S
GR
GS
[0.75 0 0 0.75 0 0.5] CT
0.929 0.694 0.125 RC
1 LJ
0.667 LW
N
114.056 136.674 M
115.056 137.629 L
S
GR
GS
[0.75 0 0 0.75 0 0.5] CT
0.494 0.184 0.557 RC
1 LJ
0.667 LW
N
115.056 137.629 M
118.053 140.494 L
S
GR
GS
[0.75 0 0 0.75 0 0.5] CT
0.467 0.675 0.188 RC
1 LJ
0.667 LW
N
118.053 140.494 M
122.05 143.358 L
S
GR
GS
[0.75 0 0 0.75 0 0.5] CT
0.302 0.745 0.933 RC
1 LJ
0.667 LW
N
122.05 143.358 M
129.045 147.177 L
S
GR
GS
[0.75 0 0 0.75 0 0.5] CT
0.635 0.078 0.184 RC
1 LJ
0.667 LW
N
129.045 147.177 M
134.041 150.997 L
S
GR
GS
[0.75 0 0 0.75 0 0.5] CT
0 0.447 0.741 RC
1 LJ
0.667 LW
N
134.041 150.997 M
138.038 154.816 L
S
GR
GS
[0.75 0 0 0.75 0 0.5] CT
0.851 0.325 0.098 RC
1 LJ
0.667 LW
N
138.038 154.816 M
141.036 156.726 L
S
GR
GS
[0.75 0 0 0.75 0 0.5] CT
0.929 0.694 0.125 RC
1 LJ
0.667 LW
N
141.036 156.726 M
145.033 158.635 L
S
GR
GS
[0.75 0 0 0.75 0 0.5] CT
0.494 0.184 0.557 RC
1 LJ
0.667 LW
N
145.033 158.635 M
148.031 161.5 L
S
GR
GS
[0.75 0 0 0.75 0 0.5] CT
0.467 0.675 0.188 RC
1 LJ
0.667 LW
N
148.031 161.5 M
154.026 166.274 L
S
GR
GS
[0.75 0 0 0.75 0 0.5] CT
0.302 0.745 0.933 RC
1 LJ
0.667 LW
N
154.026 166.274 M
157.024 168.184 L
S
GR
GS
[0.75 0 0 0.75 0 0.5] CT
0.635 0.078 0.184 RC
1 LJ
0.667 LW
N
157.024 168.184 M
159.023 170.094 L
S
GR
GS
[0.75 0 0 0.75 0 0.5] CT
0 0.447 0.741 RC
1 LJ
0.667 LW
N
159.023 170.094 M
163.02 174.868 L
S
GR
GS
[0.75 0 0 0.75 0 0.5] CT
0.851 0.325 0.098 RC
1 LJ
0.667 LW
N
163.02 174.868 M
168.016 178.687 L
S
GR
GS
[0.75 0 0 0.75 0 0.5] CT
0.929 0.694 0.125 RC
1 LJ
0.667 LW
N
168.016 178.687 M
172.013 180.597 L
S
GR
GS
[0.75 0 0 0.75 0 0.5] CT
0.494 0.184 0.557 RC
1 LJ
0.667 LW
N
172.013 180.597 M
176.01 184.416 L
S
GR
GS
[0.75 0 0 0.75 0 0.5] CT
0.467 0.675 0.188 RC
1 LJ
0.667 LW
N
176.01 184.416 M
180.007 187.281 L
S
GR
GS
[0.75 0 0 0.75 0 0.5] CT
0.302 0.745 0.933 RC
1 LJ
0.667 LW
N
180.007 187.281 M
183.005 191.1 L
S
GR
GS
[0.75 0 0 0.75 0 0.5] CT
0.635 0.078 0.184 RC
1 LJ
0.667 LW
N
183.005 191.1 M
188.001 193.965 L
S
GR
GS
[0.75 0 0 0.75 0 0.5] CT
0 0.447 0.741 RC
1 LJ
0.667 LW
N
188.001 193.965 M
190.999 196.829 L
S
GR
GS
[0.75 0 0 0.75 0 0.5] CT
0.851 0.325 0.098 RC
1 LJ
0.667 LW
N
190.999 196.829 M
193.996 199.694 L
S
GR
GS
[0.75 0 0 0.75 0 0.5] CT
0.929 0.694 0.125 RC
1 LJ
0.667 LW
N
193.996 199.694 M
196.994 202.558 L
S
GR
GS
[0.75 0 0 0.75 0 0.5] CT
0.494 0.184 0.557 RC
1 LJ
0.667 LW
N
196.994 202.558 M
199.992 204.468 L
S
GR
GS
[0.75 0 0 0.75 0 0.5] CT
0.467 0.675 0.188 RC
1 LJ
0.667 LW
N
199.992 204.468 M
202.99 209.242 L
S
GR
GS
[0.75 0 0 0.75 0 0.5] CT
0.302 0.745 0.933 RC
1 LJ
0.667 LW
N
202.99 209.242 M
206.987 212.106 L
S
GR
GS
[0.75 0 0 0.75 0 0.5] CT
0.635 0.078 0.184 RC
1 LJ
0.667 LW
N
206.987 212.106 M
209.984 214.971 L
S
GR
GS
[0.75 0 0 0.75 0 0.5] CT
0 0.447 0.741 RC
1 LJ
0.667 LW
N
209.984 214.971 M
213.981 217.835 L
S
GR
GS
[0.75 0 0 0.75 0 0.5] CT
0.851 0.325 0.098 RC
1 LJ
0.667 LW
N
213.981 217.835 M
215.98 219.745 L
S
GR
GS
[0.75 0 0 0.75 0 0.5] CT
0.929 0.694 0.125 RC
1 LJ
0.667 LW
N
215.98 219.745 M
219.977 221.655 L
S
GR
GS
[0.75 0 0 0.75 0 0.5] CT
0.494 0.184 0.557 RC
1 LJ
0.667 LW
N
219.977 221.655 M
222.975 224.519 L
S
GR
GS
[0.75 0 0 0.75 0 0.5] CT
0.467 0.675 0.188 RC
1 LJ
0.667 LW
N
222.975 224.519 M
225.972 227.384 L
S
GR
GS
[0.75 0 0 0.75 0 0.5] CT
0.302 0.745 0.933 RC
1 LJ
0.667 LW
N
225.972 227.384 M
229.969 231.203 L
S
GR
GS
[0.75 0 0 0.75 0 0.5] CT
0.635 0.078 0.184 RC
1 LJ
0.667 LW
N
229.969 231.203 M
234.966 235.023 L
S
GR
GS
[0.75 0 0 0.75 0 0.5] CT
0 0.447 0.741 RC
1 LJ
0.667 LW
N
234.966 235.023 M
240.961 239.797 L
S
GR
GS
[0.75 0 0 0.75 0 0.5] CT
0.851 0.325 0.098 RC
1 LJ
0.667 LW
N
240.961 239.797 M
243.959 242.661 L
S
GR
GS
[0.75 0 0 0.75 0 0.5] CT
0.929 0.694 0.125 RC
1 LJ
0.667 LW
N
243.959 242.661 M
245.957 245.526 L
S
GR
GS
[0.75 0 0 0.75 0 0.5] CT
0.494 0.184 0.557 RC
1 LJ
0.667 LW
N
245.957 245.526 M
248.955 247.435 L
S
GR
GS
[0.75 0 0 0.75 0 0.5] CT
0.467 0.675 0.188 RC
1 LJ
0.667 LW
N
248.955 247.435 M
251.953 250.3 L
S
GR
GS
[0.75 0 0 0.75 0 0.5] CT
0.302 0.745 0.933 RC
1 LJ
0.667 LW
N
251.953 250.3 M
254.951 252.21 L
S
GR
GS
[0.75 0 0 0.75 0 0.5] CT
0.635 0.078 0.184 RC
1 LJ
0.667 LW
N
254.951 252.21 M
255.95 253.165 L
S
GR
GS
[0.75 0 0 0.75 0 0.5] CT
0 0.447 0.741 RC
1 LJ
0.667 LW
N
255.95 253.165 M
260.946 256.029 L
S
GR
GS
[0.75 0 0 0.75 0 0.5] CT
0.851 0.325 0.098 RC
1 LJ
0.667 LW
N
260.946 256.029 M
264.943 258.894 L
S
GR
GS
[0.75 0 0 0.75 0 0.5] CT
0.929 0.694 0.125 RC
1 LJ
0.667 LW
N
264.943 258.894 M
267.941 261.758 L
S
GR
GS
[0.75 0 0 0.75 0 0.5] CT
0.494 0.184 0.557 RC
1 LJ
0.667 LW
N
267.941 261.758 M
270.939 263.668 L
S
GR
GS
[0.75 0 0 0.75 0 0.5] CT
0.467 0.675 0.188 RC
1 LJ
0.667 LW
N
270.939 263.668 M
271.938 265.577 L
S
GR
GS
[0.75 0 0 0.75 0 0.5] CT
0.302 0.745 0.933 RC
1 LJ
0.667 LW
N
271.938 265.577 M
275.935 269.397 L
S
GR
GS
[0.75 0 0 0.75 0 0.5] CT
0.635 0.078 0.184 RC
1 LJ
0.667 LW
N
275.935 269.397 M
280.931 273.216 L
S
GR
GS
[0.75 0 0 0.75 0 0.5] CT
0 0.447 0.741 RC
1 LJ
0.667 LW
N
280.931 273.216 M
284.928 278.945 L
S
GR
GS
[0.75 0 0 0.75 0 0.5] CT
0.851 0.325 0.098 RC
1 LJ
0.667 LW
N
284.928 278.945 M
288.925 281.81 L
S
GR
GS
[0.75 0 0 0.75 0 0.5] CT
0.929 0.694 0.125 RC
1 LJ
0.667 LW
N
288.925 281.81 M
290.924 285.629 L
S
GR
GS
[0.75 0 0 0.75 0 0.5] CT
0.494 0.184 0.557 RC
1 LJ
0.667 LW
N
290.924 285.629 M
294.921 291.358 L
S
GR
GS
[0.75 0 0 0.75 0 0.5] CT
0.467 0.675 0.188 RC
1 LJ
0.667 LW
N
294.921 291.358 M
300.916 297.087 L
S
GR
GS
[0.75 0 0 0.75 0 0.5] CT
0.302 0.745 0.933 RC
1 LJ
0.667 LW
N
300.916 297.087 M
305.912 302.816 L
S
GR
GS
[0.75 0 0 0.75 0 0.5] CT
0.635 0.078 0.184 RC
1 LJ
0.667 LW
N
305.912 302.816 M
309.909 306.635 L
S
GR
GS
[0.75 0 0 0.75 0 0.5] CT
0 0.447 0.741 RC
1 LJ
0.667 LW
N
309.909 306.635 M
310.909 308.545 L
S
GR
GS
[0.75 0 0 0.75 0 0.5] CT
0.851 0.325 0.098 RC
1 LJ
0.667 LW
N
310.909 308.545 M
314.906 313.319 L
S
GR
GS
[0.75 0 0 0.75 0 0.5] CT
0.929 0.694 0.125 RC
1 LJ
0.667 LW
N
314.906 313.319 M
315.905 314.274 L
S
GR
GS
[0.75 0 0 0.75 0 0.5] CT
0.494 0.184 0.557 RC
1 LJ
0.667 LW
N
315.905 314.274 M
317.903 317.139 L
S
GR
GS
[0.75 0 0 0.75 0 0.5] CT
0.467 0.675 0.188 RC
1 LJ
0.667 LW
N
317.903 317.139 M
319.902 319.048 L
S
GR
GS
[0.75 0 0 0.75 0 0.5] CT
0.302 0.745 0.933 RC
1 LJ
0.667 LW
N
319.902 319.048 M
321.9 320.003 L
S
GR
GS
[0.75 0 0 0.75 0 0.5] CT
0.635 0.078 0.184 RC
1 LJ
0.667 LW
N
321.9 320.003 M
321.9 320.003 L
S
GR
GS
[0.75 0 0 0.75 0 0.5] CT
0 0.447 0.741 RC
1 LJ
0.667 LW
N
321.9 320.003 M
324.898 321.913 L
S
GR
GS
[0.75 0 0 0.75 0 0.5] CT
0.851 0.325 0.098 RC
1 LJ
0.667 LW
N
324.898 321.913 M
324.898 321.913 L
S
GR
GS
[0.75 0 0 0.75 0 0.5] CT
0.929 0.694 0.125 RC
1 LJ
0.667 LW
N
324.898 321.913 M
324.898 321.913 L
S
GR
GS
[0.75 0 0 0.75 0 0.5] CT
0.494 0.184 0.557 RC
1 LJ
0.667 LW
N
324.898 321.913 M
325.897 322.868 L
S
GR
GS
[0.75 0 0 0.75 0 0.5] CT
0.467 0.675 0.188 RC
1 LJ
0.667 LW
N
325.897 322.868 M
325.897 322.868 L
S
GR
GS
[0.75 0 0 0.75 0 0.5] CT
0.302 0.745 0.933 RC
1 LJ
0.667 LW
N
325.897 322.868 M
325.897 322.868 L
S
GR
GS
[0.75 0 0 0.75 0 0.5] CT
0.635 0.078 0.184 RC
1 LJ
0.667 LW
N
325.897 322.868 M
325.897 322.868 L
S
GR
GS
[0.75 0 0 0.75 0 0.5] CT
0 0.447 0.741 RC
1 LJ
0.667 LW
N
325.897 322.868 M
325.897 322.868 L
S
GR
GS
[0.75 0 0 0.75 0 0.5] CT
0.851 0.325 0.098 RC
1 LJ
0.667 LW
N
325.897 322.868 M
325.897 322.868 L
S
GR
%%Trailer
%%Pages: 1
%%EOF
