%!PS-Adobe-3.0 EPSF-3.0
%%Creator: (MATLAB, The Mathworks, Inc. Version 8.6.0.267246 \(R2015b\). Operating System: Linux)
%%Title: /afs/kth.se/home/s/a/samiula/Documents/PatternRecognition/Assignment2_updated/Assignment2/DrawCharacter/leftquadP/leftquad.eps
%%CreationDate: 2016-09-28T15:26:36
%%Pages: (atend)
%%BoundingBox: 0 0 323 338
%%LanguageLevel: 2
%%EndComments
%%BeginProlog
%%BeginResource: procset (Apache XML Graphics Std ProcSet) 1.2 0
%%Version: 1.2 0
%%Copyright: (Copyright 2001-2003,2010 The Apache Software Foundation. License terms: http://www.apache.org/licenses/LICENSE-2.0)
/bd{bind def}bind def
/ld{load def}bd
/GR/grestore ld
/M/moveto ld
/LJ/setlinejoin ld
/C/curveto ld
/f/fill ld
/LW/setlinewidth ld
/GC/setgray ld
/t/show ld
/N/newpath ld
/CT/concat ld
/cp/closepath ld
/S/stroke ld
/L/lineto ld
/CC/setcmykcolor ld
/A/ashow ld
/GS/gsave ld
/RC/setrgbcolor ld
/RM/rmoveto ld
/ML/setmiterlimit ld
/re {4 2 roll M
1 index 0 rlineto
0 exch rlineto
neg 0 rlineto
cp } bd
/_ctm matrix def
/_tm matrix def
/BT { _ctm currentmatrix pop matrix _tm copy pop 0 0 moveto } bd
/ET { _ctm setmatrix } bd
/iTm { _ctm setmatrix _tm concat } bd
/Tm { _tm astore pop iTm 0 0 moveto } bd
/ux 0.0 def
/uy 0.0 def
/F {
  /Tp exch def
  /Tf exch def
  Tf findfont Tp scalefont setfont
  /cf Tf def  /cs Tp def
} bd
/ULS {currentpoint /uy exch def /ux exch def} bd
/ULE {
  /Tcx currentpoint pop def
  gsave
  newpath
  cf findfont cs scalefont dup
  /FontMatrix get 0 get /Ts exch def /FontInfo get dup
  /UnderlinePosition get Ts mul /To exch def
  /UnderlineThickness get Ts mul /Tt exch def
  ux uy To add moveto  Tcx uy To add lineto
  Tt setlinewidth stroke
  grestore
} bd
/OLE {
  /Tcx currentpoint pop def
  gsave
  newpath
  cf findfont cs scalefont dup
  /FontMatrix get 0 get /Ts exch def /FontInfo get dup
  /UnderlinePosition get Ts mul /To exch def
  /UnderlineThickness get Ts mul /Tt exch def
  ux uy To add cs add moveto Tcx uy To add cs add lineto
  Tt setlinewidth stroke
  grestore
} bd
/SOE {
  /Tcx currentpoint pop def
  gsave
  newpath
  cf findfont cs scalefont dup
  /FontMatrix get 0 get /Ts exch def /FontInfo get dup
  /UnderlinePosition get Ts mul /To exch def
  /UnderlineThickness get Ts mul /Tt exch def
  ux uy To add cs 10 mul 26 idiv add moveto Tcx uy To add cs 10 mul 26 idiv add lineto
  Tt setlinewidth stroke
  grestore
} bd
/QT {
/Y22 exch store
/X22 exch store
/Y21 exch store
/X21 exch store
currentpoint
/Y21 load 2 mul add 3 div exch
/X21 load 2 mul add 3 div exch
/X21 load 2 mul /X22 load add 3 div
/Y21 load 2 mul /Y22 load add 3 div
/X22 load /Y22 load curveto
} bd
/SSPD {
dup length /d exch dict def
{
/v exch def
/k exch def
currentpagedevice k known {
/cpdv currentpagedevice k get def
v cpdv ne {
/upd false def
/nullv v type /nulltype eq def
/nullcpdv cpdv type /nulltype eq def
nullv nullcpdv or
{
/upd true def
} {
/sametype v type cpdv type eq def
sametype {
v type /arraytype eq {
/vlen v length def
/cpdvlen cpdv length def
vlen cpdvlen eq {
0 1 vlen 1 sub {
/i exch def
/obj v i get def
/cpdobj cpdv i get def
obj cpdobj ne {
/upd true def
exit
} if
} for
} {
/upd true def
} ifelse
} {
v type /dicttype eq {
v {
/dv exch def
/dk exch def
/cpddv cpdv dk get def
dv cpddv ne {
/upd true def
exit
} if
} forall
} {
/upd true def
} ifelse
} ifelse
} if
} ifelse
upd true eq {
d k v put
} if
} if
} if
} forall
d length 0 gt {
d setpagedevice
} if
} bd
%%EndResource
%%BeginResource: procset (Apache XML Graphics EPS ProcSet) 1.0 0
%%Version: 1.0 0
%%Copyright: (Copyright 2002-2003 The Apache Software Foundation. License terms: http://www.apache.org/licenses/LICENSE-2.0)
/BeginEPSF { %def
/b4_Inc_state save def         % Save state for cleanup
/dict_count countdictstack def % Count objects on dict stack
/op_count count 1 sub def      % Count objects on operand stack
userdict begin                 % Push userdict on dict stack
/showpage { } def              % Redefine showpage, { } = null proc
0 setgray 0 setlinecap         % Prepare graphics state
1 setlinewidth 0 setlinejoin
10 setmiterlimit [ ] 0 setdash newpath
/languagelevel where           % If level not equal to 1 then
{pop languagelevel             % set strokeadjust and
1 ne                           % overprint to their defaults.
{false setstrokeadjust false setoverprint
} if
} if
} bd
/EndEPSF { %def
count op_count sub {pop} repeat            % Clean up stacks
countdictstack dict_count sub {end} repeat
b4_Inc_state restore
} bd
%%EndResource
%FOPBeginFontDict
%%IncludeResource: font Courier-Bold
%%IncludeResource: font Helvetica
%%IncludeResource: font Courier-BoldOblique
%%IncludeResource: font Courier-Oblique
%%IncludeResource: font Times-Roman
%%IncludeResource: font Helvetica-BoldOblique
%%IncludeResource: font Helvetica-Bold
%%IncludeResource: font Helvetica-Oblique
%%IncludeResource: font Times-BoldItalic
%%IncludeResource: font Courier
%%IncludeResource: font Times-Italic
%%IncludeResource: font Times-Bold
%%IncludeResource: font Symbol
%%IncludeResource: font ZapfDingbats
%FOPEndFontDict
%%BeginResource: encoding WinAnsiEncoding
/WinAnsiEncoding [
/.notdef /.notdef /.notdef /.notdef /.notdef
/.notdef /.notdef /.notdef /.notdef /.notdef
/.notdef /.notdef /.notdef /.notdef /.notdef
/.notdef /.notdef /.notdef /.notdef /.notdef
/.notdef /.notdef /.notdef /.notdef /.notdef
/.notdef /.notdef /.notdef /.notdef /.notdef
/.notdef /.notdef /space /exclam /quotedbl
/numbersign /dollar /percent /ampersand /quotesingle
/parenleft /parenright /asterisk /plus /comma
/hyphen /period /slash /zero /one
/two /three /four /five /six
/seven /eight /nine /colon /semicolon
/less /equal /greater /question /at
/A /B /C /D /E
/F /G /H /I /J
/K /L /M /N /O
/P /Q /R /S /T
/U /V /W /X /Y
/Z /bracketleft /backslash /bracketright /asciicircum
/underscore /quoteleft /a /b /c
/d /e /f /g /h
/i /j /k /l /m
/n /o /p /q /r
/s /t /u /v /w
/x /y /z /braceleft /bar
/braceright /asciitilde /bullet /Euro /bullet
/quotesinglbase /florin /quotedblbase /ellipsis /dagger
/daggerdbl /circumflex /perthousand /Scaron /guilsinglleft
/OE /bullet /Zcaron /bullet /bullet
/quoteleft /quoteright /quotedblleft /quotedblright /bullet
/endash /emdash /asciitilde /trademark /scaron
/guilsinglright /oe /bullet /zcaron /Ydieresis
/space /exclamdown /cent /sterling /currency
/yen /brokenbar /section /dieresis /copyright
/ordfeminine /guillemotleft /logicalnot /sfthyphen /registered
/macron /degree /plusminus /twosuperior /threesuperior
/acute /mu /paragraph /middot /cedilla
/onesuperior /ordmasculine /guillemotright /onequarter /onehalf
/threequarters /questiondown /Agrave /Aacute /Acircumflex
/Atilde /Adieresis /Aring /AE /Ccedilla
/Egrave /Eacute /Ecircumflex /Edieresis /Igrave
/Iacute /Icircumflex /Idieresis /Eth /Ntilde
/Ograve /Oacute /Ocircumflex /Otilde /Odieresis
/multiply /Oslash /Ugrave /Uacute /Ucircumflex
/Udieresis /Yacute /Thorn /germandbls /agrave
/aacute /acircumflex /atilde /adieresis /aring
/ae /ccedilla /egrave /eacute /ecircumflex
/edieresis /igrave /iacute /icircumflex /idieresis
/eth /ntilde /ograve /oacute /ocircumflex
/otilde /odieresis /divide /oslash /ugrave
/uacute /ucircumflex /udieresis /yacute /thorn
/ydieresis
] def
%%EndResource
%FOPBeginFontReencode
/Courier-Bold findfont
dup length dict begin
  {1 index /FID ne {def} {pop pop} ifelse} forall
  /Encoding WinAnsiEncoding def
  currentdict
end
/Courier-Bold exch definefont pop
/Helvetica findfont
dup length dict begin
  {1 index /FID ne {def} {pop pop} ifelse} forall
  /Encoding WinAnsiEncoding def
  currentdict
end
/Helvetica exch definefont pop
/Courier-BoldOblique findfont
dup length dict begin
  {1 index /FID ne {def} {pop pop} ifelse} forall
  /Encoding WinAnsiEncoding def
  currentdict
end
/Courier-BoldOblique exch definefont pop
/Courier-Oblique findfont
dup length dict begin
  {1 index /FID ne {def} {pop pop} ifelse} forall
  /Encoding WinAnsiEncoding def
  currentdict
end
/Courier-Oblique exch definefont pop
/Times-Roman findfont
dup length dict begin
  {1 index /FID ne {def} {pop pop} ifelse} forall
  /Encoding WinAnsiEncoding def
  currentdict
end
/Times-Roman exch definefont pop
/Helvetica-BoldOblique findfont
dup length dict begin
  {1 index /FID ne {def} {pop pop} ifelse} forall
  /Encoding WinAnsiEncoding def
  currentdict
end
/Helvetica-BoldOblique exch definefont pop
/Helvetica-Bold findfont
dup length dict begin
  {1 index /FID ne {def} {pop pop} ifelse} forall
  /Encoding WinAnsiEncoding def
  currentdict
end
/Helvetica-Bold exch definefont pop
/Helvetica-Oblique findfont
dup length dict begin
  {1 index /FID ne {def} {pop pop} ifelse} forall
  /Encoding WinAnsiEncoding def
  currentdict
end
/Helvetica-Oblique exch definefont pop
/Times-BoldItalic findfont
dup length dict begin
  {1 index /FID ne {def} {pop pop} ifelse} forall
  /Encoding WinAnsiEncoding def
  currentdict
end
/Times-BoldItalic exch definefont pop
/Courier findfont
dup length dict begin
  {1 index /FID ne {def} {pop pop} ifelse} forall
  /Encoding WinAnsiEncoding def
  currentdict
end
/Courier exch definefont pop
/Times-Italic findfont
dup length dict begin
  {1 index /FID ne {def} {pop pop} ifelse} forall
  /Encoding WinAnsiEncoding def
  currentdict
end
/Times-Italic exch definefont pop
/Times-Bold findfont
dup length dict begin
  {1 index /FID ne {def} {pop pop} ifelse} forall
  /Encoding WinAnsiEncoding def
  currentdict
end
/Times-Bold exch definefont pop
%FOPEndFontReencode
%%EndProlog
%%Page: 1 1
%%PageBoundingBox: 0 0 323 338
%%BeginPageSetup
[1 0 0 -1 0 338] CT
%%EndPageSetup
GS
[0.75 0 0 0.75 0 0.5] CT
N
0 0 M
430 0 L
430 450 L
0 450 L
0 0 L
cp
clip
1 GC
N
0 0 430 450 re
f
GR
GS
[0.75 0 0 0.75 0 0.5] CT
1 GC
N
0 0 430 450 re
f
GR
GS
[0.75 0 0 0.75 0 0.5] CT
1 GC
N
56 392.094 M
389 392.094 L
389 41.906 L
56 41.906 L
cp
f
GR
GS
[0.75 0 0 0.75 0 0.5] CT
0.149 GC
2 setlinecap
1 LJ
0.667 LW
N
56 392.094 M
389 392.094 L
S
GR
GS
[0.75 0 0 0.75 0 0.5] CT
0.149 GC
2 setlinecap
1 LJ
0.667 LW
N
56 41.906 M
389 41.906 L
S
GR
GS
[0.75 0 0 0.75 0 0.5] CT
0.149 GC
2 setlinecap
1 LJ
0.667 LW
N
56 392.094 M
56 41.906 L
S
GR
GS
[0.75 0 0 0.75 0 0.5] CT
0.149 GC
2 setlinecap
1 LJ
0.667 LW
N
389 392.094 M
389 41.906 L
S
GR
GS
[0.75 0 0 0.75 0 0.5] CT
0 0.447 0.741 RC
1 LJ
0.667 LW
N
83.08 81.294 M
83.08 81.294 L
S
GR
GS
[0.75 0 0 0.75 0 0.5] CT
0.851 0.325 0.098 RC
1 LJ
0.667 LW
N
83.08 81.294 M
83.08 81.294 L
S
GR
GS
[0.75 0 0 0.75 0 0.5] CT
0.929 0.694 0.125 RC
1 LJ
0.667 LW
N
83.08 81.294 M
83.08 81.294 L
S
GR
GS
[0.75 0 0 0.75 0 0.5] CT
0.494 0.184 0.557 RC
1 LJ
0.667 LW
N
83.08 81.294 M
83.08 81.294 L
S
GR
GS
[0.75 0 0 0.75 0 0.5] CT
0.467 0.675 0.188 RC
1 LJ
0.667 LW
N
83.08 81.294 M
83.08 81.294 L
S
GR
GS
[0.75 0 0 0.75 0 0.5] CT
0.302 0.745 0.933 RC
1 LJ
0.667 LW
N
83.08 81.294 M
83.08 81.294 L
S
GR
GS
[0.75 0 0 0.75 0 0.5] CT
0.635 0.078 0.184 RC
1 LJ
0.667 LW
N
83.08 81.294 M
83.08 81.294 L
S
GR
GS
[0.75 0 0 0.75 0 0.5] CT
0 0.447 0.741 RC
1 LJ
0.667 LW
N
83.08 81.294 M
83.08 81.294 L
S
GR
GS
[0.75 0 0 0.75 0 0.5] CT
0.851 0.325 0.098 RC
1 LJ
0.667 LW
N
83.08 81.294 M
83.08 81.294 L
S
GR
GS
[0.75 0 0 0.75 0 0.5] CT
0.929 0.694 0.125 RC
1 LJ
0.667 LW
N
83.08 81.294 M
83.08 85.113 L
S
GR
GS
[0.75 0 0 0.75 0 0.5] CT
0.494 0.184 0.557 RC
1 LJ
0.667 LW
N
83.08 85.113 M
83.08 86.068 L
S
GR
GS
[0.75 0 0 0.75 0 0.5] CT
0.467 0.675 0.188 RC
1 LJ
0.667 LW
N
83.08 86.068 M
83.08 87.023 L
S
GR
GS
[0.75 0 0 0.75 0 0.5] CT
0.302 0.745 0.933 RC
1 LJ
0.667 LW
N
83.08 87.023 M
83.08 89.887 L
S
GR
GS
[0.75 0 0 0.75 0 0.5] CT
0.635 0.078 0.184 RC
1 LJ
0.667 LW
N
83.08 89.887 M
83.08 90.842 L
S
GR
GS
[0.75 0 0 0.75 0 0.5] CT
0 0.447 0.741 RC
1 LJ
0.667 LW
N
83.08 90.842 M
83.08 90.842 L
S
GR
GS
[0.75 0 0 0.75 0 0.5] CT
0.851 0.325 0.098 RC
1 LJ
0.667 LW
N
83.08 90.842 M
83.08 91.797 L
S
GR
GS
[0.75 0 0 0.75 0 0.5] CT
0.929 0.694 0.125 RC
1 LJ
0.667 LW
N
83.08 91.797 M
83.08 92.752 L
S
GR
GS
[0.75 0 0 0.75 0 0.5] CT
0.494 0.184 0.557 RC
1 LJ
0.667 LW
N
83.08 92.752 M
83.08 94.661 L
S
GR
GS
[0.75 0 0 0.75 0 0.5] CT
0.467 0.675 0.188 RC
1 LJ
0.667 LW
N
83.08 94.661 M
83.08 95.616 L
S
GR
GS
[0.75 0 0 0.75 0 0.5] CT
0.302 0.745 0.933 RC
1 LJ
0.667 LW
N
83.08 95.616 M
83.08 96.571 L
S
GR
GS
[0.75 0 0 0.75 0 0.5] CT
0.635 0.078 0.184 RC
1 LJ
0.667 LW
N
83.08 96.571 M
83.08 96.571 L
S
GR
GS
[0.75 0 0 0.75 0 0.5] CT
0 0.447 0.741 RC
1 LJ
0.667 LW
N
83.08 96.571 M
83.08 96.571 L
S
GR
GS
[0.75 0 0 0.75 0 0.5] CT
0.851 0.325 0.098 RC
1 LJ
0.667 LW
N
83.08 96.571 M
83.08 99.435 L
S
GR
GS
[0.75 0 0 0.75 0 0.5] CT
0.929 0.694 0.125 RC
1 LJ
0.667 LW
N
83.08 99.435 M
83.08 100.39 L
S
GR
GS
[0.75 0 0 0.75 0 0.5] CT
0.494 0.184 0.557 RC
1 LJ
0.667 LW
N
83.08 100.39 M
83.08 102.3 L
S
GR
GS
[0.75 0 0 0.75 0 0.5] CT
0.467 0.675 0.188 RC
1 LJ
0.667 LW
N
83.08 102.3 M
83.08 104.21 L
S
GR
GS
[0.75 0 0 0.75 0 0.5] CT
0.302 0.745 0.933 RC
1 LJ
0.667 LW
N
83.08 104.21 M
83.08 107.074 L
S
GR
GS
[0.75 0 0 0.75 0 0.5] CT
0.635 0.078 0.184 RC
1 LJ
0.667 LW
N
83.08 107.074 M
83.08 110.894 L
S
GR
GS
[0.75 0 0 0.75 0 0.5] CT
0 0.447 0.741 RC
1 LJ
0.667 LW
N
83.08 110.894 M
83.08 113.758 L
S
GR
GS
[0.75 0 0 0.75 0 0.5] CT
0.851 0.325 0.098 RC
1 LJ
0.667 LW
N
83.08 113.758 M
83.08 116.623 L
S
GR
GS
[0.75 0 0 0.75 0 0.5] CT
0.929 0.694 0.125 RC
1 LJ
0.667 LW
N
83.08 116.623 M
83.08 116.623 L
S
GR
GS
[0.75 0 0 0.75 0 0.5] CT
0.494 0.184 0.557 RC
1 LJ
0.667 LW
N
83.08 116.623 M
83.08 119.487 L
S
GR
GS
[0.75 0 0 0.75 0 0.5] CT
0.467 0.675 0.188 RC
1 LJ
0.667 LW
N
83.08 119.487 M
83.08 120.442 L
S
GR
GS
[0.75 0 0 0.75 0 0.5] CT
0.302 0.745 0.933 RC
1 LJ
0.667 LW
N
83.08 120.442 M
83.08 121.397 L
S
GR
GS
[0.75 0 0 0.75 0 0.5] CT
0.635 0.078 0.184 RC
1 LJ
0.667 LW
N
83.08 121.397 M
83.08 124.261 L
S
GR
GS
[0.75 0 0 0.75 0 0.5] CT
0 0.447 0.741 RC
1 LJ
0.667 LW
N
83.08 124.261 M
83.08 126.171 L
S
GR
GS
[0.75 0 0 0.75 0 0.5] CT
0.851 0.325 0.098 RC
1 LJ
0.667 LW
N
83.08 126.171 M
83.08 128.081 L
S
GR
GS
[0.75 0 0 0.75 0 0.5] CT
0.929 0.694 0.125 RC
1 LJ
0.667 LW
N
83.08 128.081 M
83.08 130.945 L
S
GR
GS
[0.75 0 0 0.75 0 0.5] CT
0.494 0.184 0.557 RC
1 LJ
0.667 LW
N
83.08 130.945 M
83.08 132.855 L
S
GR
GS
[0.75 0 0 0.75 0 0.5] CT
0.467 0.675 0.188 RC
1 LJ
0.667 LW
N
83.08 132.855 M
83.08 134.765 L
S
GR
GS
[0.75 0 0 0.75 0 0.5] CT
0.302 0.745 0.933 RC
1 LJ
0.667 LW
N
83.08 134.765 M
83.08 135.719 L
S
GR
GS
[0.75 0 0 0.75 0 0.5] CT
0.635 0.078 0.184 RC
1 LJ
0.667 LW
N
83.08 135.719 M
83.08 137.629 L
S
GR
GS
[0.75 0 0 0.75 0 0.5] CT
0 0.447 0.741 RC
1 LJ
0.667 LW
N
83.08 137.629 M
83.08 138.584 L
S
GR
GS
[0.75 0 0 0.75 0 0.5] CT
0.851 0.325 0.098 RC
1 LJ
0.667 LW
N
83.08 138.584 M
83.08 140.494 L
S
GR
GS
[0.75 0 0 0.75 0 0.5] CT
0.929 0.694 0.125 RC
1 LJ
0.667 LW
N
83.08 140.494 M
83.08 140.494 L
S
GR
GS
[0.75 0 0 0.75 0 0.5] CT
0.494 0.184 0.557 RC
1 LJ
0.667 LW
N
83.08 140.494 M
83.08 143.358 L
S
GR
GS
[0.75 0 0 0.75 0 0.5] CT
0.467 0.675 0.188 RC
1 LJ
0.667 LW
N
83.08 143.358 M
83.08 145.268 L
S
GR
GS
[0.75 0 0 0.75 0 0.5] CT
0.302 0.745 0.933 RC
1 LJ
0.667 LW
N
83.08 145.268 M
83.08 148.132 L
S
GR
GS
[0.75 0 0 0.75 0 0.5] CT
0.635 0.078 0.184 RC
1 LJ
0.667 LW
N
83.08 148.132 M
83.08 150.042 L
S
GR
GS
[0.75 0 0 0.75 0 0.5] CT
0 0.447 0.741 RC
1 LJ
0.667 LW
N
83.08 150.042 M
83.08 152.906 L
S
GR
GS
[0.75 0 0 0.75 0 0.5] CT
0.851 0.325 0.098 RC
1 LJ
0.667 LW
N
83.08 152.906 M
83.08 153.861 L
S
GR
GS
[0.75 0 0 0.75 0 0.5] CT
0.929 0.694 0.125 RC
1 LJ
0.667 LW
N
83.08 153.861 M
82.08 156.726 L
S
GR
GS
[0.75 0 0 0.75 0 0.5] CT
0.494 0.184 0.557 RC
1 LJ
0.667 LW
N
82.08 156.726 M
82.08 158.635 L
S
GR
GS
[0.75 0 0 0.75 0 0.5] CT
0.467 0.675 0.188 RC
1 LJ
0.667 LW
N
82.08 158.635 M
82.08 159.59 L
S
GR
GS
[0.75 0 0 0.75 0 0.5] CT
0.302 0.745 0.933 RC
1 LJ
0.667 LW
N
82.08 159.59 M
82.08 161.5 L
S
GR
GS
[0.75 0 0 0.75 0 0.5] CT
0.635 0.078 0.184 RC
1 LJ
0.667 LW
N
82.08 161.5 M
82.08 162.455 L
S
GR
GS
[0.75 0 0 0.75 0 0.5] CT
0 0.447 0.741 RC
1 LJ
0.667 LW
N
82.08 162.455 M
82.08 163.41 L
S
GR
GS
[0.75 0 0 0.75 0 0.5] CT
0.851 0.325 0.098 RC
1 LJ
0.667 LW
N
82.08 163.41 M
82.08 163.41 L
S
GR
GS
[0.75 0 0 0.75 0 0.5] CT
0.929 0.694 0.125 RC
1 LJ
0.667 LW
N
82.08 163.41 M
82.08 164.365 L
S
GR
GS
[0.75 0 0 0.75 0 0.5] CT
0.494 0.184 0.557 RC
1 LJ
0.667 LW
N
82.08 164.365 M
82.08 166.274 L
S
GR
GS
[0.75 0 0 0.75 0 0.5] CT
0.467 0.675 0.188 RC
1 LJ
0.667 LW
N
82.08 166.274 M
82.08 167.229 L
S
GR
GS
[0.75 0 0 0.75 0 0.5] CT
0.302 0.745 0.933 RC
1 LJ
0.667 LW
N
82.08 167.229 M
82.08 167.229 L
S
GR
GS
[0.75 0 0 0.75 0 0.5] CT
0.635 0.078 0.184 RC
1 LJ
0.667 LW
N
82.08 167.229 M
82.08 167.229 L
S
GR
GS
[0.75 0 0 0.75 0 0.5] CT
0 0.447 0.741 RC
1 LJ
0.667 LW
N
82.08 167.229 M
82.08 167.229 L
S
GR
GS
[0.75 0 0 0.75 0 0.5] CT
0.851 0.325 0.098 RC
1 LJ
0.667 LW
N
82.08 167.229 M
82.08 167.229 L
S
GR
GS
[0.75 0 0 0.75 0 0.5] CT
0.929 0.694 0.125 RC
1 LJ
0.667 LW
N
82.08 167.229 M
82.08 167.229 L
S
GR
GS
[0.75 0 0 0.75 0 0.5] CT
0.494 0.184 0.557 RC
1 LJ
0.667 LW
N
79.083 88.932 M
79.083 88.932 L
S
GR
GS
[0.75 0 0 0.75 0 0.5] CT
0.467 0.675 0.188 RC
1 LJ
0.667 LW
N
79.083 88.932 M
79.083 88.932 L
S
GR
GS
[0.75 0 0 0.75 0 0.5] CT
0.302 0.745 0.933 RC
1 LJ
0.667 LW
N
79.083 88.932 M
79.083 88.932 L
S
GR
GS
[0.75 0 0 0.75 0 0.5] CT
0.635 0.078 0.184 RC
1 LJ
0.667 LW
N
79.083 88.932 M
80.082 87.977 L
S
GR
GS
[0.75 0 0 0.75 0 0.5] CT
0 0.447 0.741 RC
1 LJ
0.667 LW
N
80.082 87.977 M
80.082 87.977 L
S
GR
GS
[0.75 0 0 0.75 0 0.5] CT
0.851 0.325 0.098 RC
1 LJ
0.667 LW
N
80.082 87.977 M
82.08 87.023 L
S
GR
GS
[0.75 0 0 0.75 0 0.5] CT
0.929 0.694 0.125 RC
1 LJ
0.667 LW
N
82.08 87.023 M
83.08 86.068 L
S
GR
GS
[0.75 0 0 0.75 0 0.5] CT
0.494 0.184 0.557 RC
1 LJ
0.667 LW
N
83.08 86.068 M
84.079 86.068 L
S
GR
GS
[0.75 0 0 0.75 0 0.5] CT
0.467 0.675 0.188 RC
1 LJ
0.667 LW
N
84.079 86.068 M
86.077 85.113 L
S
GR
GS
[0.75 0 0 0.75 0 0.5] CT
0.302 0.745 0.933 RC
1 LJ
0.667 LW
N
86.077 85.113 M
89.075 84.158 L
S
GR
GS
[0.75 0 0 0.75 0 0.5] CT
0.635 0.078 0.184 RC
1 LJ
0.667 LW
N
89.075 84.158 M
90.074 84.158 L
S
GR
GS
[0.75 0 0 0.75 0 0.5] CT
0 0.447 0.741 RC
1 LJ
0.667 LW
N
90.074 84.158 M
91.074 84.158 L
S
GR
GS
[0.75 0 0 0.75 0 0.5] CT
0.851 0.325 0.098 RC
1 LJ
0.667 LW
N
91.074 84.158 M
92.073 83.203 L
S
GR
GS
[0.75 0 0 0.75 0 0.5] CT
0.929 0.694 0.125 RC
1 LJ
0.667 LW
N
92.073 83.203 M
94.071 83.203 L
S
GR
GS
[0.75 0 0 0.75 0 0.5] CT
0.494 0.184 0.557 RC
1 LJ
0.667 LW
N
94.071 83.203 M
97.069 82.248 L
S
GR
GS
[0.75 0 0 0.75 0 0.5] CT
0.467 0.675 0.188 RC
1 LJ
0.667 LW
N
97.069 82.248 M
99.068 81.294 L
S
GR
GS
[0.75 0 0 0.75 0 0.5] CT
0.302 0.745 0.933 RC
1 LJ
0.667 LW
N
99.068 81.294 M
100.067 81.294 L
S
GR
GS
[0.75 0 0 0.75 0 0.5] CT
0.635 0.078 0.184 RC
1 LJ
0.667 LW
N
100.067 81.294 M
101.066 81.294 L
S
GR
GS
[0.75 0 0 0.75 0 0.5] CT
0 0.447 0.741 RC
1 LJ
0.667 LW
N
101.066 81.294 M
102.065 81.294 L
S
GR
GS
[0.75 0 0 0.75 0 0.5] CT
0.851 0.325 0.098 RC
1 LJ
0.667 LW
N
102.065 81.294 M
102.065 81.294 L
S
GR
GS
[0.75 0 0 0.75 0 0.5] CT
0.929 0.694 0.125 RC
1 LJ
0.667 LW
N
102.065 81.294 M
104.064 81.294 L
S
GR
GS
[0.75 0 0 0.75 0 0.5] CT
0.494 0.184 0.557 RC
1 LJ
0.667 LW
N
104.064 81.294 M
106.062 83.203 L
S
GR
GS
[0.75 0 0 0.75 0 0.5] CT
0.467 0.675 0.188 RC
1 LJ
0.667 LW
N
106.062 83.203 M
106.062 83.203 L
S
GR
GS
[0.75 0 0 0.75 0 0.5] CT
0.302 0.745 0.933 RC
1 LJ
0.667 LW
N
106.062 83.203 M
107.062 84.158 L
S
GR
GS
[0.75 0 0 0.75 0 0.5] CT
0.635 0.078 0.184 RC
1 LJ
0.667 LW
N
107.062 84.158 M
109.06 87.023 L
S
GR
GS
[0.75 0 0 0.75 0 0.5] CT
0 0.447 0.741 RC
1 LJ
0.667 LW
N
109.06 87.023 M
111.059 88.932 L
S
GR
GS
[0.75 0 0 0.75 0 0.5] CT
0.851 0.325 0.098 RC
1 LJ
0.667 LW
N
111.059 88.932 M
112.058 90.842 L
S
GR
GS
[0.75 0 0 0.75 0 0.5] CT
0.929 0.694 0.125 RC
1 LJ
0.667 LW
N
112.058 90.842 M
113.057 91.797 L
S
GR
GS
[0.75 0 0 0.75 0 0.5] CT
0.494 0.184 0.557 RC
1 LJ
0.667 LW
N
113.057 91.797 M
114.056 92.752 L
S
GR
GS
[0.75 0 0 0.75 0 0.5] CT
0.467 0.675 0.188 RC
1 LJ
0.667 LW
N
114.056 92.752 M
116.055 95.616 L
S
GR
GS
[0.75 0 0 0.75 0 0.5] CT
0.302 0.745 0.933 RC
1 LJ
0.667 LW
N
116.055 95.616 M
117.054 96.571 L
S
GR
GS
[0.75 0 0 0.75 0 0.5] CT
0.635 0.078 0.184 RC
1 LJ
0.667 LW
N
117.054 96.571 M
118.053 98.481 L
S
GR
GS
[0.75 0 0 0.75 0 0.5] CT
0 0.447 0.741 RC
1 LJ
0.667 LW
N
118.053 98.481 M
120.052 101.345 L
S
GR
GS
[0.75 0 0 0.75 0 0.5] CT
0.851 0.325 0.098 RC
1 LJ
0.667 LW
N
120.052 101.345 M
121.051 102.3 L
S
GR
GS
[0.75 0 0 0.75 0 0.5] CT
0.929 0.694 0.125 RC
1 LJ
0.667 LW
N
121.051 102.3 M
122.05 103.255 L
S
GR
GS
[0.75 0 0 0.75 0 0.5] CT
0.494 0.184 0.557 RC
1 LJ
0.667 LW
N
122.05 103.255 M
123.05 105.165 L
S
GR
GS
[0.75 0 0 0.75 0 0.5] CT
0.467 0.675 0.188 RC
1 LJ
0.667 LW
N
123.05 105.165 M
123.05 105.165 L
S
GR
GS
[0.75 0 0 0.75 0 0.5] CT
0.302 0.745 0.933 RC
1 LJ
0.667 LW
N
123.05 105.165 M
124.049 107.074 L
S
GR
GS
[0.75 0 0 0.75 0 0.5] CT
0.635 0.078 0.184 RC
1 LJ
0.667 LW
N
124.049 107.074 M
125.048 108.984 L
S
GR
GS
[0.75 0 0 0.75 0 0.5] CT
0 0.447 0.741 RC
1 LJ
0.667 LW
N
125.048 108.984 M
125.048 110.894 L
S
GR
GS
[0.75 0 0 0.75 0 0.5] CT
0.851 0.325 0.098 RC
1 LJ
0.667 LW
N
125.048 110.894 M
126.047 112.803 L
S
GR
GS
[0.75 0 0 0.75 0 0.5] CT
0.929 0.694 0.125 RC
1 LJ
0.667 LW
N
126.047 112.803 M
126.047 113.758 L
S
GR
GS
[0.75 0 0 0.75 0 0.5] CT
0.494 0.184 0.557 RC
1 LJ
0.667 LW
N
126.047 113.758 M
126.047 114.713 L
S
GR
GS
[0.75 0 0 0.75 0 0.5] CT
0.467 0.675 0.188 RC
1 LJ
0.667 LW
N
126.047 114.713 M
126.047 115.668 L
S
GR
GS
[0.75 0 0 0.75 0 0.5] CT
0.302 0.745 0.933 RC
1 LJ
0.667 LW
N
126.047 115.668 M
126.047 115.668 L
S
GR
GS
[0.75 0 0 0.75 0 0.5] CT
0.635 0.078 0.184 RC
1 LJ
0.667 LW
N
126.047 115.668 M
125.048 118.532 L
S
GR
GS
[0.75 0 0 0.75 0 0.5] CT
0 0.447 0.741 RC
1 LJ
0.667 LW
N
125.048 118.532 M
124.049 120.442 L
S
GR
GS
[0.75 0 0 0.75 0 0.5] CT
0.851 0.325 0.098 RC
1 LJ
0.667 LW
N
124.049 120.442 M
124.049 120.442 L
S
GR
GS
[0.75 0 0 0.75 0 0.5] CT
0.929 0.694 0.125 RC
1 LJ
0.667 LW
N
124.049 120.442 M
124.049 121.397 L
S
GR
GS
[0.75 0 0 0.75 0 0.5] CT
0.494 0.184 0.557 RC
1 LJ
0.667 LW
N
124.049 121.397 M
123.05 122.352 L
S
GR
GS
[0.75 0 0 0.75 0 0.5] CT
0.467 0.675 0.188 RC
1 LJ
0.667 LW
N
123.05 122.352 M
121.051 124.261 L
S
GR
GS
[0.75 0 0 0.75 0 0.5] CT
0.302 0.745 0.933 RC
1 LJ
0.667 LW
N
121.051 124.261 M
119.053 126.171 L
S
GR
GS
[0.75 0 0 0.75 0 0.5] CT
0.635 0.078 0.184 RC
1 LJ
0.667 LW
N
119.053 126.171 M
119.053 126.171 L
S
GR
GS
[0.75 0 0 0.75 0 0.5] CT
0 0.447 0.741 RC
1 LJ
0.667 LW
N
119.053 126.171 M
118.053 127.126 L
S
GR
GS
[0.75 0 0 0.75 0 0.5] CT
0.851 0.325 0.098 RC
1 LJ
0.667 LW
N
118.053 127.126 M
116.055 129.035 L
S
GR
GS
[0.75 0 0 0.75 0 0.5] CT
0.929 0.694 0.125 RC
1 LJ
0.667 LW
N
116.055 129.035 M
114.056 129.99 L
S
GR
GS
[0.75 0 0 0.75 0 0.5] CT
0.494 0.184 0.557 RC
1 LJ
0.667 LW
N
114.056 129.99 M
113.057 130.945 L
S
GR
GS
[0.75 0 0 0.75 0 0.5] CT
0.467 0.675 0.188 RC
1 LJ
0.667 LW
N
113.057 130.945 M
108.061 133.81 L
S
GR
GS
[0.75 0 0 0.75 0 0.5] CT
0.302 0.745 0.933 RC
1 LJ
0.667 LW
N
108.061 133.81 M
108.061 133.81 L
S
GR
GS
[0.75 0 0 0.75 0 0.5] CT
0.635 0.078 0.184 RC
1 LJ
0.667 LW
N
108.061 133.81 M
106.062 133.81 L
S
GR
GS
[0.75 0 0 0.75 0 0.5] CT
0 0.447 0.741 RC
1 LJ
0.667 LW
N
106.062 133.81 M
104.064 134.765 L
S
GR
GS
[0.75 0 0 0.75 0 0.5] CT
0.851 0.325 0.098 RC
1 LJ
0.667 LW
N
104.064 134.765 M
104.064 134.765 L
S
GR
GS
[0.75 0 0 0.75 0 0.5] CT
0.929 0.694 0.125 RC
1 LJ
0.667 LW
N
104.064 134.765 M
103.065 134.765 L
S
GR
GS
[0.75 0 0 0.75 0 0.5] CT
0.494 0.184 0.557 RC
1 LJ
0.667 LW
N
103.065 134.765 M
100.067 135.719 L
S
GR
GS
[0.75 0 0 0.75 0 0.5] CT
0.467 0.675 0.188 RC
1 LJ
0.667 LW
N
100.067 135.719 M
99.068 135.719 L
S
GR
GS
[0.75 0 0 0.75 0 0.5] CT
0.302 0.745 0.933 RC
1 LJ
0.667 LW
N
99.068 135.719 M
98.068 135.719 L
S
GR
GS
[0.75 0 0 0.75 0 0.5] CT
0.635 0.078 0.184 RC
1 LJ
0.667 LW
N
98.068 135.719 M
96.07 135.719 L
S
GR
GS
[0.75 0 0 0.75 0 0.5] CT
0 0.447 0.741 RC
1 LJ
0.667 LW
N
96.07 135.719 M
94.071 135.719 L
S
GR
GS
[0.75 0 0 0.75 0 0.5] CT
0.851 0.325 0.098 RC
1 LJ
0.667 LW
N
94.071 135.719 M
91.074 135.719 L
S
GR
GS
[0.75 0 0 0.75 0 0.5] CT
0.929 0.694 0.125 RC
1 LJ
0.667 LW
N
91.074 135.719 M
90.074 135.719 L
S
GR
GS
[0.75 0 0 0.75 0 0.5] CT
0.494 0.184 0.557 RC
1 LJ
0.667 LW
N
90.074 135.719 M
88.076 135.719 L
S
GR
GS
[0.75 0 0 0.75 0 0.5] CT
0.467 0.675 0.188 RC
1 LJ
0.667 LW
N
88.076 135.719 M
86.077 135.719 L
S
GR
GS
[0.75 0 0 0.75 0 0.5] CT
0.302 0.745 0.933 RC
1 LJ
0.667 LW
N
86.077 135.719 M
85.078 135.719 L
S
GR
GS
[0.75 0 0 0.75 0 0.5] CT
0.635 0.078 0.184 RC
1 LJ
0.667 LW
N
85.078 135.719 M
83.08 133.81 L
S
GR
GS
[0.75 0 0 0.75 0 0.5] CT
0 0.447 0.741 RC
1 LJ
0.667 LW
N
83.08 133.81 M
83.08 133.81 L
S
GR
GS
[0.75 0 0 0.75 0 0.5] CT
0.851 0.325 0.098 RC
1 LJ
0.667 LW
N
83.08 133.81 M
83.08 133.81 L
S
GR
GS
[0.75 0 0 0.75 0 0.5] CT
0.929 0.694 0.125 RC
1 LJ
0.667 LW
N
83.08 133.81 M
81.081 133.81 L
S
GR
GS
[0.75 0 0 0.75 0 0.5] CT
0.494 0.184 0.557 RC
1 LJ
0.667 LW
N
81.081 133.81 M
79.083 132.855 L
S
GR
GS
[0.75 0 0 0.75 0 0.5] CT
0.467 0.675 0.188 RC
1 LJ
0.667 LW
N
79.083 132.855 M
79.083 132.855 L
S
GR
GS
[0.75 0 0 0.75 0 0.5] CT
0.302 0.745 0.933 RC
1 LJ
0.667 LW
N
79.083 132.855 M
79.083 132.855 L
S
GR
GS
[0.75 0 0 0.75 0 0.5] CT
0.635 0.078 0.184 RC
1 LJ
0.667 LW
N
79.083 132.855 M
79.083 132.855 L
S
GR
%%Trailer
%%Pages: 1
%%EOF
