%!PS-Adobe-3.0 EPSF-3.0
%%Creator: (MATLAB, The Mathworks, Inc. Version 8.6.0.267246 \(R2015b\). Operating System: Linux)
%%Title: /afs/kth.se/home/s/a/samiula/Documents/PatternRecognition/Assignment2_updated/Assignment2/DrawCharacter/bigP/bighist.eps
%%CreationDate: 2016-09-28T15:29:51
%%Pages: (atend)
%%BoundingBox: 0 0 428 338
%%LanguageLevel: 2
%%EndComments
%%BeginProlog
%%BeginResource: procset (Apache XML Graphics Std ProcSet) 1.2 0
%%Version: 1.2 0
%%Copyright: (Copyright 2001-2003,2010 The Apache Software Foundation. License terms: http://www.apache.org/licenses/LICENSE-2.0)
/bd{bind def}bind def
/ld{load def}bd
/GR/grestore ld
/M/moveto ld
/LJ/setlinejoin ld
/C/curveto ld
/f/fill ld
/LW/setlinewidth ld
/GC/setgray ld
/t/show ld
/N/newpath ld
/CT/concat ld
/cp/closepath ld
/S/stroke ld
/L/lineto ld
/CC/setcmykcolor ld
/A/ashow ld
/GS/gsave ld
/RC/setrgbcolor ld
/RM/rmoveto ld
/ML/setmiterlimit ld
/re {4 2 roll M
1 index 0 rlineto
0 exch rlineto
neg 0 rlineto
cp } bd
/_ctm matrix def
/_tm matrix def
/BT { _ctm currentmatrix pop matrix _tm copy pop 0 0 moveto } bd
/ET { _ctm setmatrix } bd
/iTm { _ctm setmatrix _tm concat } bd
/Tm { _tm astore pop iTm 0 0 moveto } bd
/ux 0.0 def
/uy 0.0 def
/F {
  /Tp exch def
  /Tf exch def
  Tf findfont Tp scalefont setfont
  /cf Tf def  /cs Tp def
} bd
/ULS {currentpoint /uy exch def /ux exch def} bd
/ULE {
  /Tcx currentpoint pop def
  gsave
  newpath
  cf findfont cs scalefont dup
  /FontMatrix get 0 get /Ts exch def /FontInfo get dup
  /UnderlinePosition get Ts mul /To exch def
  /UnderlineThickness get Ts mul /Tt exch def
  ux uy To add moveto  Tcx uy To add lineto
  Tt setlinewidth stroke
  grestore
} bd
/OLE {
  /Tcx currentpoint pop def
  gsave
  newpath
  cf findfont cs scalefont dup
  /FontMatrix get 0 get /Ts exch def /FontInfo get dup
  /UnderlinePosition get Ts mul /To exch def
  /UnderlineThickness get Ts mul /Tt exch def
  ux uy To add cs add moveto Tcx uy To add cs add lineto
  Tt setlinewidth stroke
  grestore
} bd
/SOE {
  /Tcx currentpoint pop def
  gsave
  newpath
  cf findfont cs scalefont dup
  /FontMatrix get 0 get /Ts exch def /FontInfo get dup
  /UnderlinePosition get Ts mul /To exch def
  /UnderlineThickness get Ts mul /Tt exch def
  ux uy To add cs 10 mul 26 idiv add moveto Tcx uy To add cs 10 mul 26 idiv add lineto
  Tt setlinewidth stroke
  grestore
} bd
/QT {
/Y22 exch store
/X22 exch store
/Y21 exch store
/X21 exch store
currentpoint
/Y21 load 2 mul add 3 div exch
/X21 load 2 mul add 3 div exch
/X21 load 2 mul /X22 load add 3 div
/Y21 load 2 mul /Y22 load add 3 div
/X22 load /Y22 load curveto
} bd
/SSPD {
dup length /d exch dict def
{
/v exch def
/k exch def
currentpagedevice k known {
/cpdv currentpagedevice k get def
v cpdv ne {
/upd false def
/nullv v type /nulltype eq def
/nullcpdv cpdv type /nulltype eq def
nullv nullcpdv or
{
/upd true def
} {
/sametype v type cpdv type eq def
sametype {
v type /arraytype eq {
/vlen v length def
/cpdvlen cpdv length def
vlen cpdvlen eq {
0 1 vlen 1 sub {
/i exch def
/obj v i get def
/cpdobj cpdv i get def
obj cpdobj ne {
/upd true def
exit
} if
} for
} {
/upd true def
} ifelse
} {
v type /dicttype eq {
v {
/dv exch def
/dk exch def
/cpddv cpdv dk get def
dv cpddv ne {
/upd true def
exit
} if
} forall
} {
/upd true def
} ifelse
} ifelse
} if
} ifelse
upd true eq {
d k v put
} if
} if
} if
} forall
d length 0 gt {
d setpagedevice
} if
} bd
%%EndResource
%%BeginResource: procset (Apache XML Graphics EPS ProcSet) 1.0 0
%%Version: 1.0 0
%%Copyright: (Copyright 2002-2003 The Apache Software Foundation. License terms: http://www.apache.org/licenses/LICENSE-2.0)
/BeginEPSF { %def
/b4_Inc_state save def         % Save state for cleanup
/dict_count countdictstack def % Count objects on dict stack
/op_count count 1 sub def      % Count objects on operand stack
userdict begin                 % Push userdict on dict stack
/showpage { } def              % Redefine showpage, { } = null proc
0 setgray 0 setlinecap         % Prepare graphics state
1 setlinewidth 0 setlinejoin
10 setmiterlimit [ ] 0 setdash newpath
/languagelevel where           % If level not equal to 1 then
{pop languagelevel             % set strokeadjust and
1 ne                           % overprint to their defaults.
{false setstrokeadjust false setoverprint
} if
} if
} bd
/EndEPSF { %def
count op_count sub {pop} repeat            % Clean up stacks
countdictstack dict_count sub {end} repeat
b4_Inc_state restore
} bd
%%EndResource
%FOPBeginFontDict
%%IncludeResource: font Courier-Bold
%%IncludeResource: font Helvetica
%%IncludeResource: font Courier-BoldOblique
%%IncludeResource: font Courier-Oblique
%%IncludeResource: font Times-Roman
%%IncludeResource: font Helvetica-BoldOblique
%%IncludeResource: font Helvetica-Bold
%%IncludeResource: font Helvetica-Oblique
%%IncludeResource: font Times-BoldItalic
%%IncludeResource: font Courier
%%IncludeResource: font Times-Italic
%%IncludeResource: font Times-Bold
%%IncludeResource: font Symbol
%%IncludeResource: font ZapfDingbats
%FOPEndFontDict
%%BeginResource: encoding WinAnsiEncoding
/WinAnsiEncoding [
/.notdef /.notdef /.notdef /.notdef /.notdef
/.notdef /.notdef /.notdef /.notdef /.notdef
/.notdef /.notdef /.notdef /.notdef /.notdef
/.notdef /.notdef /.notdef /.notdef /.notdef
/.notdef /.notdef /.notdef /.notdef /.notdef
/.notdef /.notdef /.notdef /.notdef /.notdef
/.notdef /.notdef /space /exclam /quotedbl
/numbersign /dollar /percent /ampersand /quotesingle
/parenleft /parenright /asterisk /plus /comma
/hyphen /period /slash /zero /one
/two /three /four /five /six
/seven /eight /nine /colon /semicolon
/less /equal /greater /question /at
/A /B /C /D /E
/F /G /H /I /J
/K /L /M /N /O
/P /Q /R /S /T
/U /V /W /X /Y
/Z /bracketleft /backslash /bracketright /asciicircum
/underscore /quoteleft /a /b /c
/d /e /f /g /h
/i /j /k /l /m
/n /o /p /q /r
/s /t /u /v /w
/x /y /z /braceleft /bar
/braceright /asciitilde /bullet /Euro /bullet
/quotesinglbase /florin /quotedblbase /ellipsis /dagger
/daggerdbl /circumflex /perthousand /Scaron /guilsinglleft
/OE /bullet /Zcaron /bullet /bullet
/quoteleft /quoteright /quotedblleft /quotedblright /bullet
/endash /emdash /asciitilde /trademark /scaron
/guilsinglright /oe /bullet /zcaron /Ydieresis
/space /exclamdown /cent /sterling /currency
/yen /brokenbar /section /dieresis /copyright
/ordfeminine /guillemotleft /logicalnot /sfthyphen /registered
/macron /degree /plusminus /twosuperior /threesuperior
/acute /mu /paragraph /middot /cedilla
/onesuperior /ordmasculine /guillemotright /onequarter /onehalf
/threequarters /questiondown /Agrave /Aacute /Acircumflex
/Atilde /Adieresis /Aring /AE /Ccedilla
/Egrave /Eacute /Ecircumflex /Edieresis /Igrave
/Iacute /Icircumflex /Idieresis /Eth /Ntilde
/Ograve /Oacute /Ocircumflex /Otilde /Odieresis
/multiply /Oslash /Ugrave /Uacute /Ucircumflex
/Udieresis /Yacute /Thorn /germandbls /agrave
/aacute /acircumflex /atilde /adieresis /aring
/ae /ccedilla /egrave /eacute /ecircumflex
/edieresis /igrave /iacute /icircumflex /idieresis
/eth /ntilde /ograve /oacute /ocircumflex
/otilde /odieresis /divide /oslash /ugrave
/uacute /ucircumflex /udieresis /yacute /thorn
/ydieresis
] def
%%EndResource
%FOPBeginFontReencode
/Courier-Bold findfont
dup length dict begin
  {1 index /FID ne {def} {pop pop} ifelse} forall
  /Encoding WinAnsiEncoding def
  currentdict
end
/Courier-Bold exch definefont pop
/Helvetica findfont
dup length dict begin
  {1 index /FID ne {def} {pop pop} ifelse} forall
  /Encoding WinAnsiEncoding def
  currentdict
end
/Helvetica exch definefont pop
/Courier-BoldOblique findfont
dup length dict begin
  {1 index /FID ne {def} {pop pop} ifelse} forall
  /Encoding WinAnsiEncoding def
  currentdict
end
/Courier-BoldOblique exch definefont pop
/Courier-Oblique findfont
dup length dict begin
  {1 index /FID ne {def} {pop pop} ifelse} forall
  /Encoding WinAnsiEncoding def
  currentdict
end
/Courier-Oblique exch definefont pop
/Times-Roman findfont
dup length dict begin
  {1 index /FID ne {def} {pop pop} ifelse} forall
  /Encoding WinAnsiEncoding def
  currentdict
end
/Times-Roman exch definefont pop
/Helvetica-BoldOblique findfont
dup length dict begin
  {1 index /FID ne {def} {pop pop} ifelse} forall
  /Encoding WinAnsiEncoding def
  currentdict
end
/Helvetica-BoldOblique exch definefont pop
/Helvetica-Bold findfont
dup length dict begin
  {1 index /FID ne {def} {pop pop} ifelse} forall
  /Encoding WinAnsiEncoding def
  currentdict
end
/Helvetica-Bold exch definefont pop
/Helvetica-Oblique findfont
dup length dict begin
  {1 index /FID ne {def} {pop pop} ifelse} forall
  /Encoding WinAnsiEncoding def
  currentdict
end
/Helvetica-Oblique exch definefont pop
/Times-BoldItalic findfont
dup length dict begin
  {1 index /FID ne {def} {pop pop} ifelse} forall
  /Encoding WinAnsiEncoding def
  currentdict
end
/Times-BoldItalic exch definefont pop
/Courier findfont
dup length dict begin
  {1 index /FID ne {def} {pop pop} ifelse} forall
  /Encoding WinAnsiEncoding def
  currentdict
end
/Courier exch definefont pop
/Times-Italic findfont
dup length dict begin
  {1 index /FID ne {def} {pop pop} ifelse} forall
  /Encoding WinAnsiEncoding def
  currentdict
end
/Times-Italic exch definefont pop
/Times-Bold findfont
dup length dict begin
  {1 index /FID ne {def} {pop pop} ifelse} forall
  /Encoding WinAnsiEncoding def
  currentdict
end
/Times-Bold exch definefont pop
%FOPEndFontReencode
%%EndProlog
%%Page: 1 1
%%PageBoundingBox: 0 0 428 338
%%BeginPageSetup
[1 0 0 -1 0 338] CT
%%EndPageSetup
GS
[0.75 0 0 0.75 0 0.5] CT
N
0 0 M
570 0 L
570 450 L
0 450 L
0 0 L
cp
clip
1 GC
N
0 0 570 450 re
f
GR
GS
[0.75 0 0 0.75 0 0.5] CT
1 GC
N
0 0 570 450 re
f
GR
GS
[0.75 0 0 0.75 0 0.5] CT
1 GC
N
74 400 M
516 400 L
516 34 L
74 34 L
cp
f
GR
GS
[0.75 0 0 0.75 0 0.5] CT
0.149 GC
2 setlinecap
1 LJ
0.667 LW
N
74 400 M
516 400 L
S
GR
GS
[0.75 0 0 0.75 0 0.5] CT
0.149 GC
2 setlinecap
1 LJ
0.667 LW
N
74 34 M
516 34 L
S
GR
GS
[0.75 0 0 0.75 0 0.5] CT
0.149 GC
2 setlinecap
1 LJ
0.667 LW
N
74 400 M
74 395.58 L
S
GR
GS
[0.75 0 0 0.75 0 0.5] CT
0.149 GC
2 setlinecap
1 LJ
0.667 LW
N
162.4 400 M
162.4 395.58 L
S
GR
GS
[0.75 0 0 0.75 0 0.5] CT
0.149 GC
2 setlinecap
1 LJ
0.667 LW
N
250.8 400 M
250.8 395.58 L
S
GR
GS
[0.75 0 0 0.75 0 0.5] CT
0.149 GC
2 setlinecap
1 LJ
0.667 LW
N
339.2 400 M
339.2 395.58 L
S
GR
GS
[0.75 0 0 0.75 0 0.5] CT
0.149 GC
2 setlinecap
1 LJ
0.667 LW
N
427.6 400 M
427.6 395.58 L
S
GR
GS
[0.75 0 0 0.75 0 0.5] CT
0.149 GC
2 setlinecap
1 LJ
0.667 LW
N
516 400 M
516 395.58 L
S
GR
GS
[0.75 0 0 0.75 0 0.5] CT
0.149 GC
2 setlinecap
1 LJ
0.667 LW
N
74 34 M
74 38.42 L
S
GR
GS
[0.75 0 0 0.75 0 0.5] CT
0.149 GC
2 setlinecap
1 LJ
0.667 LW
N
162.4 34 M
162.4 38.42 L
S
GR
GS
[0.75 0 0 0.75 0 0.5] CT
0.149 GC
2 setlinecap
1 LJ
0.667 LW
N
250.8 34 M
250.8 38.42 L
S
GR
GS
[0.75 0 0 0.75 0 0.5] CT
0.149 GC
2 setlinecap
1 LJ
0.667 LW
N
339.2 34 M
339.2 38.42 L
S
GR
GS
[0.75 0 0 0.75 0 0.5] CT
0.149 GC
2 setlinecap
1 LJ
0.667 LW
N
427.6 34 M
427.6 38.42 L
S
GR
GS
[0.75 0 0 0.75 0 0.5] CT
0.149 GC
2 setlinecap
1 LJ
0.667 LW
N
516 34 M
516 38.42 L
S
GR
GS
[0.75 0 0 0.75 55.5 304.50001] CT
0.149 GC
/Helvetica 13 F
GS
[1 0 0 1 0 0] CT
-4.5 13 moveto 
1 -1 scale
(0) t 
GR
GR
GS
[0.75 0 0 0.75 121.8 304.50001] CT
0.149 GC
/Helvetica 13 F
GS
[1 0 0 1 0 0] CT
-10.5 13 moveto 
1 -1 scale
(0.2) t 
GR
GR
GS
[0.75 0 0 0.75 188.1 304.50001] CT
0.149 GC
/Helvetica 13 F
GS
[1 0 0 1 0 0] CT
-10.5 13 moveto 
1 -1 scale
(0.4) t 
GR
GR
GS
[0.75 0 0 0.75 254.40001 304.50001] CT
0.149 GC
/Helvetica 13 F
GS
[1 0 0 1 0 0] CT
-10.5 13 moveto 
1 -1 scale
(0.6) t 
GR
GR
GS
[0.75 0 0 0.75 320.7 304.50001] CT
0.149 GC
/Helvetica 13 F
GS
[1 0 0 1 0 0] CT
-10.5 13 moveto 
1 -1 scale
(0.8) t 
GR
GR
GS
[0.75 0 0 0.75 387 304.50001] CT
0.149 GC
/Helvetica 13 F
GS
[1 0 0 1 0 0] CT
-4.5 13 moveto 
1 -1 scale
(1) t 
GR
GR
GS
[0.75 0 0 0.75 0 0.5] CT
0.149 GC
2 setlinecap
1 LJ
0.667 LW
N
74 400 M
74 34 L
S
GR
GS
[0.75 0 0 0.75 0 0.5] CT
0.149 GC
2 setlinecap
1 LJ
0.667 LW
N
516 400 M
516 34 L
S
GR
GS
[0.75 0 0 0.75 0 0.5] CT
0.149 GC
2 setlinecap
1 LJ
0.667 LW
N
74 400 M
78.42 400 L
S
GR
GS
[0.75 0 0 0.75 0 0.5] CT
0.149 GC
2 setlinecap
1 LJ
0.667 LW
N
74 363.4 M
78.42 363.4 L
S
GR
GS
[0.75 0 0 0.75 0 0.5] CT
0.149 GC
2 setlinecap
1 LJ
0.667 LW
N
74 326.8 M
78.42 326.8 L
S
GR
GS
[0.75 0 0 0.75 0 0.5] CT
0.149 GC
2 setlinecap
1 LJ
0.667 LW
N
74 290.2 M
78.42 290.2 L
S
GR
GS
[0.75 0 0 0.75 0 0.5] CT
0.149 GC
2 setlinecap
1 LJ
0.667 LW
N
74 253.6 M
78.42 253.6 L
S
GR
GS
[0.75 0 0 0.75 0 0.5] CT
0.149 GC
2 setlinecap
1 LJ
0.667 LW
N
74 217 M
78.42 217 L
S
GR
GS
[0.75 0 0 0.75 0 0.5] CT
0.149 GC
2 setlinecap
1 LJ
0.667 LW
N
74 180.4 M
78.42 180.4 L
S
GR
GS
[0.75 0 0 0.75 0 0.5] CT
0.149 GC
2 setlinecap
1 LJ
0.667 LW
N
74 143.8 M
78.42 143.8 L
S
GR
GS
[0.75 0 0 0.75 0 0.5] CT
0.149 GC
2 setlinecap
1 LJ
0.667 LW
N
74 107.2 M
78.42 107.2 L
S
GR
GS
[0.75 0 0 0.75 0 0.5] CT
0.149 GC
2 setlinecap
1 LJ
0.667 LW
N
74 70.6 M
78.42 70.6 L
S
GR
GS
[0.75 0 0 0.75 0 0.5] CT
0.149 GC
2 setlinecap
1 LJ
0.667 LW
N
74 34 M
78.42 34 L
S
GR
GS
[0.75 0 0 0.75 0 0.5] CT
0.149 GC
2 setlinecap
1 LJ
0.667 LW
N
516 400 M
511.58 400 L
S
GR
GS
[0.75 0 0 0.75 0 0.5] CT
0.149 GC
2 setlinecap
1 LJ
0.667 LW
N
516 363.4 M
511.58 363.4 L
S
GR
GS
[0.75 0 0 0.75 0 0.5] CT
0.149 GC
2 setlinecap
1 LJ
0.667 LW
N
516 326.8 M
511.58 326.8 L
S
GR
GS
[0.75 0 0 0.75 0 0.5] CT
0.149 GC
2 setlinecap
1 LJ
0.667 LW
N
516 290.2 M
511.58 290.2 L
S
GR
GS
[0.75 0 0 0.75 0 0.5] CT
0.149 GC
2 setlinecap
1 LJ
0.667 LW
N
516 253.6 M
511.58 253.6 L
S
GR
GS
[0.75 0 0 0.75 0 0.5] CT
0.149 GC
2 setlinecap
1 LJ
0.667 LW
N
516 217 M
511.58 217 L
S
GR
GS
[0.75 0 0 0.75 0 0.5] CT
0.149 GC
2 setlinecap
1 LJ
0.667 LW
N
516 180.4 M
511.58 180.4 L
S
GR
GS
[0.75 0 0 0.75 0 0.5] CT
0.149 GC
2 setlinecap
1 LJ
0.667 LW
N
516 143.8 M
511.58 143.8 L
S
GR
GS
[0.75 0 0 0.75 0 0.5] CT
0.149 GC
2 setlinecap
1 LJ
0.667 LW
N
516 107.2 M
511.58 107.2 L
S
GR
GS
[0.75 0 0 0.75 0 0.5] CT
0.149 GC
2 setlinecap
1 LJ
0.667 LW
N
516 70.6 M
511.58 70.6 L
S
GR
GS
[0.75 0 0 0.75 0 0.5] CT
0.149 GC
2 setlinecap
1 LJ
0.667 LW
N
516 34 M
511.58 34 L
S
GR
GS
[0.75 0 0 0.75 51.5 300.5] CT
0.149 GC
/Helvetica 13 F
GS
[1 0 0 1 0 0] CT
-9 4.5 moveto 
1 -1 scale
(0) t 
GR
GR
GS
[0.75 0 0 0.75 51.5 273.05] CT
0.149 GC
/Helvetica 13 F
GS
[1 0 0 1 0 0] CT
-21 4.5 moveto 
1 -1 scale
(0.1) t 
GR
GR
GS
[0.75 0 0 0.75 51.5 245.59999] CT
0.149 GC
/Helvetica 13 F
GS
[1 0 0 1 0 0] CT
-21 4.5 moveto 
1 -1 scale
(0.2) t 
GR
GR
GS
[0.75 0 0 0.75 51.5 218.14999] CT
0.149 GC
/Helvetica 13 F
GS
[1 0 0 1 0 0] CT
-21 4.5 moveto 
1 -1 scale
(0.3) t 
GR
GR
GS
[0.75 0 0 0.75 51.5 190.69999] CT
0.149 GC
/Helvetica 13 F
GS
[1 0 0 1 0 0] CT
-21 4.5 moveto 
1 -1 scale
(0.4) t 
GR
GR
GS
[0.75 0 0 0.75 51.5 163.25] CT
0.149 GC
/Helvetica 13 F
GS
[1 0 0 1 0 0] CT
-21 4.5 moveto 
1 -1 scale
(0.5) t 
GR
GR
GS
[0.75 0 0 0.75 51.5 135.8] CT
0.149 GC
/Helvetica 13 F
GS
[1 0 0 1 0 0] CT
-21 4.5 moveto 
1 -1 scale
(0.6) t 
GR
GR
GS
[0.75 0 0 0.75 51.5 108.35] CT
0.149 GC
/Helvetica 13 F
GS
[1 0 0 1 0 0] CT
-21 4.5 moveto 
1 -1 scale
(0.7) t 
GR
GR
GS
[0.75 0 0 0.75 51.5 80.9] CT
0.149 GC
/Helvetica 13 F
GS
[1 0 0 1 0 0] CT
-21 4.5 moveto 
1 -1 scale
(0.8) t 
GR
GR
GS
[0.75 0 0 0.75 51.5 53.45] CT
0.149 GC
/Helvetica 13 F
GS
[1 0 0 1 0 0] CT
-21 4.5 moveto 
1 -1 scale
(0.9) t 
GR
GR
GS
[0.75 0 0 0.75 51.5 26] CT
0.149 GC
/Helvetica 13 F
GS
[1 0 0 1 0 0] CT
-9 4.5 moveto 
1 -1 scale
(1) t 
GR
GR
GS
[0.75 0 0 0.75 0 0.5] CT
0.973 0.98 0.051 RC
N
74 400 M
74 377.125 L
101.625 377.125 L
101.625 400 L
cp
f
GR
GS
[0.75 0 0 0.75 0 0.5] CT
0.208 0.165 0.525 RC
N
74 377.125 M
74 354.25 L
101.625 354.25 L
101.625 377.125 L
cp
f
GR
GS
[0.75 0 0 0.75 0 0.5] CT
0.208 0.165 0.525 RC
N
74 354.25 M
74 331.375 L
101.625 331.375 L
101.625 354.25 L
cp
f
GR
GS
[0.75 0 0 0.75 0 0.5] CT
0.208 0.165 0.525 RC
N
74 331.375 M
74 308.5 L
101.625 308.5 L
101.625 331.375 L
cp
f
GR
GS
[0.75 0 0 0.75 0 0.5] CT
0.208 0.165 0.525 RC
N
74 308.5 M
74 285.625 L
101.625 285.625 L
101.625 308.5 L
cp
f
GR
GS
[0.75 0 0 0.75 0 0.5] CT
0.208 0.165 0.525 RC
N
74 285.625 M
74 262.75 L
101.625 262.75 L
101.625 285.625 L
cp
f
GR
GS
[0.75 0 0 0.75 0 0.5] CT
0.208 0.165 0.525 RC
N
74 262.75 M
74 239.875 L
101.625 239.875 L
101.625 262.75 L
cp
f
GR
GS
[0.75 0 0 0.75 0 0.5] CT
0.208 0.165 0.525 RC
N
74 239.875 M
74 217 L
101.625 217 L
101.625 239.875 L
cp
f
GR
GS
[0.75 0 0 0.75 0 0.5] CT
0.208 0.165 0.525 RC
N
74 217 M
74 194.125 L
101.625 194.125 L
101.625 217 L
cp
f
GR
GS
[0.75 0 0 0.75 0 0.5] CT
0.208 0.165 0.525 RC
N
74 194.125 M
74 171.25 L
101.625 171.25 L
101.625 194.125 L
cp
f
GR
GS
[0.75 0 0 0.75 0 0.5] CT
0.208 0.165 0.525 RC
N
74 171.25 M
74 148.375 L
101.625 148.375 L
101.625 171.25 L
cp
f
GR
GS
[0.75 0 0 0.75 0 0.5] CT
0.208 0.165 0.525 RC
N
74 148.375 M
74 125.5 L
101.625 125.5 L
101.625 148.375 L
cp
f
GR
GS
[0.75 0 0 0.75 0 0.5] CT
0.208 0.165 0.525 RC
N
74 125.5 M
74 102.625 L
101.625 102.625 L
101.625 125.5 L
cp
f
GR
GS
[0.75 0 0 0.75 0 0.5] CT
0.208 0.165 0.525 RC
N
74 102.625 M
74 79.75 L
101.625 79.75 L
101.625 102.625 L
cp
f
GR
GS
[0.75 0 0 0.75 0 0.5] CT
0.208 0.165 0.525 RC
N
74 79.75 M
74 56.875 L
101.625 56.875 L
101.625 79.75 L
cp
f
GR
GS
[0.75 0 0 0.75 0 0.5] CT
0.973 0.98 0.051 RC
N
74 56.875 M
74 34 L
101.625 34 L
101.625 56.875 L
cp
f
GR
GS
[0.75 0 0 0.75 0 0.5] CT
0.208 0.165 0.525 RC
N
101.625 400 M
101.625 377.125 L
129.25 377.125 L
129.25 400 L
cp
f
GR
GS
[0.75 0 0 0.75 0 0.5] CT
0.208 0.165 0.525 RC
N
101.625 377.125 M
101.625 354.25 L
129.25 354.25 L
129.25 377.125 L
cp
f
GR
GS
[0.75 0 0 0.75 0 0.5] CT
0.208 0.165 0.525 RC
N
101.625 354.25 M
101.625 331.375 L
129.25 331.375 L
129.25 354.25 L
cp
f
GR
GS
[0.75 0 0 0.75 0 0.5] CT
0.208 0.165 0.525 RC
N
101.625 331.375 M
101.625 308.5 L
129.25 308.5 L
129.25 331.375 L
cp
f
GR
GS
[0.75 0 0 0.75 0 0.5] CT
0.208 0.165 0.525 RC
N
101.625 308.5 M
101.625 285.625 L
129.25 285.625 L
129.25 308.5 L
cp
f
GR
GS
[0.75 0 0 0.75 0 0.5] CT
0.208 0.165 0.525 RC
N
101.625 285.625 M
101.625 262.75 L
129.25 262.75 L
129.25 285.625 L
cp
f
GR
GS
[0.75 0 0 0.75 0 0.5] CT
0.208 0.165 0.525 RC
N
101.625 262.75 M
101.625 239.875 L
129.25 239.875 L
129.25 262.75 L
cp
f
GR
GS
[0.75 0 0 0.75 0 0.5] CT
0.208 0.165 0.525 RC
N
101.625 239.875 M
101.625 217 L
129.25 217 L
129.25 239.875 L
cp
f
GR
GS
[0.75 0 0 0.75 0 0.5] CT
0.208 0.165 0.525 RC
N
101.625 217 M
101.625 194.125 L
129.25 194.125 L
129.25 217 L
cp
f
GR
GS
[0.75 0 0 0.75 0 0.5] CT
0.208 0.165 0.525 RC
N
101.625 194.125 M
101.625 171.25 L
129.25 171.25 L
129.25 194.125 L
cp
f
GR
GS
[0.75 0 0 0.75 0 0.5] CT
0.208 0.165 0.525 RC
N
101.625 171.25 M
101.625 148.375 L
129.25 148.375 L
129.25 171.25 L
cp
f
GR
GS
[0.75 0 0 0.75 0 0.5] CT
0.208 0.165 0.525 RC
N
101.625 148.375 M
101.625 125.5 L
129.25 125.5 L
129.25 148.375 L
cp
f
GR
GS
[0.75 0 0 0.75 0 0.5] CT
0.208 0.165 0.525 RC
N
101.625 125.5 M
101.625 102.625 L
129.25 102.625 L
129.25 125.5 L
cp
f
GR
GS
[0.75 0 0 0.75 0 0.5] CT
0.208 0.165 0.525 RC
N
101.625 102.625 M
101.625 79.75 L
129.25 79.75 L
129.25 102.625 L
cp
f
GR
GS
[0.75 0 0 0.75 0 0.5] CT
0.208 0.165 0.525 RC
N
101.625 79.75 M
101.625 56.875 L
129.25 56.875 L
129.25 79.75 L
cp
f
GR
GS
[0.75 0 0 0.75 0 0.5] CT
0.208 0.165 0.525 RC
N
101.625 56.875 M
101.625 34 L
129.25 34 L
129.25 56.875 L
cp
f
GR
GS
[0.75 0 0 0.75 0 0.5] CT
0.208 0.165 0.525 RC
N
129.25 400 M
129.25 377.125 L
156.875 377.125 L
156.875 400 L
cp
f
GR
GS
[0.75 0 0 0.75 0 0.5] CT
0.208 0.165 0.525 RC
N
129.25 377.125 M
129.25 354.25 L
156.875 354.25 L
156.875 377.125 L
cp
f
GR
GS
[0.75 0 0 0.75 0 0.5] CT
0.208 0.165 0.525 RC
N
129.25 354.25 M
129.25 331.375 L
156.875 331.375 L
156.875 354.25 L
cp
f
GR
GS
[0.75 0 0 0.75 0 0.5] CT
0.208 0.165 0.525 RC
N
129.25 331.375 M
129.25 308.5 L
156.875 308.5 L
156.875 331.375 L
cp
f
GR
GS
[0.75 0 0 0.75 0 0.5] CT
0.208 0.165 0.525 RC
N
129.25 308.5 M
129.25 285.625 L
156.875 285.625 L
156.875 308.5 L
cp
f
GR
GS
[0.75 0 0 0.75 0 0.5] CT
0.208 0.165 0.525 RC
N
129.25 285.625 M
129.25 262.75 L
156.875 262.75 L
156.875 285.625 L
cp
f
GR
GS
[0.75 0 0 0.75 0 0.5] CT
0.208 0.165 0.525 RC
N
129.25 262.75 M
129.25 239.875 L
156.875 239.875 L
156.875 262.75 L
cp
f
GR
GS
[0.75 0 0 0.75 0 0.5] CT
0.208 0.165 0.525 RC
N
129.25 239.875 M
129.25 217 L
156.875 217 L
156.875 239.875 L
cp
f
GR
GS
[0.75 0 0 0.75 0 0.5] CT
0.208 0.165 0.525 RC
N
129.25 217 M
129.25 194.125 L
156.875 194.125 L
156.875 217 L
cp
f
GR
GS
[0.75 0 0 0.75 0 0.5] CT
0.208 0.165 0.525 RC
N
129.25 194.125 M
129.25 171.25 L
156.875 171.25 L
156.875 194.125 L
cp
f
GR
GS
[0.75 0 0 0.75 0 0.5] CT
0.208 0.165 0.525 RC
N
129.25 171.25 M
129.25 148.375 L
156.875 148.375 L
156.875 171.25 L
cp
f
GR
GS
[0.75 0 0 0.75 0 0.5] CT
0.208 0.165 0.525 RC
N
129.25 148.375 M
129.25 125.5 L
156.875 125.5 L
156.875 148.375 L
cp
f
GR
GS
[0.75 0 0 0.75 0 0.5] CT
0.208 0.165 0.525 RC
N
129.25 125.5 M
129.25 102.625 L
156.875 102.625 L
156.875 125.5 L
cp
f
GR
GS
[0.75 0 0 0.75 0 0.5] CT
0.208 0.165 0.525 RC
N
129.25 102.625 M
129.25 79.75 L
156.875 79.75 L
156.875 102.625 L
cp
f
GR
GS
[0.75 0 0 0.75 0 0.5] CT
0.208 0.165 0.525 RC
N
129.25 79.75 M
129.25 56.875 L
156.875 56.875 L
156.875 79.75 L
cp
f
GR
GS
[0.75 0 0 0.75 0 0.5] CT
0.208 0.165 0.525 RC
N
129.25 56.875 M
129.25 34 L
156.875 34 L
156.875 56.875 L
cp
f
GR
GS
[0.75 0 0 0.75 0 0.5] CT
0.208 0.165 0.525 RC
N
156.875 400 M
156.875 377.125 L
184.5 377.125 L
184.5 400 L
cp
f
GR
GS
[0.75 0 0 0.75 0 0.5] CT
0.208 0.165 0.525 RC
N
156.875 377.125 M
156.875 354.25 L
184.5 354.25 L
184.5 377.125 L
cp
f
GR
GS
[0.75 0 0 0.75 0 0.5] CT
0.208 0.165 0.525 RC
N
156.875 354.25 M
156.875 331.375 L
184.5 331.375 L
184.5 354.25 L
cp
f
GR
GS
[0.75 0 0 0.75 0 0.5] CT
0.208 0.165 0.525 RC
N
156.875 331.375 M
156.875 308.5 L
184.5 308.5 L
184.5 331.375 L
cp
f
GR
GS
[0.75 0 0 0.75 0 0.5] CT
0.208 0.165 0.525 RC
N
156.875 308.5 M
156.875 285.625 L
184.5 285.625 L
184.5 308.5 L
cp
f
GR
GS
[0.75 0 0 0.75 0 0.5] CT
0.208 0.165 0.525 RC
N
156.875 285.625 M
156.875 262.75 L
184.5 262.75 L
184.5 285.625 L
cp
f
GR
GS
[0.75 0 0 0.75 0 0.5] CT
0.208 0.165 0.525 RC
N
156.875 262.75 M
156.875 239.875 L
184.5 239.875 L
184.5 262.75 L
cp
f
GR
GS
[0.75 0 0 0.75 0 0.5] CT
0.208 0.165 0.525 RC
N
156.875 239.875 M
156.875 217 L
184.5 217 L
184.5 239.875 L
cp
f
GR
GS
[0.75 0 0 0.75 0 0.5] CT
0.208 0.165 0.525 RC
N
156.875 217 M
156.875 194.125 L
184.5 194.125 L
184.5 217 L
cp
f
GR
GS
[0.75 0 0 0.75 0 0.5] CT
0.208 0.165 0.525 RC
N
156.875 194.125 M
156.875 171.25 L
184.5 171.25 L
184.5 194.125 L
cp
f
GR
GS
[0.75 0 0 0.75 0 0.5] CT
0.208 0.165 0.525 RC
N
156.875 171.25 M
156.875 148.375 L
184.5 148.375 L
184.5 171.25 L
cp
f
GR
GS
[0.75 0 0 0.75 0 0.5] CT
0.208 0.165 0.525 RC
N
156.875 148.375 M
156.875 125.5 L
184.5 125.5 L
184.5 148.375 L
cp
f
GR
GS
[0.75 0 0 0.75 0 0.5] CT
0.208 0.165 0.525 RC
N
156.875 125.5 M
156.875 102.625 L
184.5 102.625 L
184.5 125.5 L
cp
f
GR
GS
[0.75 0 0 0.75 0 0.5] CT
0.208 0.165 0.525 RC
N
156.875 102.625 M
156.875 79.75 L
184.5 79.75 L
184.5 102.625 L
cp
f
GR
GS
[0.75 0 0 0.75 0 0.5] CT
0.208 0.165 0.525 RC
N
156.875 79.75 M
156.875 56.875 L
184.5 56.875 L
184.5 79.75 L
cp
f
GR
GS
[0.75 0 0 0.75 0 0.5] CT
0.208 0.165 0.525 RC
N
156.875 56.875 M
156.875 34 L
184.5 34 L
184.5 56.875 L
cp
f
GR
GS
[0.75 0 0 0.75 0 0.5] CT
0.208 0.165 0.525 RC
N
184.5 400 M
184.5 377.125 L
212.125 377.125 L
212.125 400 L
cp
f
GR
GS
[0.75 0 0 0.75 0 0.5] CT
0.208 0.165 0.525 RC
N
184.5 377.125 M
184.5 354.25 L
212.125 354.25 L
212.125 377.125 L
cp
f
GR
GS
[0.75 0 0 0.75 0 0.5] CT
0.208 0.165 0.525 RC
N
184.5 354.25 M
184.5 331.375 L
212.125 331.375 L
212.125 354.25 L
cp
f
GR
GS
[0.75 0 0 0.75 0 0.5] CT
0.208 0.165 0.525 RC
N
184.5 331.375 M
184.5 308.5 L
212.125 308.5 L
212.125 331.375 L
cp
f
GR
GS
[0.75 0 0 0.75 0 0.5] CT
0.208 0.165 0.525 RC
N
184.5 308.5 M
184.5 285.625 L
212.125 285.625 L
212.125 308.5 L
cp
f
GR
GS
[0.75 0 0 0.75 0 0.5] CT
0.208 0.165 0.525 RC
N
184.5 285.625 M
184.5 262.75 L
212.125 262.75 L
212.125 285.625 L
cp
f
GR
GS
[0.75 0 0 0.75 0 0.5] CT
0.973 0.98 0.051 RC
N
184.5 262.75 M
184.5 239.875 L
212.125 239.875 L
212.125 262.75 L
cp
f
GR
GS
[0.75 0 0 0.75 0 0.5] CT
0.208 0.165 0.525 RC
N
184.5 239.875 M
184.5 217 L
212.125 217 L
212.125 239.875 L
cp
f
GR
GS
[0.75 0 0 0.75 0 0.5] CT
0.208 0.165 0.525 RC
N
184.5 217 M
184.5 194.125 L
212.125 194.125 L
212.125 217 L
cp
f
GR
GS
[0.75 0 0 0.75 0 0.5] CT
0.208 0.165 0.525 RC
N
184.5 194.125 M
184.5 171.25 L
212.125 171.25 L
212.125 194.125 L
cp
f
GR
GS
[0.75 0 0 0.75 0 0.5] CT
0.208 0.165 0.525 RC
N
184.5 171.25 M
184.5 148.375 L
212.125 148.375 L
212.125 171.25 L
cp
f
GR
GS
[0.75 0 0 0.75 0 0.5] CT
0.208 0.165 0.525 RC
N
184.5 148.375 M
184.5 125.5 L
212.125 125.5 L
212.125 148.375 L
cp
f
GR
GS
[0.75 0 0 0.75 0 0.5] CT
0.208 0.165 0.525 RC
N
184.5 125.5 M
184.5 102.625 L
212.125 102.625 L
212.125 125.5 L
cp
f
GR
GS
[0.75 0 0 0.75 0 0.5] CT
0.208 0.165 0.525 RC
N
184.5 102.625 M
184.5 79.75 L
212.125 79.75 L
212.125 102.625 L
cp
f
GR
GS
[0.75 0 0 0.75 0 0.5] CT
0.208 0.165 0.525 RC
N
184.5 79.75 M
184.5 56.875 L
212.125 56.875 L
212.125 79.75 L
cp
f
GR
GS
[0.75 0 0 0.75 0 0.5] CT
0.973 0.98 0.051 RC
N
184.5 56.875 M
184.5 34 L
212.125 34 L
212.125 56.875 L
cp
f
GR
GS
[0.75 0 0 0.75 0 0.5] CT
0.973 0.98 0.051 RC
N
212.125 400 M
212.125 377.125 L
239.75 377.125 L
239.75 400 L
cp
f
GR
GS
[0.75 0 0 0.75 0 0.5] CT
0.973 0.98 0.051 RC
N
212.125 377.125 M
212.125 354.25 L
239.75 354.25 L
239.75 377.125 L
cp
f
GR
GS
[0.75 0 0 0.75 0 0.5] CT
0.973 0.98 0.051 RC
N
212.125 354.25 M
212.125 331.375 L
239.75 331.375 L
239.75 354.25 L
cp
f
GR
GS
[0.75 0 0 0.75 0 0.5] CT
0.973 0.98 0.051 RC
N
212.125 331.375 M
212.125 308.5 L
239.75 308.5 L
239.75 331.375 L
cp
f
GR
GS
[0.75 0 0 0.75 0 0.5] CT
0.973 0.98 0.051 RC
N
212.125 308.5 M
212.125 285.625 L
239.75 285.625 L
239.75 308.5 L
cp
f
GR
GS
[0.75 0 0 0.75 0 0.5] CT
0.973 0.98 0.051 RC
N
212.125 285.625 M
212.125 262.75 L
239.75 262.75 L
239.75 285.625 L
cp
f
GR
GS
[0.75 0 0 0.75 0 0.5] CT
0.973 0.98 0.051 RC
N
212.125 262.75 M
212.125 239.875 L
239.75 239.875 L
239.75 262.75 L
cp
f
GR
GS
[0.75 0 0 0.75 0 0.5] CT
0.973 0.98 0.051 RC
N
212.125 239.875 M
212.125 217 L
239.75 217 L
239.75 239.875 L
cp
f
GR
GS
[0.75 0 0 0.75 0 0.5] CT
0.973 0.98 0.051 RC
N
212.125 217 M
212.125 194.125 L
239.75 194.125 L
239.75 217 L
cp
f
GR
GS
[0.75 0 0 0.75 0 0.5] CT
0.973 0.98 0.051 RC
N
212.125 194.125 M
212.125 171.25 L
239.75 171.25 L
239.75 194.125 L
cp
f
GR
GS
[0.75 0 0 0.75 0 0.5] CT
0.973 0.98 0.051 RC
N
212.125 171.25 M
212.125 148.375 L
239.75 148.375 L
239.75 171.25 L
cp
f
GR
GS
[0.75 0 0 0.75 0 0.5] CT
0.973 0.98 0.051 RC
N
212.125 148.375 M
212.125 125.5 L
239.75 125.5 L
239.75 148.375 L
cp
f
GR
GS
[0.75 0 0 0.75 0 0.5] CT
0.973 0.98 0.051 RC
N
212.125 125.5 M
212.125 102.625 L
239.75 102.625 L
239.75 125.5 L
cp
f
GR
GS
[0.75 0 0 0.75 0 0.5] CT
0.973 0.98 0.051 RC
N
212.125 102.625 M
212.125 79.75 L
239.75 79.75 L
239.75 102.625 L
cp
f
GR
GS
[0.75 0 0 0.75 0 0.5] CT
0.973 0.98 0.051 RC
N
212.125 79.75 M
212.125 56.875 L
239.75 56.875 L
239.75 79.75 L
cp
f
GR
GS
[0.75 0 0 0.75 0 0.5] CT
0.973 0.98 0.051 RC
N
212.125 56.875 M
212.125 34 L
239.75 34 L
239.75 56.875 L
cp
f
GR
GS
[0.75 0 0 0.75 0 0.5] CT
0.208 0.165 0.525 RC
N
239.75 400 M
239.75 377.125 L
267.375 377.125 L
267.375 400 L
cp
f
GR
GS
[0.75 0 0 0.75 0 0.5] CT
0.208 0.165 0.525 RC
N
239.75 377.125 M
239.75 354.25 L
267.375 354.25 L
267.375 377.125 L
cp
f
GR
GS
[0.75 0 0 0.75 0 0.5] CT
0.208 0.165 0.525 RC
N
239.75 354.25 M
239.75 331.375 L
267.375 331.375 L
267.375 354.25 L
cp
f
GR
GS
[0.75 0 0 0.75 0 0.5] CT
0.208 0.165 0.525 RC
N
239.75 331.375 M
239.75 308.5 L
267.375 308.5 L
267.375 331.375 L
cp
f
GR
GS
[0.75 0 0 0.75 0 0.5] CT
0.208 0.165 0.525 RC
N
239.75 308.5 M
239.75 285.625 L
267.375 285.625 L
267.375 308.5 L
cp
f
GR
GS
[0.75 0 0 0.75 0 0.5] CT
0.208 0.165 0.525 RC
N
239.75 285.625 M
239.75 262.75 L
267.375 262.75 L
267.375 285.625 L
cp
f
GR
GS
[0.75 0 0 0.75 0 0.5] CT
0.973 0.98 0.051 RC
N
239.75 262.75 M
239.75 239.875 L
267.375 239.875 L
267.375 262.75 L
cp
f
GR
GS
[0.75 0 0 0.75 0 0.5] CT
0.208 0.165 0.525 RC
N
239.75 239.875 M
239.75 217 L
267.375 217 L
267.375 239.875 L
cp
f
GR
GS
[0.75 0 0 0.75 0 0.5] CT
0.208 0.165 0.525 RC
N
239.75 217 M
239.75 194.125 L
267.375 194.125 L
267.375 217 L
cp
f
GR
GS
[0.75 0 0 0.75 0 0.5] CT
0.208 0.165 0.525 RC
N
239.75 194.125 M
239.75 171.25 L
267.375 171.25 L
267.375 194.125 L
cp
f
GR
GS
[0.75 0 0 0.75 0 0.5] CT
0.208 0.165 0.525 RC
N
239.75 171.25 M
239.75 148.375 L
267.375 148.375 L
267.375 171.25 L
cp
f
GR
GS
[0.75 0 0 0.75 0 0.5] CT
0.208 0.165 0.525 RC
N
239.75 148.375 M
239.75 125.5 L
267.375 125.5 L
267.375 148.375 L
cp
f
GR
GS
[0.75 0 0 0.75 0 0.5] CT
0.208 0.165 0.525 RC
N
239.75 125.5 M
239.75 102.625 L
267.375 102.625 L
267.375 125.5 L
cp
f
GR
GS
[0.75 0 0 0.75 0 0.5] CT
0.208 0.165 0.525 RC
N
239.75 102.625 M
239.75 79.75 L
267.375 79.75 L
267.375 102.625 L
cp
f
GR
GS
[0.75 0 0 0.75 0 0.5] CT
0.208 0.165 0.525 RC
N
239.75 79.75 M
239.75 56.875 L
267.375 56.875 L
267.375 79.75 L
cp
f
GR
GS
[0.75 0 0 0.75 0 0.5] CT
0.973 0.98 0.051 RC
N
239.75 56.875 M
239.75 34 L
267.375 34 L
267.375 56.875 L
cp
f
GR
GS
[0.75 0 0 0.75 0 0.5] CT
0.208 0.165 0.525 RC
N
267.375 400 M
267.375 377.125 L
295 377.125 L
295 400 L
cp
f
GR
GS
[0.75 0 0 0.75 0 0.5] CT
0.208 0.165 0.525 RC
N
267.375 377.125 M
267.375 354.25 L
295 354.25 L
295 377.125 L
cp
f
GR
GS
[0.75 0 0 0.75 0 0.5] CT
0.208 0.165 0.525 RC
N
267.375 354.25 M
267.375 331.375 L
295 331.375 L
295 354.25 L
cp
f
GR
GS
[0.75 0 0 0.75 0 0.5] CT
0.208 0.165 0.525 RC
N
267.375 331.375 M
267.375 308.5 L
295 308.5 L
295 331.375 L
cp
f
GR
GS
[0.75 0 0 0.75 0 0.5] CT
0.208 0.165 0.525 RC
N
267.375 308.5 M
267.375 285.625 L
295 285.625 L
295 308.5 L
cp
f
GR
GS
[0.75 0 0 0.75 0 0.5] CT
0.208 0.165 0.525 RC
N
267.375 285.625 M
267.375 262.75 L
295 262.75 L
295 285.625 L
cp
f
GR
GS
[0.75 0 0 0.75 0 0.5] CT
0.973 0.98 0.051 RC
N
267.375 262.75 M
267.375 239.875 L
295 239.875 L
295 262.75 L
cp
f
GR
GS
[0.75 0 0 0.75 0 0.5] CT
0.208 0.165 0.525 RC
N
267.375 239.875 M
267.375 217 L
295 217 L
295 239.875 L
cp
f
GR
GS
[0.75 0 0 0.75 0 0.5] CT
0.208 0.165 0.525 RC
N
267.375 217 M
267.375 194.125 L
295 194.125 L
295 217 L
cp
f
GR
GS
[0.75 0 0 0.75 0 0.5] CT
0.208 0.165 0.525 RC
N
267.375 194.125 M
267.375 171.25 L
295 171.25 L
295 194.125 L
cp
f
GR
GS
[0.75 0 0 0.75 0 0.5] CT
0.208 0.165 0.525 RC
N
267.375 171.25 M
267.375 148.375 L
295 148.375 L
295 171.25 L
cp
f
GR
GS
[0.75 0 0 0.75 0 0.5] CT
0.208 0.165 0.525 RC
N
267.375 148.375 M
267.375 125.5 L
295 125.5 L
295 148.375 L
cp
f
GR
GS
[0.75 0 0 0.75 0 0.5] CT
0.208 0.165 0.525 RC
N
267.375 125.5 M
267.375 102.625 L
295 102.625 L
295 125.5 L
cp
f
GR
GS
[0.75 0 0 0.75 0 0.5] CT
0.208 0.165 0.525 RC
N
267.375 102.625 M
267.375 79.75 L
295 79.75 L
295 102.625 L
cp
f
GR
GS
[0.75 0 0 0.75 0 0.5] CT
0.208 0.165 0.525 RC
N
267.375 79.75 M
267.375 56.875 L
295 56.875 L
295 79.75 L
cp
f
GR
GS
[0.75 0 0 0.75 0 0.5] CT
0.973 0.98 0.051 RC
N
267.375 56.875 M
267.375 34 L
295 34 L
295 56.875 L
cp
f
GR
GS
[0.75 0 0 0.75 0 0.5] CT
0.208 0.165 0.525 RC
N
295 400 M
295 377.125 L
322.625 377.125 L
322.625 400 L
cp
f
GR
GS
[0.75 0 0 0.75 0 0.5] CT
0.208 0.165 0.525 RC
N
295 377.125 M
295 354.25 L
322.625 354.25 L
322.625 377.125 L
cp
f
GR
GS
[0.75 0 0 0.75 0 0.5] CT
0.208 0.165 0.525 RC
N
295 354.25 M
295 331.375 L
322.625 331.375 L
322.625 354.25 L
cp
f
GR
GS
[0.75 0 0 0.75 0 0.5] CT
0.208 0.165 0.525 RC
N
295 331.375 M
295 308.5 L
322.625 308.5 L
322.625 331.375 L
cp
f
GR
GS
[0.75 0 0 0.75 0 0.5] CT
0.208 0.165 0.525 RC
N
295 308.5 M
295 285.625 L
322.625 285.625 L
322.625 308.5 L
cp
f
GR
GS
[0.75 0 0 0.75 0 0.5] CT
0.208 0.165 0.525 RC
N
295 285.625 M
295 262.75 L
322.625 262.75 L
322.625 285.625 L
cp
f
GR
GS
[0.75 0 0 0.75 0 0.5] CT
0.973 0.98 0.051 RC
N
295 262.75 M
295 239.875 L
322.625 239.875 L
322.625 262.75 L
cp
f
GR
GS
[0.75 0 0 0.75 0 0.5] CT
0.208 0.165 0.525 RC
N
295 239.875 M
295 217 L
322.625 217 L
322.625 239.875 L
cp
f
GR
GS
[0.75 0 0 0.75 0 0.5] CT
0.208 0.165 0.525 RC
N
295 217 M
295 194.125 L
322.625 194.125 L
322.625 217 L
cp
f
GR
GS
[0.75 0 0 0.75 0 0.5] CT
0.208 0.165 0.525 RC
N
295 194.125 M
295 171.25 L
322.625 171.25 L
322.625 194.125 L
cp
f
GR
GS
[0.75 0 0 0.75 0 0.5] CT
0.208 0.165 0.525 RC
N
295 171.25 M
295 148.375 L
322.625 148.375 L
322.625 171.25 L
cp
f
GR
GS
[0.75 0 0 0.75 0 0.5] CT
0.208 0.165 0.525 RC
N
295 148.375 M
295 125.5 L
322.625 125.5 L
322.625 148.375 L
cp
f
GR
GS
[0.75 0 0 0.75 0 0.5] CT
0.208 0.165 0.525 RC
N
295 125.5 M
295 102.625 L
322.625 102.625 L
322.625 125.5 L
cp
f
GR
GS
[0.75 0 0 0.75 0 0.5] CT
0.208 0.165 0.525 RC
N
295 102.625 M
295 79.75 L
322.625 79.75 L
322.625 102.625 L
cp
f
GR
GS
[0.75 0 0 0.75 0 0.5] CT
0.208 0.165 0.525 RC
N
295 79.75 M
295 56.875 L
322.625 56.875 L
322.625 79.75 L
cp
f
GR
GS
[0.75 0 0 0.75 0 0.5] CT
0.973 0.98 0.051 RC
N
295 56.875 M
295 34 L
322.625 34 L
322.625 56.875 L
cp
f
GR
GS
[0.75 0 0 0.75 0 0.5] CT
0.208 0.165 0.525 RC
N
322.625 400 M
322.625 377.125 L
350.25 377.125 L
350.25 400 L
cp
f
GR
GS
[0.75 0 0 0.75 0 0.5] CT
0.208 0.165 0.525 RC
N
322.625 377.125 M
322.625 354.25 L
350.25 354.25 L
350.25 377.125 L
cp
f
GR
GS
[0.75 0 0 0.75 0 0.5] CT
0.208 0.165 0.525 RC
N
322.625 354.25 M
322.625 331.375 L
350.25 331.375 L
350.25 354.25 L
cp
f
GR
GS
[0.75 0 0 0.75 0 0.5] CT
0.208 0.165 0.525 RC
N
322.625 331.375 M
322.625 308.5 L
350.25 308.5 L
350.25 331.375 L
cp
f
GR
GS
[0.75 0 0 0.75 0 0.5] CT
0.208 0.165 0.525 RC
N
322.625 308.5 M
322.625 285.625 L
350.25 285.625 L
350.25 308.5 L
cp
f
GR
GS
[0.75 0 0 0.75 0 0.5] CT
0.208 0.165 0.525 RC
N
322.625 285.625 M
322.625 262.75 L
350.25 262.75 L
350.25 285.625 L
cp
f
GR
GS
[0.75 0 0 0.75 0 0.5] CT
0.973 0.98 0.051 RC
N
322.625 262.75 M
322.625 239.875 L
350.25 239.875 L
350.25 262.75 L
cp
f
GR
GS
[0.75 0 0 0.75 0 0.5] CT
0.208 0.165 0.525 RC
N
322.625 239.875 M
322.625 217 L
350.25 217 L
350.25 239.875 L
cp
f
GR
GS
[0.75 0 0 0.75 0 0.5] CT
0.208 0.165 0.525 RC
N
322.625 217 M
322.625 194.125 L
350.25 194.125 L
350.25 217 L
cp
f
GR
GS
[0.75 0 0 0.75 0 0.5] CT
0.208 0.165 0.525 RC
N
322.625 194.125 M
322.625 171.25 L
350.25 171.25 L
350.25 194.125 L
cp
f
GR
GS
[0.75 0 0 0.75 0 0.5] CT
0.208 0.165 0.525 RC
N
322.625 171.25 M
322.625 148.375 L
350.25 148.375 L
350.25 171.25 L
cp
f
GR
GS
[0.75 0 0 0.75 0 0.5] CT
0.208 0.165 0.525 RC
N
322.625 148.375 M
322.625 125.5 L
350.25 125.5 L
350.25 148.375 L
cp
f
GR
GS
[0.75 0 0 0.75 0 0.5] CT
0.208 0.165 0.525 RC
N
322.625 125.5 M
322.625 102.625 L
350.25 102.625 L
350.25 125.5 L
cp
f
GR
GS
[0.75 0 0 0.75 0 0.5] CT
0.208 0.165 0.525 RC
N
322.625 102.625 M
322.625 79.75 L
350.25 79.75 L
350.25 102.625 L
cp
f
GR
GS
[0.75 0 0 0.75 0 0.5] CT
0.208 0.165 0.525 RC
N
322.625 79.75 M
322.625 56.875 L
350.25 56.875 L
350.25 79.75 L
cp
f
GR
GS
[0.75 0 0 0.75 0 0.5] CT
0.973 0.98 0.051 RC
N
322.625 56.875 M
322.625 34 L
350.25 34 L
350.25 56.875 L
cp
f
GR
GS
[0.75 0 0 0.75 0 0.5] CT
0.208 0.165 0.525 RC
N
350.25 400 M
350.25 377.125 L
377.875 377.125 L
377.875 400 L
cp
f
GR
GS
[0.75 0 0 0.75 0 0.5] CT
0.208 0.165 0.525 RC
N
350.25 377.125 M
350.25 354.25 L
377.875 354.25 L
377.875 377.125 L
cp
f
GR
GS
[0.75 0 0 0.75 0 0.5] CT
0.208 0.165 0.525 RC
N
350.25 354.25 M
350.25 331.375 L
377.875 331.375 L
377.875 354.25 L
cp
f
GR
GS
[0.75 0 0 0.75 0 0.5] CT
0.208 0.165 0.525 RC
N
350.25 331.375 M
350.25 308.5 L
377.875 308.5 L
377.875 331.375 L
cp
f
GR
GS
[0.75 0 0 0.75 0 0.5] CT
0.208 0.165 0.525 RC
N
350.25 308.5 M
350.25 285.625 L
377.875 285.625 L
377.875 308.5 L
cp
f
GR
GS
[0.75 0 0 0.75 0 0.5] CT
0.208 0.165 0.525 RC
N
350.25 285.625 M
350.25 262.75 L
377.875 262.75 L
377.875 285.625 L
cp
f
GR
GS
[0.75 0 0 0.75 0 0.5] CT
0.973 0.98 0.051 RC
N
350.25 262.75 M
350.25 239.875 L
377.875 239.875 L
377.875 262.75 L
cp
f
GR
GS
[0.75 0 0 0.75 0 0.5] CT
0.973 0.98 0.051 RC
N
350.25 239.875 M
350.25 217 L
377.875 217 L
377.875 239.875 L
cp
f
GR
GS
[0.75 0 0 0.75 0 0.5] CT
0.208 0.165 0.525 RC
N
350.25 217 M
350.25 194.125 L
377.875 194.125 L
377.875 217 L
cp
f
GR
GS
[0.75 0 0 0.75 0 0.5] CT
0.208 0.165 0.525 RC
N
350.25 194.125 M
350.25 171.25 L
377.875 171.25 L
377.875 194.125 L
cp
f
GR
GS
[0.75 0 0 0.75 0 0.5] CT
0.208 0.165 0.525 RC
N
350.25 171.25 M
350.25 148.375 L
377.875 148.375 L
377.875 171.25 L
cp
f
GR
GS
[0.75 0 0 0.75 0 0.5] CT
0.208 0.165 0.525 RC
N
350.25 148.375 M
350.25 125.5 L
377.875 125.5 L
377.875 148.375 L
cp
f
GR
GS
[0.75 0 0 0.75 0 0.5] CT
0.208 0.165 0.525 RC
N
350.25 125.5 M
350.25 102.625 L
377.875 102.625 L
377.875 125.5 L
cp
f
GR
GS
[0.75 0 0 0.75 0 0.5] CT
0.208 0.165 0.525 RC
N
350.25 102.625 M
350.25 79.75 L
377.875 79.75 L
377.875 102.625 L
cp
f
GR
GS
[0.75 0 0 0.75 0 0.5] CT
0.208 0.165 0.525 RC
N
350.25 79.75 M
350.25 56.875 L
377.875 56.875 L
377.875 79.75 L
cp
f
GR
GS
[0.75 0 0 0.75 0 0.5] CT
0.973 0.98 0.051 RC
N
350.25 56.875 M
350.25 34 L
377.875 34 L
377.875 56.875 L
cp
f
GR
GS
[0.75 0 0 0.75 0 0.5] CT
0.208 0.165 0.525 RC
N
377.875 400 M
377.875 377.125 L
405.5 377.125 L
405.5 400 L
cp
f
GR
GS
[0.75 0 0 0.75 0 0.5] CT
0.208 0.165 0.525 RC
N
377.875 377.125 M
377.875 354.25 L
405.5 354.25 L
405.5 377.125 L
cp
f
GR
GS
[0.75 0 0 0.75 0 0.5] CT
0.208 0.165 0.525 RC
N
377.875 354.25 M
377.875 331.375 L
405.5 331.375 L
405.5 354.25 L
cp
f
GR
GS
[0.75 0 0 0.75 0 0.5] CT
0.208 0.165 0.525 RC
N
377.875 331.375 M
377.875 308.5 L
405.5 308.5 L
405.5 331.375 L
cp
f
GR
GS
[0.75 0 0 0.75 0 0.5] CT
0.208 0.165 0.525 RC
N
377.875 308.5 M
377.875 285.625 L
405.5 285.625 L
405.5 308.5 L
cp
f
GR
GS
[0.75 0 0 0.75 0 0.5] CT
0.208 0.165 0.525 RC
N
377.875 285.625 M
377.875 262.75 L
405.5 262.75 L
405.5 285.625 L
cp
f
GR
GS
[0.75 0 0 0.75 0 0.5] CT
0.208 0.165 0.525 RC
N
377.875 262.75 M
377.875 239.875 L
405.5 239.875 L
405.5 262.75 L
cp
f
GR
GS
[0.75 0 0 0.75 0 0.5] CT
0.973 0.98 0.051 RC
N
377.875 239.875 M
377.875 217 L
405.5 217 L
405.5 239.875 L
cp
f
GR
GS
[0.75 0 0 0.75 0 0.5] CT
0.208 0.165 0.525 RC
N
377.875 217 M
377.875 194.125 L
405.5 194.125 L
405.5 217 L
cp
f
GR
GS
[0.75 0 0 0.75 0 0.5] CT
0.208 0.165 0.525 RC
N
377.875 194.125 M
377.875 171.25 L
405.5 171.25 L
405.5 194.125 L
cp
f
GR
GS
[0.75 0 0 0.75 0 0.5] CT
0.208 0.165 0.525 RC
N
377.875 171.25 M
377.875 148.375 L
405.5 148.375 L
405.5 171.25 L
cp
f
GR
GS
[0.75 0 0 0.75 0 0.5] CT
0.208 0.165 0.525 RC
N
377.875 148.375 M
377.875 125.5 L
405.5 125.5 L
405.5 148.375 L
cp
f
GR
GS
[0.75 0 0 0.75 0 0.5] CT
0.208 0.165 0.525 RC
N
377.875 125.5 M
377.875 102.625 L
405.5 102.625 L
405.5 125.5 L
cp
f
GR
GS
[0.75 0 0 0.75 0 0.5] CT
0.208 0.165 0.525 RC
N
377.875 102.625 M
377.875 79.75 L
405.5 79.75 L
405.5 102.625 L
cp
f
GR
GS
[0.75 0 0 0.75 0 0.5] CT
0.208 0.165 0.525 RC
N
377.875 79.75 M
377.875 56.875 L
405.5 56.875 L
405.5 79.75 L
cp
f
GR
GS
[0.75 0 0 0.75 0 0.5] CT
0.973 0.98 0.051 RC
N
377.875 56.875 M
377.875 34 L
405.5 34 L
405.5 56.875 L
cp
f
GR
GS
[0.75 0 0 0.75 0 0.5] CT
0.208 0.165 0.525 RC
N
405.5 400 M
405.5 377.125 L
433.125 377.125 L
433.125 400 L
cp
f
GR
GS
[0.75 0 0 0.75 0 0.5] CT
0.208 0.165 0.525 RC
N
405.5 377.125 M
405.5 354.25 L
433.125 354.25 L
433.125 377.125 L
cp
f
GR
GS
[0.75 0 0 0.75 0 0.5] CT
0.208 0.165 0.525 RC
N
405.5 354.25 M
405.5 331.375 L
433.125 331.375 L
433.125 354.25 L
cp
f
GR
GS
[0.75 0 0 0.75 0 0.5] CT
0.208 0.165 0.525 RC
N
405.5 331.375 M
405.5 308.5 L
433.125 308.5 L
433.125 331.375 L
cp
f
GR
GS
[0.75 0 0 0.75 0 0.5] CT
0.208 0.165 0.525 RC
N
405.5 308.5 M
405.5 285.625 L
433.125 285.625 L
433.125 308.5 L
cp
f
GR
GS
[0.75 0 0 0.75 0 0.5] CT
0.208 0.165 0.525 RC
N
405.5 285.625 M
405.5 262.75 L
433.125 262.75 L
433.125 285.625 L
cp
f
GR
GS
[0.75 0 0 0.75 0 0.5] CT
0.208 0.165 0.525 RC
N
405.5 262.75 M
405.5 239.875 L
433.125 239.875 L
433.125 262.75 L
cp
f
GR
GS
[0.75 0 0 0.75 0 0.5] CT
0.973 0.98 0.051 RC
N
405.5 239.875 M
405.5 217 L
433.125 217 L
433.125 239.875 L
cp
f
GR
GS
[0.75 0 0 0.75 0 0.5] CT
0.208 0.165 0.525 RC
N
405.5 217 M
405.5 194.125 L
433.125 194.125 L
433.125 217 L
cp
f
GR
GS
[0.75 0 0 0.75 0 0.5] CT
0.208 0.165 0.525 RC
N
405.5 194.125 M
405.5 171.25 L
433.125 171.25 L
433.125 194.125 L
cp
f
GR
GS
[0.75 0 0 0.75 0 0.5] CT
0.208 0.165 0.525 RC
N
405.5 171.25 M
405.5 148.375 L
433.125 148.375 L
433.125 171.25 L
cp
f
GR
GS
[0.75 0 0 0.75 0 0.5] CT
0.208 0.165 0.525 RC
N
405.5 148.375 M
405.5 125.5 L
433.125 125.5 L
433.125 148.375 L
cp
f
GR
GS
[0.75 0 0 0.75 0 0.5] CT
0.208 0.165 0.525 RC
N
405.5 125.5 M
405.5 102.625 L
433.125 102.625 L
433.125 125.5 L
cp
f
GR
GS
[0.75 0 0 0.75 0 0.5] CT
0.208 0.165 0.525 RC
N
405.5 102.625 M
405.5 79.75 L
433.125 79.75 L
433.125 102.625 L
cp
f
GR
GS
[0.75 0 0 0.75 0 0.5] CT
0.973 0.98 0.051 RC
N
405.5 79.75 M
405.5 56.875 L
433.125 56.875 L
433.125 79.75 L
cp
f
GR
GS
[0.75 0 0 0.75 0 0.5] CT
0.973 0.98 0.051 RC
N
405.5 56.875 M
405.5 34 L
433.125 34 L
433.125 56.875 L
cp
f
GR
GS
[0.75 0 0 0.75 0 0.5] CT
0.208 0.165 0.525 RC
N
433.125 400 M
433.125 377.125 L
460.75 377.125 L
460.75 400 L
cp
f
GR
GS
[0.75 0 0 0.75 0 0.5] CT
0.208 0.165 0.525 RC
N
433.125 377.125 M
433.125 354.25 L
460.75 354.25 L
460.75 377.125 L
cp
f
GR
GS
[0.75 0 0 0.75 0 0.5] CT
0.208 0.165 0.525 RC
N
433.125 354.25 M
433.125 331.375 L
460.75 331.375 L
460.75 354.25 L
cp
f
GR
GS
[0.75 0 0 0.75 0 0.5] CT
0.208 0.165 0.525 RC
N
433.125 331.375 M
433.125 308.5 L
460.75 308.5 L
460.75 331.375 L
cp
f
GR
GS
[0.75 0 0 0.75 0 0.5] CT
0.208 0.165 0.525 RC
N
433.125 308.5 M
433.125 285.625 L
460.75 285.625 L
460.75 308.5 L
cp
f
GR
GS
[0.75 0 0 0.75 0 0.5] CT
0.208 0.165 0.525 RC
N
433.125 285.625 M
433.125 262.75 L
460.75 262.75 L
460.75 285.625 L
cp
f
GR
GS
[0.75 0 0 0.75 0 0.5] CT
0.208 0.165 0.525 RC
N
433.125 262.75 M
433.125 239.875 L
460.75 239.875 L
460.75 262.75 L
cp
f
GR
GS
[0.75 0 0 0.75 0 0.5] CT
0.973 0.98 0.051 RC
N
433.125 239.875 M
433.125 217 L
460.75 217 L
460.75 239.875 L
cp
f
GR
GS
[0.75 0 0 0.75 0 0.5] CT
0.973 0.98 0.051 RC
N
433.125 217 M
433.125 194.125 L
460.75 194.125 L
460.75 217 L
cp
f
GR
GS
[0.75 0 0 0.75 0 0.5] CT
0.208 0.165 0.525 RC
N
433.125 194.125 M
433.125 171.25 L
460.75 171.25 L
460.75 194.125 L
cp
f
GR
GS
[0.75 0 0 0.75 0 0.5] CT
0.208 0.165 0.525 RC
N
433.125 171.25 M
433.125 148.375 L
460.75 148.375 L
460.75 171.25 L
cp
f
GR
GS
[0.75 0 0 0.75 0 0.5] CT
0.208 0.165 0.525 RC
N
433.125 148.375 M
433.125 125.5 L
460.75 125.5 L
460.75 148.375 L
cp
f
GR
GS
[0.75 0 0 0.75 0 0.5] CT
0.208 0.165 0.525 RC
N
433.125 125.5 M
433.125 102.625 L
460.75 102.625 L
460.75 125.5 L
cp
f
GR
GS
[0.75 0 0 0.75 0 0.5] CT
0.973 0.98 0.051 RC
N
433.125 102.625 M
433.125 79.75 L
460.75 79.75 L
460.75 102.625 L
cp
f
GR
GS
[0.75 0 0 0.75 0 0.5] CT
0.973 0.98 0.051 RC
N
433.125 79.75 M
433.125 56.875 L
460.75 56.875 L
460.75 79.75 L
cp
f
GR
GS
[0.75 0 0 0.75 0 0.5] CT
0.208 0.165 0.525 RC
N
433.125 56.875 M
433.125 34 L
460.75 34 L
460.75 56.875 L
cp
f
GR
GS
[0.75 0 0 0.75 0 0.5] CT
0.208 0.165 0.525 RC
N
460.75 400 M
460.75 377.125 L
488.375 377.125 L
488.375 400 L
cp
f
GR
GS
[0.75 0 0 0.75 0 0.5] CT
0.208 0.165 0.525 RC
N
460.75 377.125 M
460.75 354.25 L
488.375 354.25 L
488.375 377.125 L
cp
f
GR
GS
[0.75 0 0 0.75 0 0.5] CT
0.208 0.165 0.525 RC
N
460.75 354.25 M
460.75 331.375 L
488.375 331.375 L
488.375 354.25 L
cp
f
GR
GS
[0.75 0 0 0.75 0 0.5] CT
0.208 0.165 0.525 RC
N
460.75 331.375 M
460.75 308.5 L
488.375 308.5 L
488.375 331.375 L
cp
f
GR
GS
[0.75 0 0 0.75 0 0.5] CT
0.208 0.165 0.525 RC
N
460.75 308.5 M
460.75 285.625 L
488.375 285.625 L
488.375 308.5 L
cp
f
GR
GS
[0.75 0 0 0.75 0 0.5] CT
0.208 0.165 0.525 RC
N
460.75 285.625 M
460.75 262.75 L
488.375 262.75 L
488.375 285.625 L
cp
f
GR
GS
[0.75 0 0 0.75 0 0.5] CT
0.208 0.165 0.525 RC
N
460.75 262.75 M
460.75 239.875 L
488.375 239.875 L
488.375 262.75 L
cp
f
GR
GS
[0.75 0 0 0.75 0 0.5] CT
0.208 0.165 0.525 RC
N
460.75 239.875 M
460.75 217 L
488.375 217 L
488.375 239.875 L
cp
f
GR
GS
[0.75 0 0 0.75 0 0.5] CT
0.973 0.98 0.051 RC
N
460.75 217 M
460.75 194.125 L
488.375 194.125 L
488.375 217 L
cp
f
GR
GS
[0.75 0 0 0.75 0 0.5] CT
0.973 0.98 0.051 RC
N
460.75 194.125 M
460.75 171.25 L
488.375 171.25 L
488.375 194.125 L
cp
f
GR
GS
[0.75 0 0 0.75 0 0.5] CT
0.973 0.98 0.051 RC
N
460.75 171.25 M
460.75 148.375 L
488.375 148.375 L
488.375 171.25 L
cp
f
GR
GS
[0.75 0 0 0.75 0 0.5] CT
0.973 0.98 0.051 RC
N
460.75 148.375 M
460.75 125.5 L
488.375 125.5 L
488.375 148.375 L
cp
f
GR
GS
[0.75 0 0 0.75 0 0.5] CT
0.973 0.98 0.051 RC
N
460.75 125.5 M
460.75 102.625 L
488.375 102.625 L
488.375 125.5 L
cp
f
GR
GS
[0.75 0 0 0.75 0 0.5] CT
0.973 0.98 0.051 RC
N
460.75 102.625 M
460.75 79.75 L
488.375 79.75 L
488.375 102.625 L
cp
f
GR
GS
[0.75 0 0 0.75 0 0.5] CT
0.208 0.165 0.525 RC
N
460.75 79.75 M
460.75 56.875 L
488.375 56.875 L
488.375 79.75 L
cp
f
GR
GS
[0.75 0 0 0.75 0 0.5] CT
0.208 0.165 0.525 RC
N
460.75 56.875 M
460.75 34 L
488.375 34 L
488.375 56.875 L
cp
f
GR
GS
[0.75 0 0 0.75 0 0.5] CT
0.973 0.98 0.051 RC
N
488.375 400 M
488.375 377.125 L
516 377.125 L
516 400 L
cp
f
GR
GS
[0.75 0 0 0.75 0 0.5] CT
0.208 0.165 0.525 RC
N
488.375 377.125 M
488.375 354.25 L
516 354.25 L
516 377.125 L
cp
f
GR
GS
[0.75 0 0 0.75 0 0.5] CT
0.208 0.165 0.525 RC
N
488.375 354.25 M
488.375 331.375 L
516 331.375 L
516 354.25 L
cp
f
GR
GS
[0.75 0 0 0.75 0 0.5] CT
0.208 0.165 0.525 RC
N
488.375 331.375 M
488.375 308.5 L
516 308.5 L
516 331.375 L
cp
f
GR
GS
[0.75 0 0 0.75 0 0.5] CT
0.208 0.165 0.525 RC
N
488.375 308.5 M
488.375 285.625 L
516 285.625 L
516 308.5 L
cp
f
GR
GS
[0.75 0 0 0.75 0 0.5] CT
0.208 0.165 0.525 RC
N
488.375 285.625 M
488.375 262.75 L
516 262.75 L
516 285.625 L
cp
f
GR
GS
[0.75 0 0 0.75 0 0.5] CT
0.208 0.165 0.525 RC
N
488.375 262.75 M
488.375 239.875 L
516 239.875 L
516 262.75 L
cp
f
GR
GS
[0.75 0 0 0.75 0 0.5] CT
0.208 0.165 0.525 RC
N
488.375 239.875 M
488.375 217 L
516 217 L
516 239.875 L
cp
f
GR
GS
[0.75 0 0 0.75 0 0.5] CT
0.208 0.165 0.525 RC
N
488.375 217 M
488.375 194.125 L
516 194.125 L
516 217 L
cp
f
GR
GS
[0.75 0 0 0.75 0 0.5] CT
0.208 0.165 0.525 RC
N
488.375 194.125 M
488.375 171.25 L
516 171.25 L
516 194.125 L
cp
f
GR
GS
[0.75 0 0 0.75 0 0.5] CT
0.208 0.165 0.525 RC
N
488.375 171.25 M
488.375 148.375 L
516 148.375 L
516 171.25 L
cp
f
GR
GS
[0.75 0 0 0.75 0 0.5] CT
0.208 0.165 0.525 RC
N
488.375 148.375 M
488.375 125.5 L
516 125.5 L
516 148.375 L
cp
f
GR
GS
[0.75 0 0 0.75 0 0.5] CT
0.208 0.165 0.525 RC
N
488.375 125.5 M
488.375 102.625 L
516 102.625 L
516 125.5 L
cp
f
GR
GS
[0.75 0 0 0.75 0 0.5] CT
0.208 0.165 0.525 RC
N
488.375 102.625 M
488.375 79.75 L
516 79.75 L
516 102.625 L
cp
f
GR
GS
[0.75 0 0 0.75 0 0.5] CT
0.208 0.165 0.525 RC
N
488.375 79.75 M
488.375 56.875 L
516 56.875 L
516 79.75 L
cp
f
GR
GS
[0.75 0 0 0.75 0 0.5] CT
0.973 0.98 0.051 RC
N
488.375 56.875 M
488.375 34 L
516 34 L
516 56.875 L
cp
f
GR
GS
[0.75 0 0 0.75 0 0.5] CT
1 LJ
0.667 LW
N
74 400 M
101.625 400 L
129.25 400 L
156.875 400 L
184.5 400 L
212.125 400 L
239.75 400 L
267.375 400 L
295 400 L
322.625 400 L
350.25 400 L
377.875 400 L
405.5 400 L
433.125 400 L
460.75 400 L
488.375 400 L
516 400 L
S
GR
GS
[0.75 0 0 0.75 0 0.5] CT
1 LJ
0.667 LW
N
74 377.125 M
101.625 377.125 L
129.25 377.125 L
156.875 377.125 L
184.5 377.125 L
212.125 377.125 L
239.75 377.125 L
267.375 377.125 L
295 377.125 L
322.625 377.125 L
350.25 377.125 L
377.875 377.125 L
405.5 377.125 L
433.125 377.125 L
460.75 377.125 L
488.375 377.125 L
516 377.125 L
S
GR
GS
[0.75 0 0 0.75 0 0.5] CT
1 LJ
0.667 LW
N
74 354.25 M
101.625 354.25 L
129.25 354.25 L
156.875 354.25 L
184.5 354.25 L
212.125 354.25 L
239.75 354.25 L
267.375 354.25 L
295 354.25 L
322.625 354.25 L
350.25 354.25 L
377.875 354.25 L
405.5 354.25 L
433.125 354.25 L
460.75 354.25 L
488.375 354.25 L
516 354.25 L
S
GR
GS
[0.75 0 0 0.75 0 0.5] CT
1 LJ
0.667 LW
N
74 331.375 M
101.625 331.375 L
129.25 331.375 L
156.875 331.375 L
184.5 331.375 L
212.125 331.375 L
239.75 331.375 L
267.375 331.375 L
295 331.375 L
322.625 331.375 L
350.25 331.375 L
377.875 331.375 L
405.5 331.375 L
433.125 331.375 L
460.75 331.375 L
488.375 331.375 L
516 331.375 L
S
GR
GS
[0.75 0 0 0.75 0 0.5] CT
1 LJ
0.667 LW
N
74 308.5 M
101.625 308.5 L
129.25 308.5 L
156.875 308.5 L
184.5 308.5 L
212.125 308.5 L
239.75 308.5 L
267.375 308.5 L
295 308.5 L
322.625 308.5 L
350.25 308.5 L
377.875 308.5 L
405.5 308.5 L
433.125 308.5 L
460.75 308.5 L
488.375 308.5 L
516 308.5 L
S
GR
GS
[0.75 0 0 0.75 0 0.5] CT
1 LJ
0.667 LW
N
74 285.625 M
101.625 285.625 L
129.25 285.625 L
156.875 285.625 L
184.5 285.625 L
212.125 285.625 L
239.75 285.625 L
267.375 285.625 L
295 285.625 L
322.625 285.625 L
350.25 285.625 L
377.875 285.625 L
405.5 285.625 L
433.125 285.625 L
460.75 285.625 L
488.375 285.625 L
516 285.625 L
S
GR
GS
[0.75 0 0 0.75 0 0.5] CT
1 LJ
0.667 LW
N
74 262.75 M
101.625 262.75 L
129.25 262.75 L
156.875 262.75 L
184.5 262.75 L
212.125 262.75 L
239.75 262.75 L
267.375 262.75 L
295 262.75 L
322.625 262.75 L
350.25 262.75 L
377.875 262.75 L
405.5 262.75 L
433.125 262.75 L
460.75 262.75 L
488.375 262.75 L
516 262.75 L
S
GR
GS
[0.75 0 0 0.75 0 0.5] CT
1 LJ
0.667 LW
N
74 239.875 M
101.625 239.875 L
129.25 239.875 L
156.875 239.875 L
184.5 239.875 L
212.125 239.875 L
239.75 239.875 L
267.375 239.875 L
295 239.875 L
322.625 239.875 L
350.25 239.875 L
377.875 239.875 L
405.5 239.875 L
433.125 239.875 L
460.75 239.875 L
488.375 239.875 L
516 239.875 L
S
GR
GS
[0.75 0 0 0.75 0 0.5] CT
1 LJ
0.667 LW
N
74 217 M
101.625 217 L
129.25 217 L
156.875 217 L
184.5 217 L
212.125 217 L
239.75 217 L
267.375 217 L
295 217 L
322.625 217 L
350.25 217 L
377.875 217 L
405.5 217 L
433.125 217 L
460.75 217 L
488.375 217 L
516 217 L
S
GR
GS
[0.75 0 0 0.75 0 0.5] CT
1 LJ
0.667 LW
N
74 194.125 M
101.625 194.125 L
129.25 194.125 L
156.875 194.125 L
184.5 194.125 L
212.125 194.125 L
239.75 194.125 L
267.375 194.125 L
295 194.125 L
322.625 194.125 L
350.25 194.125 L
377.875 194.125 L
405.5 194.125 L
433.125 194.125 L
460.75 194.125 L
488.375 194.125 L
516 194.125 L
S
GR
GS
[0.75 0 0 0.75 0 0.5] CT
1 LJ
0.667 LW
N
74 171.25 M
101.625 171.25 L
129.25 171.25 L
156.875 171.25 L
184.5 171.25 L
212.125 171.25 L
239.75 171.25 L
267.375 171.25 L
295 171.25 L
322.625 171.25 L
350.25 171.25 L
377.875 171.25 L
405.5 171.25 L
433.125 171.25 L
460.75 171.25 L
488.375 171.25 L
516 171.25 L
S
GR
GS
[0.75 0 0 0.75 0 0.5] CT
1 LJ
0.667 LW
N
74 148.375 M
101.625 148.375 L
129.25 148.375 L
156.875 148.375 L
184.5 148.375 L
212.125 148.375 L
239.75 148.375 L
267.375 148.375 L
295 148.375 L
322.625 148.375 L
350.25 148.375 L
377.875 148.375 L
405.5 148.375 L
433.125 148.375 L
460.75 148.375 L
488.375 148.375 L
516 148.375 L
S
GR
GS
[0.75 0 0 0.75 0 0.5] CT
1 LJ
0.667 LW
N
74 125.5 M
101.625 125.5 L
129.25 125.5 L
156.875 125.5 L
184.5 125.5 L
212.125 125.5 L
239.75 125.5 L
267.375 125.5 L
295 125.5 L
322.625 125.5 L
350.25 125.5 L
377.875 125.5 L
405.5 125.5 L
433.125 125.5 L
460.75 125.5 L
488.375 125.5 L
516 125.5 L
S
GR
GS
[0.75 0 0 0.75 0 0.5] CT
1 LJ
0.667 LW
N
74 102.625 M
101.625 102.625 L
129.25 102.625 L
156.875 102.625 L
184.5 102.625 L
212.125 102.625 L
239.75 102.625 L
267.375 102.625 L
295 102.625 L
322.625 102.625 L
350.25 102.625 L
377.875 102.625 L
405.5 102.625 L
433.125 102.625 L
460.75 102.625 L
488.375 102.625 L
516 102.625 L
S
GR
GS
[0.75 0 0 0.75 0 0.5] CT
1 LJ
0.667 LW
N
74 79.75 M
101.625 79.75 L
129.25 79.75 L
156.875 79.75 L
184.5 79.75 L
212.125 79.75 L
239.75 79.75 L
267.375 79.75 L
295 79.75 L
322.625 79.75 L
350.25 79.75 L
377.875 79.75 L
405.5 79.75 L
433.125 79.75 L
460.75 79.75 L
488.375 79.75 L
516 79.75 L
S
GR
GS
[0.75 0 0 0.75 0 0.5] CT
1 LJ
0.667 LW
N
74 56.875 M
101.625 56.875 L
129.25 56.875 L
156.875 56.875 L
184.5 56.875 L
212.125 56.875 L
239.75 56.875 L
267.375 56.875 L
295 56.875 L
322.625 56.875 L
350.25 56.875 L
377.875 56.875 L
405.5 56.875 L
433.125 56.875 L
460.75 56.875 L
488.375 56.875 L
516 56.875 L
S
GR
GS
[0.75 0 0 0.75 0 0.5] CT
1 LJ
0.667 LW
N
74 34 M
101.625 34 L
129.25 34 L
156.875 34 L
184.5 34 L
212.125 34 L
239.75 34 L
267.375 34 L
295 34 L
322.625 34 L
350.25 34 L
377.875 34 L
405.5 34 L
433.125 34 L
460.75 34 L
488.375 34 L
516 34 L
S
GR
GS
[0.75 0 0 0.75 0 0.5] CT
1 LJ
0.667 LW
N
74 400 M
74 377.125 L
74 354.25 L
74 331.375 L
74 308.5 L
74 285.625 L
74 262.75 L
74 239.875 L
74 217 L
74 194.125 L
74 171.25 L
74 148.375 L
74 125.5 L
74 102.625 L
74 79.75 L
74 56.875 L
74 34 L
S
GR
GS
[0.75 0 0 0.75 0 0.5] CT
1 LJ
0.667 LW
N
101.625 400 M
101.625 377.125 L
101.625 354.25 L
101.625 331.375 L
101.625 308.5 L
101.625 285.625 L
101.625 262.75 L
101.625 239.875 L
101.625 217 L
101.625 194.125 L
101.625 171.25 L
101.625 148.375 L
101.625 125.5 L
101.625 102.625 L
101.625 79.75 L
101.625 56.875 L
101.625 34 L
S
GR
GS
[0.75 0 0 0.75 0 0.5] CT
1 LJ
0.667 LW
N
129.25 400 M
129.25 377.125 L
129.25 354.25 L
129.25 331.375 L
129.25 308.5 L
129.25 285.625 L
129.25 262.75 L
129.25 239.875 L
129.25 217 L
129.25 194.125 L
129.25 171.25 L
129.25 148.375 L
129.25 125.5 L
129.25 102.625 L
129.25 79.75 L
129.25 56.875 L
129.25 34 L
S
GR
GS
[0.75 0 0 0.75 0 0.5] CT
1 LJ
0.667 LW
N
156.875 400 M
156.875 377.125 L
156.875 354.25 L
156.875 331.375 L
156.875 308.5 L
156.875 285.625 L
156.875 262.75 L
156.875 239.875 L
156.875 217 L
156.875 194.125 L
156.875 171.25 L
156.875 148.375 L
156.875 125.5 L
156.875 102.625 L
156.875 79.75 L
156.875 56.875 L
156.875 34 L
S
GR
GS
[0.75 0 0 0.75 0 0.5] CT
1 LJ
0.667 LW
N
184.5 400 M
184.5 377.125 L
184.5 354.25 L
184.5 331.375 L
184.5 308.5 L
184.5 285.625 L
184.5 262.75 L
184.5 239.875 L
184.5 217 L
184.5 194.125 L
184.5 171.25 L
184.5 148.375 L
184.5 125.5 L
184.5 102.625 L
184.5 79.75 L
184.5 56.875 L
184.5 34 L
S
GR
GS
[0.75 0 0 0.75 0 0.5] CT
1 LJ
0.667 LW
N
212.125 400 M
212.125 377.125 L
212.125 354.25 L
212.125 331.375 L
212.125 308.5 L
212.125 285.625 L
212.125 262.75 L
212.125 239.875 L
212.125 217 L
212.125 194.125 L
212.125 171.25 L
212.125 148.375 L
212.125 125.5 L
212.125 102.625 L
212.125 79.75 L
212.125 56.875 L
212.125 34 L
S
GR
GS
[0.75 0 0 0.75 0 0.5] CT
1 LJ
0.667 LW
N
239.75 400 M
239.75 377.125 L
239.75 354.25 L
239.75 331.375 L
239.75 308.5 L
239.75 285.625 L
239.75 262.75 L
239.75 239.875 L
239.75 217 L
239.75 194.125 L
239.75 171.25 L
239.75 148.375 L
239.75 125.5 L
239.75 102.625 L
239.75 79.75 L
239.75 56.875 L
239.75 34 L
S
GR
GS
[0.75 0 0 0.75 0 0.5] CT
1 LJ
0.667 LW
N
267.375 400 M
267.375 377.125 L
267.375 354.25 L
267.375 331.375 L
267.375 308.5 L
267.375 285.625 L
267.375 262.75 L
267.375 239.875 L
267.375 217 L
267.375 194.125 L
267.375 171.25 L
267.375 148.375 L
267.375 125.5 L
267.375 102.625 L
267.375 79.75 L
267.375 56.875 L
267.375 34 L
S
GR
GS
[0.75 0 0 0.75 0 0.5] CT
1 LJ
0.667 LW
N
295 400 M
295 377.125 L
295 354.25 L
295 331.375 L
295 308.5 L
295 285.625 L
295 262.75 L
295 239.875 L
295 217 L
295 194.125 L
295 171.25 L
295 148.375 L
295 125.5 L
295 102.625 L
295 79.75 L
295 56.875 L
295 34 L
S
GR
GS
[0.75 0 0 0.75 0 0.5] CT
1 LJ
0.667 LW
N
322.625 400 M
322.625 377.125 L
322.625 354.25 L
322.625 331.375 L
322.625 308.5 L
322.625 285.625 L
322.625 262.75 L
322.625 239.875 L
322.625 217 L
322.625 194.125 L
322.625 171.25 L
322.625 148.375 L
322.625 125.5 L
322.625 102.625 L
322.625 79.75 L
322.625 56.875 L
322.625 34 L
S
GR
GS
[0.75 0 0 0.75 0 0.5] CT
1 LJ
0.667 LW
N
350.25 400 M
350.25 377.125 L
350.25 354.25 L
350.25 331.375 L
350.25 308.5 L
350.25 285.625 L
350.25 262.75 L
350.25 239.875 L
350.25 217 L
350.25 194.125 L
350.25 171.25 L
350.25 148.375 L
350.25 125.5 L
350.25 102.625 L
350.25 79.75 L
350.25 56.875 L
350.25 34 L
S
GR
GS
[0.75 0 0 0.75 0 0.5] CT
1 LJ
0.667 LW
N
377.875 400 M
377.875 377.125 L
377.875 354.25 L
377.875 331.375 L
377.875 308.5 L
377.875 285.625 L
377.875 262.75 L
377.875 239.875 L
377.875 217 L
377.875 194.125 L
377.875 171.25 L
377.875 148.375 L
377.875 125.5 L
377.875 102.625 L
377.875 79.75 L
377.875 56.875 L
377.875 34 L
S
GR
GS
[0.75 0 0 0.75 0 0.5] CT
1 LJ
0.667 LW
N
405.5 400 M
405.5 377.125 L
405.5 354.25 L
405.5 331.375 L
405.5 308.5 L
405.5 285.625 L
405.5 262.75 L
405.5 239.875 L
405.5 217 L
405.5 194.125 L
405.5 171.25 L
405.5 148.375 L
405.5 125.5 L
405.5 102.625 L
405.5 79.75 L
405.5 56.875 L
405.5 34 L
S
GR
GS
[0.75 0 0 0.75 0 0.5] CT
1 LJ
0.667 LW
N
433.125 400 M
433.125 377.125 L
433.125 354.25 L
433.125 331.375 L
433.125 308.5 L
433.125 285.625 L
433.125 262.75 L
433.125 239.875 L
433.125 217 L
433.125 194.125 L
433.125 171.25 L
433.125 148.375 L
433.125 125.5 L
433.125 102.625 L
433.125 79.75 L
433.125 56.875 L
433.125 34 L
S
GR
GS
[0.75 0 0 0.75 0 0.5] CT
1 LJ
0.667 LW
N
460.75 400 M
460.75 377.125 L
460.75 354.25 L
460.75 331.375 L
460.75 308.5 L
460.75 285.625 L
460.75 262.75 L
460.75 239.875 L
460.75 217 L
460.75 194.125 L
460.75 171.25 L
460.75 148.375 L
460.75 125.5 L
460.75 102.625 L
460.75 79.75 L
460.75 56.875 L
460.75 34 L
S
GR
GS
[0.75 0 0 0.75 0 0.5] CT
1 LJ
0.667 LW
N
488.375 400 M
488.375 377.125 L
488.375 354.25 L
488.375 331.375 L
488.375 308.5 L
488.375 285.625 L
488.375 262.75 L
488.375 239.875 L
488.375 217 L
488.375 194.125 L
488.375 171.25 L
488.375 148.375 L
488.375 125.5 L
488.375 102.625 L
488.375 79.75 L
488.375 56.875 L
488.375 34 L
S
GR
GS
[0.75 0 0 0.75 0 0.5] CT
1 LJ
0.667 LW
N
516 400 M
516 377.125 L
516 354.25 L
516 331.375 L
516 308.5 L
516 285.625 L
516 262.75 L
516 239.875 L
516 217 L
516 194.125 L
516 171.25 L
516 148.375 L
516 125.5 L
516 102.625 L
516 79.75 L
516 56.875 L
516 34 L
S
GR
%%Trailer
%%Pages: 1
%%EOF
