%!PS-Adobe-3.0 EPSF-3.0
%%Creator: (MATLAB, The Mathworks, Inc. Version 8.6.0.267246 \(R2015b\). Operating System: Linux)
%%Title: /afs/kth.se/home/s/a/samiula/Documents/PatternRecognition/Assignment2_updated/Assignment2/DrawCharacter/rightquadP/rightquad.eps
%%CreationDate: 2016-09-28T15:28:32
%%Pages: (atend)
%%BoundingBox: 0 0 323 338
%%LanguageLevel: 2
%%EndComments
%%BeginProlog
%%BeginResource: procset (Apache XML Graphics Std ProcSet) 1.2 0
%%Version: 1.2 0
%%Copyright: (Copyright 2001-2003,2010 The Apache Software Foundation. License terms: http://www.apache.org/licenses/LICENSE-2.0)
/bd{bind def}bind def
/ld{load def}bd
/GR/grestore ld
/M/moveto ld
/LJ/setlinejoin ld
/C/curveto ld
/f/fill ld
/LW/setlinewidth ld
/GC/setgray ld
/t/show ld
/N/newpath ld
/CT/concat ld
/cp/closepath ld
/S/stroke ld
/L/lineto ld
/CC/setcmykcolor ld
/A/ashow ld
/GS/gsave ld
/RC/setrgbcolor ld
/RM/rmoveto ld
/ML/setmiterlimit ld
/re {4 2 roll M
1 index 0 rlineto
0 exch rlineto
neg 0 rlineto
cp } bd
/_ctm matrix def
/_tm matrix def
/BT { _ctm currentmatrix pop matrix _tm copy pop 0 0 moveto } bd
/ET { _ctm setmatrix } bd
/iTm { _ctm setmatrix _tm concat } bd
/Tm { _tm astore pop iTm 0 0 moveto } bd
/ux 0.0 def
/uy 0.0 def
/F {
  /Tp exch def
  /Tf exch def
  Tf findfont Tp scalefont setfont
  /cf Tf def  /cs Tp def
} bd
/ULS {currentpoint /uy exch def /ux exch def} bd
/ULE {
  /Tcx currentpoint pop def
  gsave
  newpath
  cf findfont cs scalefont dup
  /FontMatrix get 0 get /Ts exch def /FontInfo get dup
  /UnderlinePosition get Ts mul /To exch def
  /UnderlineThickness get Ts mul /Tt exch def
  ux uy To add moveto  Tcx uy To add lineto
  Tt setlinewidth stroke
  grestore
} bd
/OLE {
  /Tcx currentpoint pop def
  gsave
  newpath
  cf findfont cs scalefont dup
  /FontMatrix get 0 get /Ts exch def /FontInfo get dup
  /UnderlinePosition get Ts mul /To exch def
  /UnderlineThickness get Ts mul /Tt exch def
  ux uy To add cs add moveto Tcx uy To add cs add lineto
  Tt setlinewidth stroke
  grestore
} bd
/SOE {
  /Tcx currentpoint pop def
  gsave
  newpath
  cf findfont cs scalefont dup
  /FontMatrix get 0 get /Ts exch def /FontInfo get dup
  /UnderlinePosition get Ts mul /To exch def
  /UnderlineThickness get Ts mul /Tt exch def
  ux uy To add cs 10 mul 26 idiv add moveto Tcx uy To add cs 10 mul 26 idiv add lineto
  Tt setlinewidth stroke
  grestore
} bd
/QT {
/Y22 exch store
/X22 exch store
/Y21 exch store
/X21 exch store
currentpoint
/Y21 load 2 mul add 3 div exch
/X21 load 2 mul add 3 div exch
/X21 load 2 mul /X22 load add 3 div
/Y21 load 2 mul /Y22 load add 3 div
/X22 load /Y22 load curveto
} bd
/SSPD {
dup length /d exch dict def
{
/v exch def
/k exch def
currentpagedevice k known {
/cpdv currentpagedevice k get def
v cpdv ne {
/upd false def
/nullv v type /nulltype eq def
/nullcpdv cpdv type /nulltype eq def
nullv nullcpdv or
{
/upd true def
} {
/sametype v type cpdv type eq def
sametype {
v type /arraytype eq {
/vlen v length def
/cpdvlen cpdv length def
vlen cpdvlen eq {
0 1 vlen 1 sub {
/i exch def
/obj v i get def
/cpdobj cpdv i get def
obj cpdobj ne {
/upd true def
exit
} if
} for
} {
/upd true def
} ifelse
} {
v type /dicttype eq {
v {
/dv exch def
/dk exch def
/cpddv cpdv dk get def
dv cpddv ne {
/upd true def
exit
} if
} forall
} {
/upd true def
} ifelse
} ifelse
} if
} ifelse
upd true eq {
d k v put
} if
} if
} if
} forall
d length 0 gt {
d setpagedevice
} if
} bd
%%EndResource
%%BeginResource: procset (Apache XML Graphics EPS ProcSet) 1.0 0
%%Version: 1.0 0
%%Copyright: (Copyright 2002-2003 The Apache Software Foundation. License terms: http://www.apache.org/licenses/LICENSE-2.0)
/BeginEPSF { %def
/b4_Inc_state save def         % Save state for cleanup
/dict_count countdictstack def % Count objects on dict stack
/op_count count 1 sub def      % Count objects on operand stack
userdict begin                 % Push userdict on dict stack
/showpage { } def              % Redefine showpage, { } = null proc
0 setgray 0 setlinecap         % Prepare graphics state
1 setlinewidth 0 setlinejoin
10 setmiterlimit [ ] 0 setdash newpath
/languagelevel where           % If level not equal to 1 then
{pop languagelevel             % set strokeadjust and
1 ne                           % overprint to their defaults.
{false setstrokeadjust false setoverprint
} if
} if
} bd
/EndEPSF { %def
count op_count sub {pop} repeat            % Clean up stacks
countdictstack dict_count sub {end} repeat
b4_Inc_state restore
} bd
%%EndResource
%FOPBeginFontDict
%%IncludeResource: font Courier-Bold
%%IncludeResource: font Helvetica
%%IncludeResource: font Courier-BoldOblique
%%IncludeResource: font Courier-Oblique
%%IncludeResource: font Times-Roman
%%IncludeResource: font Helvetica-BoldOblique
%%IncludeResource: font Helvetica-Bold
%%IncludeResource: font Helvetica-Oblique
%%IncludeResource: font Times-BoldItalic
%%IncludeResource: font Courier
%%IncludeResource: font Times-Italic
%%IncludeResource: font Times-Bold
%%IncludeResource: font Symbol
%%IncludeResource: font ZapfDingbats
%FOPEndFontDict
%%BeginResource: encoding WinAnsiEncoding
/WinAnsiEncoding [
/.notdef /.notdef /.notdef /.notdef /.notdef
/.notdef /.notdef /.notdef /.notdef /.notdef
/.notdef /.notdef /.notdef /.notdef /.notdef
/.notdef /.notdef /.notdef /.notdef /.notdef
/.notdef /.notdef /.notdef /.notdef /.notdef
/.notdef /.notdef /.notdef /.notdef /.notdef
/.notdef /.notdef /space /exclam /quotedbl
/numbersign /dollar /percent /ampersand /quotesingle
/parenleft /parenright /asterisk /plus /comma
/hyphen /period /slash /zero /one
/two /three /four /five /six
/seven /eight /nine /colon /semicolon
/less /equal /greater /question /at
/A /B /C /D /E
/F /G /H /I /J
/K /L /M /N /O
/P /Q /R /S /T
/U /V /W /X /Y
/Z /bracketleft /backslash /bracketright /asciicircum
/underscore /quoteleft /a /b /c
/d /e /f /g /h
/i /j /k /l /m
/n /o /p /q /r
/s /t /u /v /w
/x /y /z /braceleft /bar
/braceright /asciitilde /bullet /Euro /bullet
/quotesinglbase /florin /quotedblbase /ellipsis /dagger
/daggerdbl /circumflex /perthousand /Scaron /guilsinglleft
/OE /bullet /Zcaron /bullet /bullet
/quoteleft /quoteright /quotedblleft /quotedblright /bullet
/endash /emdash /asciitilde /trademark /scaron
/guilsinglright /oe /bullet /zcaron /Ydieresis
/space /exclamdown /cent /sterling /currency
/yen /brokenbar /section /dieresis /copyright
/ordfeminine /guillemotleft /logicalnot /sfthyphen /registered
/macron /degree /plusminus /twosuperior /threesuperior
/acute /mu /paragraph /middot /cedilla
/onesuperior /ordmasculine /guillemotright /onequarter /onehalf
/threequarters /questiondown /Agrave /Aacute /Acircumflex
/Atilde /Adieresis /Aring /AE /Ccedilla
/Egrave /Eacute /Ecircumflex /Edieresis /Igrave
/Iacute /Icircumflex /Idieresis /Eth /Ntilde
/Ograve /Oacute /Ocircumflex /Otilde /Odieresis
/multiply /Oslash /Ugrave /Uacute /Ucircumflex
/Udieresis /Yacute /Thorn /germandbls /agrave
/aacute /acircumflex /atilde /adieresis /aring
/ae /ccedilla /egrave /eacute /ecircumflex
/edieresis /igrave /iacute /icircumflex /idieresis
/eth /ntilde /ograve /oacute /ocircumflex
/otilde /odieresis /divide /oslash /ugrave
/uacute /ucircumflex /udieresis /yacute /thorn
/ydieresis
] def
%%EndResource
%FOPBeginFontReencode
/Courier-Bold findfont
dup length dict begin
  {1 index /FID ne {def} {pop pop} ifelse} forall
  /Encoding WinAnsiEncoding def
  currentdict
end
/Courier-Bold exch definefont pop
/Helvetica findfont
dup length dict begin
  {1 index /FID ne {def} {pop pop} ifelse} forall
  /Encoding WinAnsiEncoding def
  currentdict
end
/Helvetica exch definefont pop
/Courier-BoldOblique findfont
dup length dict begin
  {1 index /FID ne {def} {pop pop} ifelse} forall
  /Encoding WinAnsiEncoding def
  currentdict
end
/Courier-BoldOblique exch definefont pop
/Courier-Oblique findfont
dup length dict begin
  {1 index /FID ne {def} {pop pop} ifelse} forall
  /Encoding WinAnsiEncoding def
  currentdict
end
/Courier-Oblique exch definefont pop
/Times-Roman findfont
dup length dict begin
  {1 index /FID ne {def} {pop pop} ifelse} forall
  /Encoding WinAnsiEncoding def
  currentdict
end
/Times-Roman exch definefont pop
/Helvetica-BoldOblique findfont
dup length dict begin
  {1 index /FID ne {def} {pop pop} ifelse} forall
  /Encoding WinAnsiEncoding def
  currentdict
end
/Helvetica-BoldOblique exch definefont pop
/Helvetica-Bold findfont
dup length dict begin
  {1 index /FID ne {def} {pop pop} ifelse} forall
  /Encoding WinAnsiEncoding def
  currentdict
end
/Helvetica-Bold exch definefont pop
/Helvetica-Oblique findfont
dup length dict begin
  {1 index /FID ne {def} {pop pop} ifelse} forall
  /Encoding WinAnsiEncoding def
  currentdict
end
/Helvetica-Oblique exch definefont pop
/Times-BoldItalic findfont
dup length dict begin
  {1 index /FID ne {def} {pop pop} ifelse} forall
  /Encoding WinAnsiEncoding def
  currentdict
end
/Times-BoldItalic exch definefont pop
/Courier findfont
dup length dict begin
  {1 index /FID ne {def} {pop pop} ifelse} forall
  /Encoding WinAnsiEncoding def
  currentdict
end
/Courier exch definefont pop
/Times-Italic findfont
dup length dict begin
  {1 index /FID ne {def} {pop pop} ifelse} forall
  /Encoding WinAnsiEncoding def
  currentdict
end
/Times-Italic exch definefont pop
/Times-Bold findfont
dup length dict begin
  {1 index /FID ne {def} {pop pop} ifelse} forall
  /Encoding WinAnsiEncoding def
  currentdict
end
/Times-Bold exch definefont pop
%FOPEndFontReencode
%%EndProlog
%%Page: 1 1
%%PageBoundingBox: 0 0 323 338
%%BeginPageSetup
[1 0 0 -1 0 338] CT
%%EndPageSetup
GS
[0.75 0 0 0.75 0 0.5] CT
N
0 0 M
430 0 L
430 450 L
0 450 L
0 0 L
cp
clip
1 GC
N
0 0 430 450 re
f
GR
GS
[0.75 0 0 0.75 0 0.5] CT
1 GC
N
0 0 430 450 re
f
GR
GS
[0.75 0 0 0.75 0 0.5] CT
1 GC
N
56 392.094 M
389 392.094 L
389 41.906 L
56 41.906 L
cp
f
GR
GS
[0.75 0 0 0.75 0 0.5] CT
0.149 GC
2 setlinecap
1 LJ
0.667 LW
N
56 392.094 M
389 392.094 L
S
GR
GS
[0.75 0 0 0.75 0 0.5] CT
0.149 GC
2 setlinecap
1 LJ
0.667 LW
N
56 41.906 M
389 41.906 L
S
GR
GS
[0.75 0 0 0.75 0 0.5] CT
0.149 GC
2 setlinecap
1 LJ
0.667 LW
N
56 392.094 M
56 41.906 L
S
GR
GS
[0.75 0 0 0.75 0 0.5] CT
0.149 GC
2 setlinecap
1 LJ
0.667 LW
N
389 392.094 M
389 41.906 L
S
GR
GS
[0.75 0 0 0.75 0 0.5] CT
0 0.447 0.741 RC
1 LJ
0.667 LW
N
290.924 286.584 M
290.924 286.584 L
S
GR
GS
[0.75 0 0 0.75 0 0.5] CT
0.851 0.325 0.098 RC
1 LJ
0.667 LW
N
290.924 286.584 M
290.924 286.584 L
S
GR
GS
[0.75 0 0 0.75 0 0.5] CT
0.929 0.694 0.125 RC
1 LJ
0.667 LW
N
290.924 286.584 M
290.924 286.584 L
S
GR
GS
[0.75 0 0 0.75 0 0.5] CT
0.494 0.184 0.557 RC
1 LJ
0.667 LW
N
290.924 286.584 M
289.924 290.403 L
S
GR
GS
[0.75 0 0 0.75 0 0.5] CT
0.467 0.675 0.188 RC
1 LJ
0.667 LW
N
289.924 290.403 M
290.924 294.223 L
S
GR
GS
[0.75 0 0 0.75 0 0.5] CT
0.302 0.745 0.933 RC
1 LJ
0.667 LW
N
290.924 294.223 M
290.924 298.042 L
S
GR
GS
[0.75 0 0 0.75 0 0.5] CT
0.635 0.078 0.184 RC
1 LJ
0.667 LW
N
290.924 298.042 M
290.924 299.952 L
S
GR
GS
[0.75 0 0 0.75 0 0.5] CT
0 0.447 0.741 RC
1 LJ
0.667 LW
N
290.924 299.952 M
290.924 302.816 L
S
GR
GS
[0.75 0 0 0.75 0 0.5] CT
0.851 0.325 0.098 RC
1 LJ
0.667 LW
N
290.924 302.816 M
290.924 305.681 L
S
GR
GS
[0.75 0 0 0.75 0 0.5] CT
0.929 0.694 0.125 RC
1 LJ
0.667 LW
N
290.924 305.681 M
290.924 308.545 L
S
GR
GS
[0.75 0 0 0.75 0 0.5] CT
0.494 0.184 0.557 RC
1 LJ
0.667 LW
N
290.924 308.545 M
291.923 310.455 L
S
GR
GS
[0.75 0 0 0.75 0 0.5] CT
0.467 0.675 0.188 RC
1 LJ
0.667 LW
N
291.923 310.455 M
291.923 310.455 L
S
GR
GS
[0.75 0 0 0.75 0 0.5] CT
0.302 0.745 0.933 RC
1 LJ
0.667 LW
N
291.923 310.455 M
291.923 313.319 L
S
GR
GS
[0.75 0 0 0.75 0 0.5] CT
0.635 0.078 0.184 RC
1 LJ
0.667 LW
N
291.923 313.319 M
291.923 315.229 L
S
GR
GS
[0.75 0 0 0.75 0 0.5] CT
0 0.447 0.741 RC
1 LJ
0.667 LW
N
291.923 315.229 M
292.922 317.139 L
S
GR
GS
[0.75 0 0 0.75 0 0.5] CT
0.851 0.325 0.098 RC
1 LJ
0.667 LW
N
292.922 317.139 M
292.922 318.094 L
S
GR
GS
[0.75 0 0 0.75 0 0.5] CT
0.929 0.694 0.125 RC
1 LJ
0.667 LW
N
292.922 318.094 M
292.922 318.094 L
S
GR
GS
[0.75 0 0 0.75 0 0.5] CT
0.494 0.184 0.557 RC
1 LJ
0.667 LW
N
292.922 318.094 M
292.922 319.048 L
S
GR
GS
[0.75 0 0 0.75 0 0.5] CT
0.467 0.675 0.188 RC
1 LJ
0.667 LW
N
292.922 319.048 M
292.922 322.868 L
S
GR
GS
[0.75 0 0 0.75 0 0.5] CT
0.302 0.745 0.933 RC
1 LJ
0.667 LW
N
292.922 322.868 M
292.922 323.823 L
S
GR
GS
[0.75 0 0 0.75 0 0.5] CT
0.635 0.078 0.184 RC
1 LJ
0.667 LW
N
292.922 323.823 M
292.922 326.687 L
S
GR
GS
[0.75 0 0 0.75 0 0.5] CT
0 0.447 0.741 RC
1 LJ
0.667 LW
N
292.922 326.687 M
292.922 327.642 L
S
GR
GS
[0.75 0 0 0.75 0 0.5] CT
0.851 0.325 0.098 RC
1 LJ
0.667 LW
N
292.922 327.642 M
292.922 329.552 L
S
GR
GS
[0.75 0 0 0.75 0 0.5] CT
0.929 0.694 0.125 RC
1 LJ
0.667 LW
N
292.922 329.552 M
292.922 331.461 L
S
GR
GS
[0.75 0 0 0.75 0 0.5] CT
0.494 0.184 0.557 RC
1 LJ
0.667 LW
N
292.922 331.461 M
292.922 332.416 L
S
GR
GS
[0.75 0 0 0.75 0 0.5] CT
0.467 0.675 0.188 RC
1 LJ
0.667 LW
N
292.922 332.416 M
292.922 334.326 L
S
GR
GS
[0.75 0 0 0.75 0 0.5] CT
0.302 0.745 0.933 RC
1 LJ
0.667 LW
N
292.922 334.326 M
292.922 337.19 L
S
GR
GS
[0.75 0 0 0.75 0 0.5] CT
0.635 0.078 0.184 RC
1 LJ
0.667 LW
N
292.922 337.19 M
292.922 338.145 L
S
GR
GS
[0.75 0 0 0.75 0 0.5] CT
0 0.447 0.741 RC
1 LJ
0.667 LW
N
292.922 338.145 M
292.922 341.01 L
S
GR
GS
[0.75 0 0 0.75 0 0.5] CT
0.851 0.325 0.098 RC
1 LJ
0.667 LW
N
292.922 341.01 M
292.922 341.965 L
S
GR
GS
[0.75 0 0 0.75 0 0.5] CT
0.929 0.694 0.125 RC
1 LJ
0.667 LW
N
292.922 341.965 M
292.922 342.919 L
S
GR
GS
[0.75 0 0 0.75 0 0.5] CT
0.494 0.184 0.557 RC
1 LJ
0.667 LW
N
292.922 342.919 M
292.922 343.874 L
S
GR
GS
[0.75 0 0 0.75 0 0.5] CT
0.467 0.675 0.188 RC
1 LJ
0.667 LW
N
292.922 343.874 M
292.922 345.784 L
S
GR
GS
[0.75 0 0 0.75 0 0.5] CT
0.302 0.745 0.933 RC
1 LJ
0.667 LW
N
292.922 345.784 M
292.922 346.739 L
S
GR
GS
[0.75 0 0 0.75 0 0.5] CT
0.635 0.078 0.184 RC
1 LJ
0.667 LW
N
292.922 346.739 M
292.922 348.648 L
S
GR
GS
[0.75 0 0 0.75 0 0.5] CT
0 0.447 0.741 RC
1 LJ
0.667 LW
N
292.922 348.648 M
292.922 348.648 L
S
GR
GS
[0.75 0 0 0.75 0 0.5] CT
0.851 0.325 0.098 RC
1 LJ
0.667 LW
N
292.922 348.648 M
292.922 351.513 L
S
GR
GS
[0.75 0 0 0.75 0 0.5] CT
0.929 0.694 0.125 RC
1 LJ
0.667 LW
N
292.922 351.513 M
292.922 355.332 L
S
GR
GS
[0.75 0 0 0.75 0 0.5] CT
0.494 0.184 0.557 RC
1 LJ
0.667 LW
N
292.922 355.332 M
292.922 357.242 L
S
GR
GS
[0.75 0 0 0.75 0 0.5] CT
0.467 0.675 0.188 RC
1 LJ
0.667 LW
N
292.922 357.242 M
292.922 358.197 L
S
GR
GS
[0.75 0 0 0.75 0 0.5] CT
0.302 0.745 0.933 RC
1 LJ
0.667 LW
N
292.922 358.197 M
292.922 361.061 L
S
GR
GS
[0.75 0 0 0.75 0 0.5] CT
0.635 0.078 0.184 RC
1 LJ
0.667 LW
N
292.922 361.061 M
292.922 362.971 L
S
GR
GS
[0.75 0 0 0.75 0 0.5] CT
0 0.447 0.741 RC
1 LJ
0.667 LW
N
292.922 362.971 M
292.922 362.971 L
S
GR
GS
[0.75 0 0 0.75 0 0.5] CT
0.851 0.325 0.098 RC
1 LJ
0.667 LW
N
292.922 362.971 M
292.922 362.971 L
S
GR
GS
[0.75 0 0 0.75 0 0.5] CT
0.929 0.694 0.125 RC
1 LJ
0.667 LW
N
292.922 362.971 M
292.922 364.881 L
S
GR
GS
[0.75 0 0 0.75 0 0.5] CT
0.494 0.184 0.557 RC
1 LJ
0.667 LW
N
292.922 364.881 M
292.922 364.881 L
S
GR
GS
[0.75 0 0 0.75 0 0.5] CT
0.467 0.675 0.188 RC
1 LJ
0.667 LW
N
292.922 364.881 M
292.922 364.881 L
S
GR
GS
[0.75 0 0 0.75 0 0.5] CT
0.302 0.745 0.933 RC
1 LJ
0.667 LW
N
292.922 364.881 M
292.922 364.881 L
S
GR
GS
[0.75 0 0 0.75 0 0.5] CT
0.635 0.078 0.184 RC
1 LJ
0.667 LW
N
287.926 284.674 M
287.926 284.674 L
S
GR
GS
[0.75 0 0 0.75 0 0.5] CT
0 0.447 0.741 RC
1 LJ
0.667 LW
N
287.926 284.674 M
287.926 284.674 L
S
GR
GS
[0.75 0 0 0.75 0 0.5] CT
0.851 0.325 0.098 RC
1 LJ
0.667 LW
N
287.926 284.674 M
287.926 284.674 L
S
GR
GS
[0.75 0 0 0.75 0 0.5] CT
0.929 0.694 0.125 RC
1 LJ
0.667 LW
N
287.926 284.674 M
289.924 283.719 L
S
GR
GS
[0.75 0 0 0.75 0 0.5] CT
0.494 0.184 0.557 RC
1 LJ
0.667 LW
N
289.924 283.719 M
291.923 283.719 L
S
GR
GS
[0.75 0 0 0.75 0 0.5] CT
0.467 0.675 0.188 RC
1 LJ
0.667 LW
N
291.923 283.719 M
295.92 283.719 L
S
GR
GS
[0.75 0 0 0.75 0 0.5] CT
0.302 0.745 0.933 RC
1 LJ
0.667 LW
N
295.92 283.719 M
297.918 282.765 L
S
GR
GS
[0.75 0 0 0.75 0 0.5] CT
0.635 0.078 0.184 RC
1 LJ
0.667 LW
N
297.918 282.765 M
298.918 282.765 L
S
GR
GS
[0.75 0 0 0.75 0 0.5] CT
0 0.447 0.741 RC
1 LJ
0.667 LW
N
298.918 282.765 M
298.918 282.765 L
S
GR
GS
[0.75 0 0 0.75 0 0.5] CT
0.851 0.325 0.098 RC
1 LJ
0.667 LW
N
298.918 282.765 M
300.916 281.81 L
S
GR
GS
[0.75 0 0 0.75 0 0.5] CT
0.929 0.694 0.125 RC
1 LJ
0.667 LW
N
300.916 281.81 M
303.914 281.81 L
S
GR
GS
[0.75 0 0 0.75 0 0.5] CT
0.494 0.184 0.557 RC
1 LJ
0.667 LW
N
303.914 281.81 M
305.912 280.855 L
S
GR
GS
[0.75 0 0 0.75 0 0.5] CT
0.467 0.675 0.188 RC
1 LJ
0.667 LW
N
305.912 280.855 M
306.912 279.9 L
S
GR
GS
[0.75 0 0 0.75 0 0.5] CT
0.302 0.745 0.933 RC
1 LJ
0.667 LW
N
306.912 279.9 M
309.909 279.9 L
S
GR
GS
[0.75 0 0 0.75 0 0.5] CT
0.635 0.078 0.184 RC
1 LJ
0.667 LW
N
309.909 279.9 M
309.909 279.9 L
S
GR
GS
[0.75 0 0 0.75 0 0.5] CT
0 0.447 0.741 RC
1 LJ
0.667 LW
N
309.909 279.9 M
311.908 279.9 L
S
GR
GS
[0.75 0 0 0.75 0 0.5] CT
0.851 0.325 0.098 RC
1 LJ
0.667 LW
N
311.908 279.9 M
313.906 279.9 L
S
GR
GS
[0.75 0 0 0.75 0 0.5] CT
0.929 0.694 0.125 RC
1 LJ
0.667 LW
N
313.906 279.9 M
315.905 279.9 L
S
GR
GS
[0.75 0 0 0.75 0 0.5] CT
0.494 0.184 0.557 RC
1 LJ
0.667 LW
N
315.905 279.9 M
319.902 280.855 L
S
GR
GS
[0.75 0 0 0.75 0 0.5] CT
0.467 0.675 0.188 RC
1 LJ
0.667 LW
N
319.902 280.855 M
320.901 281.81 L
S
GR
GS
[0.75 0 0 0.75 0 0.5] CT
0.302 0.745 0.933 RC
1 LJ
0.667 LW
N
320.901 281.81 M
321.9 281.81 L
S
GR
GS
[0.75 0 0 0.75 0 0.5] CT
0.635 0.078 0.184 RC
1 LJ
0.667 LW
N
321.9 281.81 M
323.899 282.765 L
S
GR
GS
[0.75 0 0 0.75 0 0.5] CT
0 0.447 0.741 RC
1 LJ
0.667 LW
N
323.899 282.765 M
323.899 282.765 L
S
GR
GS
[0.75 0 0 0.75 0 0.5] CT
0.851 0.325 0.098 RC
1 LJ
0.667 LW
N
323.899 282.765 M
326.897 285.629 L
S
GR
GS
[0.75 0 0 0.75 0 0.5] CT
0.929 0.694 0.125 RC
1 LJ
0.667 LW
N
326.897 285.629 M
327.896 286.584 L
S
GR
GS
[0.75 0 0 0.75 0 0.5] CT
0.494 0.184 0.557 RC
1 LJ
0.667 LW
N
327.896 286.584 M
329.894 288.494 L
S
GR
GS
[0.75 0 0 0.75 0 0.5] CT
0.467 0.675 0.188 RC
1 LJ
0.667 LW
N
329.894 288.494 M
330.894 289.448 L
S
GR
GS
[0.75 0 0 0.75 0 0.5] CT
0.302 0.745 0.933 RC
1 LJ
0.667 LW
N
330.894 289.448 M
332.892 292.313 L
S
GR
GS
[0.75 0 0 0.75 0 0.5] CT
0.635 0.078 0.184 RC
1 LJ
0.667 LW
N
332.892 292.313 M
332.892 293.268 L
S
GR
GS
[0.75 0 0 0.75 0 0.5] CT
0 0.447 0.741 RC
1 LJ
0.667 LW
N
332.892 293.268 M
332.892 294.223 L
S
GR
GS
[0.75 0 0 0.75 0 0.5] CT
0.851 0.325 0.098 RC
1 LJ
0.667 LW
N
332.892 294.223 M
334.891 296.132 L
S
GR
GS
[0.75 0 0 0.75 0 0.5] CT
0.929 0.694 0.125 RC
1 LJ
0.667 LW
N
334.891 296.132 M
334.891 296.132 L
S
GR
GS
[0.75 0 0 0.75 0 0.5] CT
0.494 0.184 0.557 RC
1 LJ
0.667 LW
N
334.891 296.132 M
334.891 298.042 L
S
GR
GS
[0.75 0 0 0.75 0 0.5] CT
0.467 0.675 0.188 RC
1 LJ
0.667 LW
N
334.891 298.042 M
334.891 298.997 L
S
GR
GS
[0.75 0 0 0.75 0 0.5] CT
0.302 0.745 0.933 RC
1 LJ
0.667 LW
N
334.891 298.997 M
334.891 299.952 L
S
GR
GS
[0.75 0 0 0.75 0 0.5] CT
0.635 0.078 0.184 RC
1 LJ
0.667 LW
N
334.891 299.952 M
334.891 302.816 L
S
GR
GS
[0.75 0 0 0.75 0 0.5] CT
0 0.447 0.741 RC
1 LJ
0.667 LW
N
334.891 302.816 M
334.891 303.771 L
S
GR
GS
[0.75 0 0 0.75 0 0.5] CT
0.851 0.325 0.098 RC
1 LJ
0.667 LW
N
334.891 303.771 M
334.891 303.771 L
S
GR
GS
[0.75 0 0 0.75 0 0.5] CT
0.929 0.694 0.125 RC
1 LJ
0.667 LW
N
334.891 303.771 M
334.891 305.681 L
S
GR
GS
[0.75 0 0 0.75 0 0.5] CT
0.494 0.184 0.557 RC
1 LJ
0.667 LW
N
334.891 305.681 M
333.891 306.635 L
S
GR
GS
[0.75 0 0 0.75 0 0.5] CT
0.467 0.675 0.188 RC
1 LJ
0.667 LW
N
333.891 306.635 M
333.891 308.545 L
S
GR
GS
[0.75 0 0 0.75 0 0.5] CT
0.302 0.745 0.933 RC
1 LJ
0.667 LW
N
333.891 308.545 M
333.891 309.5 L
S
GR
GS
[0.75 0 0 0.75 0 0.5] CT
0.635 0.078 0.184 RC
1 LJ
0.667 LW
N
333.891 309.5 M
333.891 309.5 L
S
GR
GS
[0.75 0 0 0.75 0 0.5] CT
0 0.447 0.741 RC
1 LJ
0.667 LW
N
333.891 309.5 M
333.891 310.455 L
S
GR
GS
[0.75 0 0 0.75 0 0.5] CT
0.851 0.325 0.098 RC
1 LJ
0.667 LW
N
333.891 310.455 M
333.891 313.319 L
S
GR
GS
[0.75 0 0 0.75 0 0.5] CT
0.929 0.694 0.125 RC
1 LJ
0.667 LW
N
333.891 313.319 M
332.892 314.274 L
S
GR
GS
[0.75 0 0 0.75 0 0.5] CT
0.494 0.184 0.557 RC
1 LJ
0.667 LW
N
332.892 314.274 M
332.892 315.229 L
S
GR
GS
[0.75 0 0 0.75 0 0.5] CT
0.467 0.675 0.188 RC
1 LJ
0.667 LW
N
332.892 315.229 M
332.892 317.139 L
S
GR
GS
[0.75 0 0 0.75 0 0.5] CT
0.302 0.745 0.933 RC
1 LJ
0.667 LW
N
332.892 317.139 M
331.893 319.048 L
S
GR
GS
[0.75 0 0 0.75 0 0.5] CT
0.635 0.078 0.184 RC
1 LJ
0.667 LW
N
331.893 319.048 M
329.894 320.958 L
S
GR
GS
[0.75 0 0 0.75 0 0.5] CT
0 0.447 0.741 RC
1 LJ
0.667 LW
N
329.894 320.958 M
328.895 321.913 L
S
GR
GS
[0.75 0 0 0.75 0 0.5] CT
0.851 0.325 0.098 RC
1 LJ
0.667 LW
N
328.895 321.913 M
327.896 322.868 L
S
GR
GS
[0.75 0 0 0.75 0 0.5] CT
0.929 0.694 0.125 RC
1 LJ
0.667 LW
N
327.896 322.868 M
326.897 323.823 L
S
GR
GS
[0.75 0 0 0.75 0 0.5] CT
0.494 0.184 0.557 RC
1 LJ
0.667 LW
N
326.897 323.823 M
323.899 324.777 L
S
GR
GS
[0.75 0 0 0.75 0 0.5] CT
0.467 0.675 0.188 RC
1 LJ
0.667 LW
N
323.899 324.777 M
319.902 325.732 L
S
GR
GS
[0.75 0 0 0.75 0 0.5] CT
0.302 0.745 0.933 RC
1 LJ
0.667 LW
N
319.902 325.732 M
314.906 328.597 L
S
GR
GS
[0.75 0 0 0.75 0 0.5] CT
0.635 0.078 0.184 RC
1 LJ
0.667 LW
N
314.906 328.597 M
312.907 328.597 L
S
GR
GS
[0.75 0 0 0.75 0 0.5] CT
0 0.447 0.741 RC
1 LJ
0.667 LW
N
312.907 328.597 M
309.909 329.552 L
S
GR
GS
[0.75 0 0 0.75 0 0.5] CT
0.851 0.325 0.098 RC
1 LJ
0.667 LW
N
309.909 329.552 M
309.909 329.552 L
S
GR
GS
[0.75 0 0 0.75 0 0.5] CT
0.929 0.694 0.125 RC
1 LJ
0.667 LW
N
309.909 329.552 M
308.91 329.552 L
S
GR
GS
[0.75 0 0 0.75 0 0.5] CT
0.494 0.184 0.557 RC
1 LJ
0.667 LW
N
308.91 329.552 M
307.911 329.552 L
S
GR
GS
[0.75 0 0 0.75 0 0.5] CT
0.467 0.675 0.188 RC
1 LJ
0.667 LW
N
307.911 329.552 M
305.912 330.506 L
S
GR
GS
[0.75 0 0 0.75 0 0.5] CT
0.302 0.745 0.933 RC
1 LJ
0.667 LW
N
305.912 330.506 M
304.913 330.506 L
S
GR
GS
[0.75 0 0 0.75 0 0.5] CT
0.635 0.078 0.184 RC
1 LJ
0.667 LW
N
304.913 330.506 M
302.915 330.506 L
S
GR
GS
[0.75 0 0 0.75 0 0.5] CT
0 0.447 0.741 RC
1 LJ
0.667 LW
N
302.915 330.506 M
300.916 330.506 L
S
GR
GS
[0.75 0 0 0.75 0 0.5] CT
0.851 0.325 0.098 RC
1 LJ
0.667 LW
N
300.916 330.506 M
298.918 330.506 L
S
GR
GS
[0.75 0 0 0.75 0 0.5] CT
0.929 0.694 0.125 RC
1 LJ
0.667 LW
N
298.918 330.506 M
297.918 330.506 L
S
GR
GS
[0.75 0 0 0.75 0 0.5] CT
0.494 0.184 0.557 RC
1 LJ
0.667 LW
N
297.918 330.506 M
295.92 330.506 L
S
GR
GS
[0.75 0 0 0.75 0 0.5] CT
0.467 0.675 0.188 RC
1 LJ
0.667 LW
N
295.92 330.506 M
294.921 330.506 L
S
GR
GS
[0.75 0 0 0.75 0 0.5] CT
0.302 0.745 0.933 RC
1 LJ
0.667 LW
N
294.921 330.506 M
294.921 330.506 L
S
GR
GS
[0.75 0 0 0.75 0 0.5] CT
0.635 0.078 0.184 RC
1 LJ
0.667 LW
N
294.921 330.506 M
294.921 330.506 L
S
GR
GS
[0.75 0 0 0.75 0 0.5] CT
0 0.447 0.741 RC
1 LJ
0.667 LW
N
294.921 330.506 M
294.921 330.506 L
S
GR
GS
[0.75 0 0 0.75 0 0.5] CT
0.851 0.325 0.098 RC
1 LJ
0.667 LW
N
294.921 330.506 M
294.921 330.506 L
S
GR
GS
[0.75 0 0 0.75 0 0.5] CT
0.929 0.694 0.125 RC
1 LJ
0.667 LW
N
294.921 330.506 M
293.921 330.506 L
S
GR
GS
[0.75 0 0 0.75 0 0.5] CT
0.494 0.184 0.557 RC
1 LJ
0.667 LW
N
293.921 330.506 M
292.922 330.506 L
S
GR
GS
[0.75 0 0 0.75 0 0.5] CT
0.467 0.675 0.188 RC
1 LJ
0.667 LW
N
292.922 330.506 M
292.922 330.506 L
S
GR
GS
[0.75 0 0 0.75 0 0.5] CT
0.302 0.745 0.933 RC
1 LJ
0.667 LW
N
292.922 330.506 M
292.922 330.506 L
S
GR
GS
[0.75 0 0 0.75 0 0.5] CT
0.635 0.078 0.184 RC
1 LJ
0.667 LW
N
292.922 330.506 M
289.924 329.552 L
S
GR
GS
[0.75 0 0 0.75 0 0.5] CT
0 0.447 0.741 RC
1 LJ
0.667 LW
N
289.924 329.552 M
289.924 329.552 L
S
GR
GS
[0.75 0 0 0.75 0 0.5] CT
0.851 0.325 0.098 RC
1 LJ
0.667 LW
N
289.924 329.552 M
288.925 328.597 L
S
GR
GS
[0.75 0 0 0.75 0 0.5] CT
0.929 0.694 0.125 RC
1 LJ
0.667 LW
N
288.925 328.597 M
288.925 328.597 L
S
GR
GS
[0.75 0 0 0.75 0 0.5] CT
0.494 0.184 0.557 RC
1 LJ
0.667 LW
N
288.925 328.597 M
288.925 328.597 L
S
GR
GS
[0.75 0 0 0.75 0 0.5] CT
0.467 0.675 0.188 RC
1 LJ
0.667 LW
N
288.925 328.597 M
287.926 327.642 L
S
GR
GS
[0.75 0 0 0.75 0 0.5] CT
0.302 0.745 0.933 RC
1 LJ
0.667 LW
N
287.926 327.642 M
287.926 327.642 L
S
GR
GS
[0.75 0 0 0.75 0 0.5] CT
0.635 0.078 0.184 RC
1 LJ
0.667 LW
N
287.926 327.642 M
287.926 327.642 L
S
GR
GS
[0.75 0 0 0.75 0 0.5] CT
0 0.447 0.741 RC
1 LJ
0.667 LW
N
287.926 327.642 M
287.926 327.642 L
S
GR
%%Trailer
%%Pages: 1
%%EOF
